30
12
7.949468085106382
7.128947368421052
5.156914893617021
6.778947368421051
-6.087765957446809
9.357894736842105
-6.422872340425532
13.35526315789474
1.079787234042552
7.663157894736841
4.337765957446807
8.621052631578948
7.949468085106382
7.128947368421052
4.50531914893617
6.44736842105263
-6.087765957446809
9.357894736842105
-6.422872340425532
13.35526315789474
1.4335106382978715
7.699999999999996
4.039893617021276
8.786842105263162
7.949468085106382
7.128947368421052
4.207446808510637
6.300000000000004
-6.087765957446809
9.357894736842105
-6.422872340425532
13.35526315789474
2.0478723404255312
7.718421052631584
3.5
9.118421052631575
7.949468085106382
7.128947368421052
3.8909574468085104
6.171052631578945
-6.087765957446809
9.357894736842105
-6.422872340425532
13.35526315789474
2.3457446808510642
7.755263157894738
3.164893617021276
9.284210526315789
7.949468085106382
7.128947368421052
3.295212765957446
5.913157894736841
-6.087765957446809
9.357894736842105
-6.422872340425532
13.35526315789474
2.8111702127659566
7.810526315789474
2.6063829787234045
9.578947368421055
7.949468085106382
7.128947368421052
3.0531914893617014
5.821052631578951
-6.087765957446809
9.357894736842105
-6.422872340425532
13.35526315789474
3.0531914893617014
7.828947368421055
1.9920212765957448
9.910526315789475
7.949468085106382
7.128947368421052
2.7739361702127656
5.7289473684210535
-6.087765957446809
9.357894736842105
-6.422872340425532
13.35526315789474
3.5930851063829774
7.939473684210526
1.414893617021276
10.205263157894741
7.949468085106382
7.128947368421052
2.3457446808510642
5.618421052631575
-6.087765957446809
9.357894736842105
-6.422872340425532
13.35526315789474
3.704787234042552
7.994736842105269
0.912234042553191
10.481578947368419
7.949468085106382
7.128947368421052
2.1781914893617014
5.5815789473684205
-6.087765957446809
9.357894736842105
-6.422872340425532
13.35526315789474
3.872340425531915
8.068421052631578
0.6329787234042552
10.62894736842106
7.949468085106382
7.128947368421052
2.0292553191489358
5.56315789473684
-6.087765957446809
9.357894736842105
-6.422872340425532
13.35526315789474
3.9281914893617014
8.086842105263159
0.13031914893617014
10.92368421052631
7.949468085106382
7.128947368421052
1.8803191489361701
5.526315789473685
-6.087765957446809
9.357894736842105
-6.422872340425532
13.35526315789474
4.002659574468085
8.123684210526314
-0.09308510638297918
11.071052631578944
7.949468085106382
7.128947368421052
1.6755319148936163
5.489473684210523
-6.087765957446809
9.357894736842105
-6.422872340425532
13.35526315789474
4.0585106382978715
8.123684210526314
-0.5957446808510642
11.347368421052629
7.949468085106382
7.128947368421052
1.6196808510638299
5.4526315789473685
-6.087765957446809
9.357894736842105
-6.422872340425532
13.35526315789474
4.0585106382978715
8.123684210526314
-0.8191489361702127
11.47631578947368
7.949468085106382
7.128947368421052
1.6196808510638299
5.4526315789473685
-6.087765957446809
9.357894736842105
-6.422872340425532
13.35526315789474
4.0585106382978715
8.123684210526314
-1.2845744680851068
11.752631578947366
7.949468085106382
7.128947368421052
1.6196808510638299
5.4526315789473685
-6.087765957446809
9.357894736842105
-6.422872340425532
13.35526315789474
4.0585106382978715
8.123684210526314
-1.4893617021276597
11.863157894736844
7.949468085106382
7.128947368421052
1.6196808510638299
5.4526315789473685
-6.087765957446809
9.357894736842105
-6.422872340425532
13.35526315789474
4.0585106382978715
8.123684210526314
-1.8617021276595747
12.084210526315786
7.949468085106382
7.128947368421052
1.6196808510638299
5.4526315789473685
-6.087765957446809
9.357894736842105
-6.422872340425532
13.35526315789474
4.0585106382978715
8.123684210526314
-2.047872340425532
12.176315789473684
7.949468085106382
7.128947368421052
1.6196808510638299
5.4526315789473685
-6.087765957446809
9.357894736842105
-6.422872340425532
13.35526315789474
4.0585106382978715
8.123684210526314
-2.382978723404255
12.286842105263155
7.949468085106382
7.128947368421052
1.6196808510638299
5.4526315789473685
-6.087765957446809
9.357894736842105
-6.422872340425532
13.35526315789474
4.0585106382978715
8.123684210526314
-2.5132978723404253
12.34210526315789
7.949468085106382
7.128947368421052
1.6196808510638299
5.4526315789473685
-6.087765957446809
9.357894736842105
-6.422872340425532
13.35526315789474
4.0585106382978715
8.123684210526314
-2.7367021276595747
12.434210526315795
7.949468085106382
7.128947368421052
1.6196808510638299
5.4526315789473685
-6.087765957446809
9.357894736842105
-6.422872340425532
13.35526315789474
4.0585106382978715
8.123684210526314
-2.8111702127659575
12.452631578947368
7.949468085106382
7.128947368421052
1.6196808510638299
5.4526315789473685
-6.087765957446809
9.357894736842105
-6.422872340425532
13.35526315789474
4.0585106382978715
8.123684210526314
-2.8856382978723403
12.489473684210523
3.667553191489361
4.900000000000006
1.6196808510638299
5.4526315789473685
-6.087765957446809
9.357894736842105
-6.422872340425532
13.35526315789474
4.0585106382978715
8.123684210526314
-2.8856382978723403
12.489473684210523
3.7606382978723403
5.084210526315786
1.6196808510638299
5.4526315789473685
-6.087765957446809
9.357894736842105
-6.422872340425532
13.35526315789474
4.0585106382978715
8.123684210526314
-2.8856382978723403
12.489473684210523
3.835106382978722
5.194736842105264
1.6196808510638299
5.4526315789473685
-6.087765957446809
9.357894736842105
-6.422872340425532
13.35526315789474
4.0585106382978715
8.123684210526314
-2.8856382978723403
12.489473684210523
3.9840425531914896
5.526315789473685
1.6196808510638299
5.4526315789473685
-6.087765957446809
9.357894736842105
-6.422872340425532
13.35526315789474
4.0585106382978715
8.123684210526314
-2.8856382978723403
12.489473684210523
4.188829787234042
6.023684210526319
1.6196808510638299
5.4526315789473685
-6.087765957446809
9.357894736842105
-6.422872340425532
13.35526315789474
4.0585106382978715
8.123684210526314
-2.8856382978723403
12.489473684210523
4.319148936170212
6.281578947368416
1.6196808510638299
5.4526315789473685
-6.087765957446809
9.357894736842105
-6.422872340425532
13.35526315789474
4.0585106382978715
8.123684210526314
-2.8856382978723403
12.489473684210523
4.523936170212766
6.834210526315786
1.6196808510638299
5.4526315789473685
-6.087765957446809
9.357894736842105
-6.422872340425532
13.35526315789474
4.0585106382978715
8.123684210526314
-2.8856382978723403
12.489473684210523
4.579787234042552
7.0736842105263165
1.6196808510638299
5.4526315789473685
-6.087765957446809
9.357894736842105
-6.422872340425532
13.35526315789474
4.0585106382978715
8.123684210526314
-2.8856382978723403
12.489473684210523
