38
12
-0.5585106382978724
3.242105263157896
-2.3643617021276597
4.089473684210525
-4.039893617021277
9.61578947368421
3.0531914893617014
11.899999999999999
4.188829787234042
9.32105263157895
-1.7313829787234045
8.75
-0.5585106382978724
3.242105263157896
-2.3643617021276597
4.089473684210525
-4.039893617021277
9.61578947368421
3.0531914893617014
11.899999999999999
4.039893617021276
9.228947368421053
-1.7313829787234045
8.75
-0.5585106382978724
3.242105263157896
-2.3643617021276597
4.089473684210525
-4.039893617021277
9.61578947368421
2.9414893617021267
11.789473684210527
3.909574468085106
9.17368421052631
-1.7313829787234045
8.75
-0.5585106382978724
3.242105263157896
-2.3643617021276597
4.089473684210525
-3.946808510638298
9.52368421052632
2.792553191489361
11.623684210526314
3.7792553191489358
9.118421052631575
-1.7313829787234045
8.75
-0.5585106382978724
3.242105263157896
-2.3643617021276597
4.089473684210525
-3.872340425531915
9.449999999999996
2.662234042553191
11.494736842105262
3.36968085106383
8.897368421052633
-1.7313829787234045
8.75
-0.5585106382978724
3.242105263157896
-2.3643617021276597
4.089473684210525
-3.797872340425532
9.357894736842105
2.531914893617021
11.36578947368421
3.127659574468085
8.75
-1.7313829787234045
8.75
-0.5585106382978724
3.242105263157896
-2.3643617021276597
4.089473684210525
-3.6117021276595747
9.17368421052631
2.2154255319148923
11.015789473684208
2.9042553191489358
8.602631578947374
-1.7313829787234045
8.75
-0.5585106382978724
3.242105263157896
-2.3643617021276597
4.089473684210525
-3.4813829787234045
9.044736842105266
2.0106382978723403
10.81315789473684
2.382978723404255
8.289473684210527
-1.7313829787234045
8.75
-0.5585106382978724
3.242105263157896
-2.3643617021276597
4.089473684210525
-3.2579787234042556
8.823684210526316
1.6382978723404253
10.463157894736845
2.196808510638297
8.19736842105263
-1.7313829787234045
8.75
-0.5585106382978724
3.242105263157896
-2.3643617021276597
4.089473684210525
-3.146276595744681
8.731578947368419
1.4707446808510642
10.27894736842105
2.0478723404255312
8.123684210526314
-1.7313829787234045
8.75
-0.5585106382978724
3.242105263157896
-2.3643617021276597
4.089473684210525
-3.015957446808511
8.621052631578948
1.042553191489361
9.892105263157895
1.824468085106382
7.994736842105269
-1.7313829787234045
8.75
-0.5585106382978724
3.242105263157896
-2.3643617021276597
4.089473684210525
-2.7367021276595747
8.41842105263158
0.875
9.72631578947368
1.7686170212765955
7.976315789473681
-1.7313829787234045
8.75
-0.5585106382978724
3.242105263157896
-2.3643617021276597
4.089473684210525
-2.550531914893617
8.32631578947369
0.5026595744680851
9.357894736842105
1.7686170212765955
7.976315789473681
-1.7313829787234045
8.75
-0.5585106382978724
3.242105263157896
-2.3643617021276597
4.089473684210525
-2.382978723404255
8.234210526315792
0.3164893617021276
9.192105263157899
1.7686170212765955
7.976315789473681
-1.7313829787234045
8.75
-0.5585106382978724
3.242105263157896
-2.3643617021276597
4.089473684210525
-1.9920212765957448
8.068421052631578
-0.05585106382978733
8.860526315789471
1.7686170212765955
7.976315789473681
-1.7313829787234045
8.75
-0.5585106382978724
3.242105263157896
-2.3643617021276597
4.089473684210525
-1.7686170212765964
7.994736842105269
-0.20478723404255383
8.713157894736838
1.7686170212765955
7.976315789473681
-1.7313829787234045
8.75
-0.5585106382978724
3.242105263157896
-2.3643617021276597
4.089473684210525
-1.340425531914894
7.8657894736842096
-0.35372340425531945
8.565789473684212
1.7686170212765955
7.976315789473681
-1.7313829787234045
8.75
-0.5585106382978724
3.242105263157896
-2.3643617021276597
4.089473684210525
-1.0797872340425538
7.792105263157893
-0.6515957446808516
8.307894736842101
1.7686170212765955
7.976315789473681
-1.7313829787234045
8.75
-0.5585106382978724
3.242105263157896
-2.3643617021276597
4.089473684210525
-0.5957446808510642
7.718421052631584
-0.8005319148936172
8.178947368421056
1.7686170212765955
7.976315789473681
-1.7313829787234045
8.75
-0.5585106382978724
3.242105263157896
-2.3643617021276597
4.089473684210525
-0.3164893617021276
7.681578947368422
-1.0239361702127665
7.994736842105269
1.7686170212765955
7.976315789473681
-1.7313829787234045
8.75
-0.5585106382978724
3.242105263157896
-2.3643617021276597
4.089473684210525
0.20478723404255295
7.663157894736841
-1.1170212765957448
7.921052631578945
1.7686170212765955
7.976315789473681
-1.7313829787234045
8.75
-0.5585106382978724
3.242105263157896
-2.3643617021276597
4.089473684210525
0.5026595744680851
7.64473684210526
-1.2659574468085113
7.755263157894738
1.7686170212765955
7.976315789473681
-1.7313829787234045
8.75
-0.5585106382978724
3.242105263157896
-2.3643617021276597
4.089473684210525
1.079787234042552
7.64473684210526
-1.340425531914894
7.699999999999996
1.7686170212765955
7.976315789473681
-1.7313829787234045
8.75
-0.5585106382978724
3.242105263157896
-2.3643617021276597
4.089473684210525
1.3590425531914896
7.64473684210526
-1.3962765957446814
7.64473684210526
1.7686170212765955
7.976315789473681
-1.7313829787234045
8.75
-0.5585106382978724
3.242105263157896
-2.3643617021276597
4.089473684210525
1.954787234042552
7.626315789473686
-1.3962765957446814
7.64473684210526
1.7686170212765955
7.976315789473681
-1.7313829787234045
8.75
-0.5585106382978724
3.242105263157896
-2.3643617021276597
4.089473684210525
2.2340425531914896
7.626315789473686
-1.3962765957446814
7.64473684210526
1.7686170212765955
7.976315789473681
-1.7313829787234045
8.75
-0.5585106382978724
3.242105263157896
-2.3643617021276597
4.089473684210525
2.7739361702127656
7.626315789473686
-1.3962765957446814
7.64473684210526
1.7686170212765955
7.976315789473681
-1.7313829787234045
8.75
-0.5585106382978724
3.242105263157896
-2.3643617021276597
4.089473684210525
3.034574468085106
7.626315789473686
-1.3962765957446814
7.64473684210526
1.7686170212765955
7.976315789473681
-1.7313829787234045
8.75
-0.5585106382978724
3.242105263157896
-2.3643617021276597
4.089473684210525
3.574468085106382
7.626315789473686
-1.3962765957446814
7.64473684210526
1.7686170212765955
7.976315789473681
-1.7313829787234045
8.75
-0.5585106382978724
3.242105263157896
-2.3643617021276597
4.089473684210525
3.7792553191489358
7.626315789473686
-1.3962765957446814
7.64473684210526
1.7686170212765955
7.976315789473681
-1.7313829787234045
8.75
-0.5585106382978724
3.242105263157896
-2.3643617021276597
4.089473684210525
4.24468085106383
7.626315789473686
-1.3962765957446814
7.64473684210526
1.7686170212765955
7.976315789473681
-1.7313829787234045
8.75
-0.5585106382978724
3.242105263157896
-2.3643617021276597
4.089473684210525
4.449468085106382
7.64473684210526
-1.3962765957446814
7.64473684210526
1.7686170212765955
7.976315789473681
-1.7313829787234045
8.75
-0.5585106382978724
3.242105263157896
-2.3643617021276597
4.089473684210525
4.784574468085106
7.681578947368422
-1.3962765957446814
7.64473684210526
1.7686170212765955
7.976315789473681
-1.7313829787234045
8.75
-0.5585106382978724
3.242105263157896
-2.3643617021276597
4.089473684210525
4.8962765957446805
7.699999999999996
-1.3962765957446814
7.64473684210526
1.7686170212765955
7.976315789473681
-1.7313829787234045
8.75
-0.5585106382978724
3.242105263157896
-2.3643617021276597
4.089473684210525
5.026595744680851
7.699999999999996
-1.3962765957446814
7.64473684210526
1.7686170212765955
7.976315789473681
-1.7313829787234045
8.75
-0.5585106382978724
3.242105263157896
-2.3643617021276597
4.089473684210525
5.063829787234042
7.718421052631584
-1.3962765957446814
7.64473684210526
1.7686170212765955
7.976315789473681
-1.7313829787234045
8.75
-0.5585106382978724
3.242105263157896
-2.3643617021276597
4.089473684210525
5.063829787234042
7.718421052631584
-1.3962765957446814
7.64473684210526
1.7686170212765955
7.976315789473681
-1.7313829787234045
8.75
-0.5585106382978724
3.242105263157896
-2.3643617021276597
4.089473684210525
5.063829787234042
7.718421052631584
-1.3962765957446814
7.64473684210526
1.7686170212765955
7.976315789473681
-1.7313829787234045
8.75
