45
12
-1.6010638297872344
11.771052631578947
6.273936170212766
13.336842105263159
-2.4015957446808516
13.300000000000004
0.912234042553191
6.005263157894738
-2.587765957446809
11.973684210526315
5.026595744680851
9.486842105263158
-1.6010638297872344
11.771052631578947
6.404255319148936
13.336842105263159
-2.1968085106382977
13.318421052631578
0.912234042553191
6.005263157894738
-2.587765957446809
11.973684210526315
5.026595744680851
9.486842105263158
-1.6010638297872344
11.771052631578947
6.460106382978722
13.318421052631578
-1.7686170212765964
13.35526315789474
0.912234042553191
6.005263157894738
-2.587765957446809
11.973684210526315
5.026595744680851
9.486842105263158
-1.6010638297872344
11.771052631578947
6.571808510638297
13.263157894736842
-1.5638297872340425
13.35526315789474
0.912234042553191
6.005263157894738
-2.587765957446809
11.973684210526315
5.026595744680851
9.486842105263158
-1.6010638297872344
11.771052631578947
6.6462765957446805
13.244736842105262
-1.0984042553191493
13.373684210526314
0.912234042553191
6.005263157894738
-2.587765957446809
11.973684210526315
5.026595744680851
9.486842105263158
-1.6010638297872344
11.771052631578947
6.702127659574467
13.189473684210526
-0.875
13.373684210526314
0.912234042553191
6.005263157894738
-2.587765957446809
11.973684210526315
5.026595744680851
9.486842105263158
-1.6010638297872344
11.771052631578947
6.832446808510637
13.078947368421055
-0.6515957446808516
13.392105263157895
0.912234042553191
6.005263157894738
-2.587765957446809
11.973684210526315
5.026595744680851
9.486842105263158
-1.6010638297872344
11.771052631578947
6.888297872340425
13.02368421052632
-0.16755319148936199
13.410526315789475
0.912234042553191
6.005263157894738
-2.587765957446809
11.973684210526315
5.026595744680851
9.486842105263158
-1.6010638297872344
11.771052631578947
7.0
12.857894736842105
0.27925531914893575
13.428947368421056
0.912234042553191
6.005263157894738
-2.587765957446809
11.973684210526315
5.026595744680851
9.486842105263158
-1.6010638297872344
11.771052631578947
7.055851063829786
12.784210526315789
0.5212765957446805
13.428947368421056
0.912234042553191
6.005263157894738
-2.587765957446809
11.973684210526315
5.026595744680851
9.486842105263158
-1.6010638297872344
11.771052631578947
7.093085106382977
12.710526315789473
1.0053191489361701
13.44736842105263
0.912234042553191
6.005263157894738
-2.587765957446809
11.973684210526315
5.026595744680851
9.486842105263158
-1.6010638297872344
11.771052631578947
7.13031914893617
12.600000000000001
1.247340425531915
13.44736842105263
0.912234042553191
6.005263157894738
-2.587765957446809
11.973684210526315
5.026595744680851
9.486842105263158
-1.6010638297872344
11.771052631578947
7.204787234042552
12.360526315789471
1.75
13.44736842105263
0.912234042553191
6.005263157894738
-2.587765957446809
11.973684210526315
5.026595744680851
9.486842105263158
-1.6010638297872344
11.771052631578947
7.242021276595745
12.213157894736845
1.9734042553191493
13.44736842105263
0.912234042553191
6.005263157894738
-2.587765957446809
11.973684210526315
5.026595744680851
9.486842105263158
-1.6010638297872344
11.771052631578947
7.279255319148936
12.065789473684205
2.4760638297872344
13.44736842105263
0.912234042553191
6.005263157894738
-2.587765957446809
11.973684210526315
5.026595744680851
9.486842105263158
-1.6010638297872344
11.771052631578947
7.316489361702127
11.771052631578947
2.699468085106382
13.44736842105263
0.912234042553191
6.005263157894738
-2.587765957446809
11.973684210526315
5.026595744680851
9.486842105263158
-1.6010638297872344
11.771052631578947
7.335106382978722
11.586842105263159
3.1835106382978715
13.44736842105263
0.912234042553191
6.005263157894738
-2.587765957446809
11.973684210526315
5.026595744680851
9.486842105263158
-1.6010638297872344
11.771052631578947
7.335106382978722
11.421052631578945
3.444148936170212
13.465789473684211
0.912234042553191
6.005263157894738
-2.587765957446809
11.973684210526315
5.026595744680851
9.486842105263158
-1.6010638297872344
11.771052631578947
7.353723404255318
11.089473684210525
3.9281914893617014
13.465789473684211
0.912234042553191
6.005263157894738
-2.587765957446809
11.973684210526315
5.026595744680851
9.486842105263158
-1.6010638297872344
11.771052631578947
7.335106382978722
10.942105263157899
4.170212765957446
13.465789473684211
0.912234042553191
6.005263157894738
-2.587765957446809
11.973684210526315
5.026595744680851
9.486842105263158
-1.6010638297872344
11.771052631578947
7.297872340425531
10.776315789473685
4.5984042553191475
13.428947368421056
0.912234042553191
6.005263157894738
-2.587765957446809
11.973684210526315
5.026595744680851
9.486842105263158
-1.6010638297872344
11.771052631578947
7.297872340425531
10.610526315789471
4.803191489361701
13.410526315789475
0.912234042553191
6.005263157894738
-2.587765957446809
11.973684210526315
5.026595744680851
9.486842105263158
-1.6010638297872344
11.771052631578947
7.26063829787234
10.315789473684205
5.212765957446807
13.392105263157895
0.912234042553191
6.005263157894738
-2.587765957446809
11.973684210526315
5.026595744680851
9.486842105263158
-1.6010638297872344
11.771052631578947
7.242021276595745
10.18684210526316
5.398936170212766
13.373684210526314
0.912234042553191
6.005263157894738
-2.587765957446809
11.973684210526315
5.026595744680851
9.486842105263158
-1.6010638297872344
11.771052631578947
7.2234042553191475
10.057894736842101
5.752659574468085
13.336842105263159
0.912234042553191
6.005263157894738
-2.587765957446809
11.973684210526315
5.026595744680851
9.486842105263158
-1.6010638297872344
11.771052631578947
7.204787234042552
9.910526315789475
5.920212765957446
13.318421052631578
0.912234042553191
6.005263157894738
-2.587765957446809
11.973684210526315
5.026595744680851
9.486842105263158
-1.6010638297872344
11.771052631578947
7.13031914893617
9.63421052631579
6.069148936170212
13.318421052631578
0.912234042553191
6.005263157894738
-2.587765957446809
11.973684210526315
5.026595744680851
9.486842105263158
-1.6010638297872344
11.771052631578947
7.111702127659575
9.486842105263158
6.3484042553191475
13.281578947368423
0.912234042553191
6.005263157894738
-2.587765957446809
11.973684210526315
5.026595744680851
9.486842105263158
-1.6010638297872344
11.771052631578947
7.074468085106382
9.357894736842105
6.460106382978722
13.263157894736842
0.912234042553191
6.005263157894738
-2.587765957446809
11.973684210526315
5.026595744680851
9.486842105263158
-1.6010638297872344
11.771052631578947
7.037234042553191
9.228947368421053
6.6462765957446805
13.13421052631579
0.912234042553191
6.005263157894738
-2.587765957446809
11.973684210526315
5.026595744680851
9.486842105263158
-1.6010638297872344
11.771052631578947
6.925531914893616
8.97105263157895
6.7207446808510625
13.042105263157893
0.912234042553191
6.005263157894738
-2.587765957446809
11.973684210526315
5.026595744680851
9.486842105263158
-1.6010638297872344
11.771052631578947
6.86968085106383
8.842105263157897
6.7207446808510625
13.042105263157893
0.912234042553191
6.005263157894738
-2.587765957446809
11.973684210526315
5.026595744680851
9.486842105263158
-1.6010638297872344
11.771052631578947
6.813829787234042
8.713157894736838
6.7207446808510625
13.042105263157893
0.912234042553191
6.005263157894738
-2.587765957446809
11.973684210526315
5.026595744680851
9.486842105263158
-1.6010638297872344
11.771052631578947
6.6835106382978715
8.455263157894734
6.7207446808510625
13.042105263157893
0.912234042553191
6.005263157894738
-2.587765957446809
11.973684210526315
5.026595744680851
9.486842105263158
-1.6010638297872344
11.771052631578947
6.627659574468085
8.344736842105263
6.7207446808510625
13.042105263157893
0.912234042553191
6.005263157894738
-2.587765957446809
11.973684210526315
5.026595744680851
9.486842105263158
-1.6010638297872344
11.771052631578947
6.478723404255318
8.123684210526314
6.7207446808510625
13.042105263157893
0.912234042553191
6.005263157894738
-2.587765957446809
11.973684210526315
5.026595744680851
9.486842105263158
-1.6010638297872344
11.771052631578947
6.404255319148936
8.013157894736842
6.7207446808510625
13.042105263157893
0.912234042553191
6.005263157894738
-2.587765957446809
11.973684210526315
5.026595744680851
9.486842105263158
-1.6010638297872344
11.771052631578947
6.311170212765957
7.8842105263157904
6.7207446808510625
13.042105263157893
0.912234042553191
6.005263157894738
-2.587765957446809
11.973684210526315
5.026595744680851
9.486842105263158
-1.6010638297872344
11.771052631578947
6.125
7.64473684210526
6.7207446808510625
13.042105263157893
0.912234042553191
6.005263157894738
-2.587765957446809
11.973684210526315
5.026595744680851
9.486842105263158
-1.6010638297872344
11.771052631578947
6.031914893617021
7.534210526315789
6.7207446808510625
13.042105263157893
0.912234042553191
6.005263157894738
-2.587765957446809
11.973684210526315
5.026595744680851
9.486842105263158
-1.6010638297872344
11.771052631578947
5.86436170212766
7.368421052631575
6.7207446808510625
13.042105263157893
0.912234042553191
6.005263157894738
-2.587765957446809
11.973684210526315
5.026595744680851
9.486842105263158
-1.6010638297872344
11.771052631578947
5.789893617021276
7.294736842105266
6.7207446808510625
13.042105263157893
0.912234042553191
6.005263157894738
-2.587765957446809
11.973684210526315
5.026595744680851
9.486842105263158
-1.6010638297872344
11.771052631578947
5.64095744680851
7.184210526315788
6.7207446808510625
13.042105263157893
0.912234042553191
6.005263157894738
-2.587765957446809
11.973684210526315
5.026595744680851
9.486842105263158
-1.6010638297872344
11.771052631578947
5.603723404255318
7.147368421052633
6.7207446808510625
13.042105263157893
0.912234042553191
6.005263157894738
-2.587765957446809
11.973684210526315
5.026595744680851
9.486842105263158
-1.6010638297872344
11.771052631578947
5.585106382978722
7.128947368421052
6.7207446808510625
13.042105263157893
0.912234042553191
6.005263157894738
-2.587765957446809
11.973684210526315
5.026595744680851
9.486842105263158
