45
12
1.7686170212765955
6.465789473684211
-4.468085106382979
6.9263157894736835
-5.957446808510639
12.692105263157899
6.851063829787233
8.805263157894736
1.4335106382978715
6.760526315789477
2.792553191489361
11.328947368421055
1.9920212765957448
6.576315789473689
-4.468085106382979
6.9263157894736835
-5.957446808510639
12.692105263157899
6.851063829787233
8.805263157894736
1.4335106382978715
6.760526315789477
2.792553191489361
11.328947368421055
2.1781914893617014
6.760526315789477
-4.468085106382979
6.9263157894736835
-5.957446808510639
12.692105263157899
6.851063829787233
8.805263157894736
1.4335106382978715
6.760526315789477
2.792553191489361
11.328947368421055
3.0531914893617014
6.2631578947368425
-4.5611702127659575
7.110526315789471
-5.957446808510639
12.692105263157899
6.851063829787233
8.805263157894736
1.3404255319148923
6.7973684210526315
2.792553191489361
11.328947368421055
3.0904255319148923
6.2631578947368425
-4.617021276595745
7.165789473684214
-5.957446808510639
12.692105263157899
6.851063829787233
8.805263157894736
1.284574468085106
6.834210526315786
2.792553191489361
11.328947368421055
3.36968085106383
6.336842105263159
-4.691489361702128
7.257894736842104
-5.99468085106383
12.47105263157895
6.851063829787233
8.805263157894736
1.2287234042553195
6.852631578947374
2.792553191489361
11.328947368421055
3.7792553191489358
6.428947368421056
-4.784574468085106
7.405263157894737
-5.99468085106383
12.34210526315789
6.851063829787233
8.805263157894736
1.0984042553191493
6.944736842105264
2.792553191489361
11.328947368421055
4.0212765957446805
6.484210526315792
-5.0638297872340425
7.8657894736842096
-5.957446808510639
11.992105263157896
6.851063829787233
8.805263157894736
0.9308510638297864
7.110526315789471
2.792553191489361
11.328947368421055
4.263297872340425
6.594736842105263
-5.194148936170213
8.178947368421056
-5.920212765957447
11.752631578947366
6.851063829787233
8.805263157894736
0.7819148936170208
7.221052631578949
2.792553191489361
11.328947368421055
4.821808510638297
6.742105263157896
-5.454787234042553
8.934210526315788
-5.882978723404255
11.513157894736842
6.851063829787233
8.805263157894736
0.5957446808510634
7.386842105263156
2.792553191489361
11.328947368421055
5.101063829787233
6.852631578947374
-5.566489361702128
9.32105263157895
-5.752659574468085
10.92368421052631
6.851063829787233
8.805263157894736
0.22340425531914843
7.792105263157893
2.792553191489361
11.328947368421055
5.566489361702127
7.0736842105263165
-5.659574468085106
9.763157894736842
-5.64095744680851
10.610526315789471
6.851063829787233
8.805263157894736
-0.0744680851063837
8.068421052631578
2.792553191489361
11.328947368421055
5.827127659574467
7.2026315789473685
-5.827127659574468
10.555263157894736
-5.38031914893617
9.910526315789475
6.851063829787233
8.805263157894736
-0.33510638297872397
8.32631578947369
2.792553191489361
11.328947368421055
6.050531914893616
7.3315789473684205
-5.86436170212766
10.92368421052631
-5.25
9.597368421052629
6.851063829787233
8.805263157894736
-0.8191489361702127
8.878947368421052
2.792553191489361
11.328947368421055
6.367021276595745
7.534210526315789
-5.9388297872340425
11.586842105263159
-5.007978723404255
8.97105263157895
6.851063829787233
8.805263157894736
-1.1170212765957448
9.192105263157899
2.792553191489361
11.328947368421055
6.51595744680851
7.6078947368421055
-5.957446808510639
11.899999999999999
-4.85904255319149
8.694736842105264
6.851063829787233
8.805263157894736
-1.582446808510639
9.818421052631578
2.792553191489361
11.328947368421055
6.6462765957446805
7.699999999999996
-5.976063829787234
12.360526315789471
-4.710106382978724
8.399999999999999
6.851063829787233
8.805263157894736
-1.7872340425531918
10.094736842105263
2.792553191489361
11.328947368421055
6.906914893617021
7.8842105263157904
-5.976063829787234
12.544736842105266
-4.412234042553191
7.902631578947371
6.851063829787233
8.805263157894736
-2.1781914893617023
10.62894736842106
2.792553191489361
11.328947368421055
7.0186170212765955
7.957894736842107
-5.976063829787234
12.710526315789473
-4.24468085106383
7.663157894736841
6.851063829787233
8.805263157894736
-2.327127659574468
10.886842105263156
2.792553191489361
11.328947368421055
7.093085106382977
8.050000000000004
-5.9388297872340425
12.913157894736841
-3.8537234042553195
7.239473684210523
6.851063829787233
8.805263157894736
-2.550531914893617
11.310526315789474
2.792553191489361
11.328947368421055
7.2234042553191475
8.178947368421056
-5.920212765957447
12.986842105263158
-3.648936170212766
7.055263157894736
6.851063829787233
8.805263157894736
-2.625
11.47631578947368
2.792553191489361
11.328947368421055
7.279255319148936
8.252631578947366
-5.920212765957447
12.986842105263158
-3.4627659574468086
6.907894736842103
6.851063829787233
8.805263157894736
-2.699468085106383
11.69736842105263
2.792553191489361
11.328947368421055
7.372340425531915
8.381578947368425
-5.920212765957447
12.986842105263158
-3.0531914893617023
6.631578947368425
6.851063829787233
8.805263157894736
-2.699468085106383
11.771052631578947
2.792553191489361
11.328947368421055
7.428191489361701
8.399999999999999
-5.920212765957447
12.986842105263158
-2.8484042553191493
6.521052631578954
6.851063829787233
8.805263157894736
-2.699468085106383
11.789473684210527
2.792553191489361
11.328947368421055
7.428191489361701
8.399999999999999
-5.920212765957447
12.986842105263158
-2.4388297872340425
6.35526315789474
6.851063829787233
8.805263157894736
-2.699468085106383
11.789473684210527
2.792553191489361
11.328947368421055
7.428191489361701
8.399999999999999
-5.920212765957447
12.986842105263158
-2.215425531914894
6.281578947368416
6.851063829787233
8.805263157894736
-2.699468085106383
11.789473684210527
2.792553191489361
11.328947368421055
7.428191489361701
8.399999999999999
-5.920212765957447
12.986842105263158
-1.8617021276595747
6.171052631578945
6.851063829787233
8.805263157894736
-2.699468085106383
11.789473684210527
2.792553191489361
11.328947368421055
7.428191489361701
8.399999999999999
-5.920212765957447
12.986842105263158
-1.6941489361702127
6.1157894736842096
6.851063829787233
8.805263157894736
-2.699468085106383
11.789473684210527
2.792553191489361
11.328947368421055
7.428191489361701
8.399999999999999
-5.920212765957447
12.986842105263158
-1.3590425531914896
6.023684210526319
6.851063829787233
8.805263157894736
-2.699468085106383
11.789473684210527
2.792553191489361
11.328947368421055
7.428191489361701
8.399999999999999
-5.920212765957447
12.986842105263158
-1.210106382978724
6.005263157894738
6.851063829787233
8.805263157894736
-2.699468085106383
11.789473684210527
2.792553191489361
11.328947368421055
7.428191489361701
8.399999999999999
-5.920212765957447
12.986842105263158
-0.9680851063829792
5.9868421052631575
6.851063829787233
8.805263157894736
-2.699468085106383
11.789473684210527
2.792553191489361
11.328947368421055
7.428191489361701
8.399999999999999
-5.920212765957447
12.986842105263158
-0.8563829787234045
5.9868421052631575
6.851063829787233
8.805263157894736
-2.699468085106383
11.789473684210527
2.792553191489361
11.328947368421055
7.428191489361701
8.399999999999999
-5.920212765957447
12.986842105263158
-0.7819148936170217
5.9868421052631575
6.851063829787233
8.805263157894736
-2.699468085106383
11.789473684210527
2.792553191489361
11.328947368421055
7.428191489361701
8.399999999999999
-5.920212765957447
12.986842105263158
-0.6329787234042552
6.060526315789474
6.851063829787233
8.805263157894736
-2.699468085106383
11.789473684210527
2.792553191489361
11.328947368421055
7.428191489361701
8.399999999999999
-5.920212765957447
12.986842105263158
-0.5771276595744688
6.078947368421055
6.851063829787233
8.805263157894736
-2.699468085106383
11.789473684210527
2.792553191489361
11.328947368421055
8.340425531914892
8.252631578947366
-5.920212765957447
12.986842105263158
-0.5771276595744688
6.078947368421055
6.851063829787233
8.805263157894736
-2.699468085106383
11.789473684210527
2.792553191489361
11.328947368421055
8.172872340425531
8.086842105263159
-5.920212765957447
12.986842105263158
-0.5771276595744688
6.078947368421055
6.851063829787233
8.805263157894736
-2.699468085106383
11.789473684210527
2.792553191489361
11.328947368421055
8.061170212765957
8.050000000000004
-5.920212765957447
12.986842105263158
-0.5771276595744688
6.078947368421055
6.851063829787233
8.805263157894736
-2.699468085106383
11.789473684210527
2.792553191489361
11.328947368421055
7.949468085106382
7.976315789473681
-5.920212765957447
12.986842105263158
-0.5771276595744688
6.078947368421055
6.851063829787233
8.805263157894736
-2.699468085106383
11.789473684210527
2.792553191489361
11.328947368421055
7.61436170212766
7.773684210526319
-5.920212765957447
12.986842105263158
-0.5771276595744688
6.078947368421055
6.851063829787233
8.805263157894736
-2.699468085106383
11.789473684210527
2.792553191489361
11.328947368421055
7.167553191489361
7.515789473684208
-5.920212765957447
12.986842105263158
-0.5771276595744688
6.078947368421055
6.851063829787233
8.805263157894736
-2.699468085106383
11.789473684210527
2.792553191489361
11.328947368421055
6.832446808510637
7.350000000000001
-5.920212765957447
12.986842105263158
-0.5771276595744688
6.078947368421055
6.851063829787233
8.805263157894736
-2.699468085106383
11.789473684210527
2.792553191489361
11.328947368421055
6.51595744680851
7.184210526315788
-5.920212765957447
12.986842105263158
-0.5771276595744688
6.078947368421055
6.851063829787233
8.805263157894736
-2.699468085106383
11.789473684210527
2.792553191489361
11.328947368421055
5.696808510638297
6.7973684210526315
-5.920212765957447
12.986842105263158
-0.5771276595744688
6.078947368421055
6.851063829787233
8.805263157894736
-2.699468085106383
11.789473684210527
2.792553191489361
11.328947368421055
5.194148936170212
6.594736842105263
-5.920212765957447
12.986842105263158
-0.5771276595744688
6.078947368421055
6.851063829787233
8.805263157894736
-2.699468085106383
11.789473684210527
2.792553191489361
11.328947368421055
