65
12
2.0664893617021267
5.231578947368419
0.42819148936170137
6.226315789473681
6.050531914893616
11.550000000000004
-4.747340425531915
11.734210526315792
3.2765957446808507
10.021052631578947
-2.867021276595745
10.536842105263155
2.0664893617021267
5.231578947368419
0.42819148936170137
6.226315789473681
6.050531914893616
11.550000000000004
-4.747340425531915
11.734210526315792
3.2765957446808507
10.021052631578947
-2.867021276595745
10.536842105263155
2.0664893617021267
5.231578947368419
0.42819148936170137
6.226315789473681
6.031914893617021
11.69736842105263
-4.50531914893617
11.863157894736844
3.257978723404255
10.242105263157896
-2.867021276595745
10.647368421052633
2.0664893617021267
5.231578947368419
0.42819148936170137
6.226315789473681
5.99468085106383
11.734210526315792
-4.319148936170213
11.955263157894734
3.257978723404255
10.334210526315786
-2.867021276595745
10.739473684210523
2.0664893617021267
5.231578947368419
0.42819148936170137
6.226315789473681
5.957446808510637
11.789473684210527
-3.8164893617021276
12.176315789473684
3.2765957446808507
10.481578947368419
-2.8484042553191493
10.83157894736842
2.0664893617021267
5.231578947368419
0.42819148936170137
6.226315789473681
5.920212765957446
11.844736842105263
-3.537234042553192
12.286842105263155
3.3138297872340416
10.81315789473684
-2.829787234042554
11.034210526315789
2.0664893617021267
5.231578947368419
0.42819148936170137
6.226315789473681
5.8085106382978715
11.973684210526315
-2.922872340425532
12.489473684210523
3.3510638297872344
10.997368421052634
-2.829787234042554
11.126315789473686
2.0664893617021267
5.231578947368419
0.42819148936170137
6.226315789473681
5.715425531914892
12.047368421052632
-2.625
12.600000000000001
3.3882978723404253
11.199999999999996
-2.8111702127659575
11.218421052631584
2.0664893617021267
5.231578947368419
0.42819148936170137
6.226315789473681
5.4734042553191475
12.231578947368419
-1.9920212765957448
12.747368421052634
3.4255319148936163
11.513157894736842
-2.8111702127659575
11.38421052631579
2.0664893617021267
5.231578947368419
0.42819148936170137
6.226315789473681
5.305851063829786
12.305263157894736
-1.6755319148936172
12.80263157894737
3.4627659574468073
11.642105263157895
-2.8111702127659575
11.457894736842107
2.0664893617021267
5.231578947368419
0.42819148936170137
6.226315789473681
4.914893617021276
12.507894736842104
-1.0611702127659575
12.876315789473686
3.4813829787234045
11.752631578947366
-2.8111702127659575
11.568421052631578
2.0664893617021267
5.231578947368419
0.42819148936170137
6.226315789473681
4.691489361702127
12.600000000000001
-0.42819148936170226
12.968421052631584
3.537234042553191
11.899999999999999
-2.8111702127659575
11.642105263157895
2.0664893617021267
5.231578947368419
0.42819148936170137
6.226315789473681
4.226063829787234
12.80263157894737
0.20478723404255295
13.042105263157893
3.537234042553191
11.955263157894734
-2.8111702127659575
11.678947368421056
2.0664893617021267
5.231578947368419
0.42819148936170137
6.226315789473681
3.9840425531914896
12.89473684210526
0.5026595744680851
13.060526315789474
3.5558510638297864
12.010526315789477
-2.8111702127659575
11.752631578947366
2.0664893617021267
5.231578947368419
0.42819148936170137
6.226315789473681
3.5
13.060526315789474
1.079787234042552
13.078947368421055
3.574468085106382
12.065789473684205
-2.8111702127659575
11.789473684210527
2.0664893617021267
5.231578947368419
0.42819148936170137
6.226315789473681
3.2765957446808507
13.11578947368421
1.3404255319148923
13.078947368421055
3.574468085106382
12.102631578947374
-2.8111702127659575
11.82631578947369
2.0664893617021267
5.231578947368419
0.42819148936170137
6.226315789473681
2.792553191489361
13.207894736842107
1.824468085106382
13.078947368421055
3.5930851063829774
12.139473684210529
-2.8111702127659575
11.844736842105263
2.0664893617021267
5.231578947368419
0.42819148936170137
6.226315789473681
2.531914893617021
13.244736842105262
2.2712765957446805
13.078947368421055
3.5930851063829774
12.139473684210529
-2.792553191489362
11.844736842105263
2.0664893617021267
5.231578947368419
0.42819148936170137
6.226315789473681
2.0106382978723403
13.281578947368423
2.7180851063829774
13.042105263157893
3.5930851063829774
12.139473684210529
-2.792553191489362
11.844736842105263
2.0664893617021267
5.231578947368419
0.42819148936170137
6.226315789473681
1.7313829787234045
13.281578947368423
2.9228723404255312
13.02368421052632
3.5930851063829774
12.139473684210529
-2.792553191489362
11.844736842105263
2.0664893617021267
5.231578947368419
0.42819148936170137
6.226315789473681
1.2101063829787222
13.281578947368423
3.332446808510637
12.968421052631584
3.5930851063829774
12.139473684210529
-2.792553191489362
11.844736842105263
2.0664893617021267
5.231578947368419
0.42819148936170137
6.226315789473681
0.9308510638297864
13.281578947368423
3.537234042553191
12.931578947368422
3.5930851063829774
12.139473684210529
-2.792553191489362
11.844736842105263
2.0664893617021267
5.231578947368419
0.42819148936170137
6.226315789473681
0.3909574468085104
13.22631578947368
3.909574468085106
12.839473684210525
3.5930851063829774
12.139473684210529
-2.792553191489362
11.844736842105263
2.0664893617021267
5.231578947368419
0.42819148936170137
6.226315789473681
0.13031914893617014
13.207894736842107
4.132978723404255
12.765789473684208
3.5930851063829774
12.139473684210529
-2.792553191489362
11.844736842105263
2.0664893617021267
5.231578947368419
0.42819148936170137
6.226315789473681
-0.35372340425531945
13.152631578947371
4.523936170212766
12.636842105263156
3.5930851063829774
12.139473684210529
-2.792553191489362
11.844736842105263
2.0664893617021267
5.231578947368419
0.42819148936170137
6.226315789473681
-0.5771276595744688
13.13421052631579
4.710106382978722
12.56315789473684
3.5930851063829774
12.139473684210529
-2.792553191489362
11.844736842105263
2.0664893617021267
5.231578947368419
0.42819148936170137
6.226315789473681
-1.042553191489362
13.097368421052629
5.082446808510637
12.360526315789471
3.5930851063829774
12.139473684210529
-2.792553191489362
11.844736842105263
2.0664893617021267
5.231578947368419
0.42819148936170137
6.226315789473681
-1.2659574468085113
13.060526315789474
5.25
12.268421052631581
3.5930851063829774
12.139473684210529
-2.792553191489362
11.844736842105263
2.0664893617021267
5.231578947368419
0.42819148936170137
6.226315789473681
-1.712765957446809
12.986842105263158
5.547872340425531
12.02894736842105
3.5930851063829774
12.139473684210529
-2.792553191489362
11.844736842105263
2.0664893617021267
5.231578947368419
0.42819148936170137
6.226315789473681
-1.917553191489362
12.931578947368422
5.696808510638297
11.91842105263158
3.5930851063829774
12.139473684210529
-2.792553191489362
11.844736842105263
2.0664893617021267
5.231578947368419
0.42819148936170137
6.226315789473681
-2.3085106382978724
12.839473684210525
5.957446808510637
11.715789473684211
3.5930851063829774
12.139473684210529
-2.792553191489362
11.844736842105263
2.0664893617021267
5.231578947368419
0.42819148936170137
6.226315789473681
-2.5132978723404253
12.765789473684208
6.069148936170212
11.60526315789474
3.5930851063829774
12.139473684210529
-2.792553191489362
11.844736842105263
2.0664893617021267
5.231578947368419
0.42819148936170137
6.226315789473681
-2.8856382978723403
12.618421052631575
6.273936170212766
11.402631578947371
3.5930851063829774
12.139473684210529
-2.792553191489362
11.844736842105263
2.0664893617021267
5.231578947368419
0.42819148936170137
6.226315789473681
-3.0904255319148937
12.507894736842104
6.3484042553191475
11.292105263157893
3.5930851063829774
12.139473684210529
-2.792553191489362
11.844736842105263
2.0664893617021267
5.231578947368419
0.42819148936170137
6.226315789473681
-3.5
12.268421052631581
6.422872340425531
11.218421052631584
3.5930851063829774
12.139473684210529
-2.792553191489362
11.844736842105263
2.0664893617021267
5.231578947368419
0.42819148936170137
6.226315789473681
-3.7047872340425534
12.139473684210529
6.590425531914892
11.015789473684208
3.5930851063829774
12.139473684210529
-2.792553191489362
11.844736842105263
2.0664893617021267
5.231578947368419
0.42819148936170137
6.226315789473681
-4.077127659574469
11.82631578947369
6.6462765957446805
10.942105263157899
3.5930851063829774
12.139473684210529
-2.792553191489362
11.844736842105263
2.0664893617021267
5.231578947368419
0.42819148936170137
6.226315789473681
-4.263297872340425
11.660526315789475
6.757978723404255
10.81315789473684
3.5930851063829774
12.139473684210529
-2.792553191489362
11.844736842105263
2.0664893617021267
5.231578947368419
0.42819148936170137
6.226315789473681
-4.598404255319149
11.27368421052632
6.757978723404255
10.81315789473684
3.5930851063829774
12.139473684210529
-2.792553191489362
11.844736842105263
2.0664893617021267
5.231578947368419
0.42819148936170137
6.226315789473681
-4.76595744680851
11.071052631578944
6.757978723404255
10.81315789473684
3.5930851063829774
12.139473684210529
-2.792553191489362
11.844736842105263
2.0664893617021267
5.231578947368419
0.42819148936170137
6.226315789473681
-5.082446808510639
10.62894736842106
6.757978723404255
10.81315789473684
3.5930851063829774
12.139473684210529
-2.792553191489362
11.844736842105263
2.0664893617021267
5.231578947368419
0.42819148936170137
6.226315789473681
-5.343085106382979
10.223684210526315
6.757978723404255
10.81315789473684
3.5930851063829774
12.139473684210529
-2.792553191489362
11.844736842105263
2.0664893617021267
5.231578947368419
0.42819148936170137
6.226315789473681
-5.473404255319149
10.021052631578947
6.757978723404255
10.81315789473684
3.5930851063829774
12.139473684210529
-2.792553191489362
11.844736842105263
2.0664893617021267
5.231578947368419
0.42819148936170137
6.226315789473681
-5.678191489361702
9.63421052631579
6.757978723404255
10.81315789473684
3.5930851063829774
12.139473684210529
-2.792553191489362
11.844736842105263
2.0664893617021267
5.231578947368419
0.42819148936170137
6.226315789473681
-5.752659574468085
9.449999999999996
6.757978723404255
10.81315789473684
3.5930851063829774
12.139473684210529
-2.792553191489362
11.844736842105263
2.0664893617021267
5.231578947368419
0.42819148936170137
6.226315789473681
-5.827127659574468
9.265789473684208
6.757978723404255
10.81315789473684
3.5930851063829774
12.139473684210529
-2.792553191489362
11.844736842105263
2.0664893617021267
5.231578947368419
0.42819148936170137
6.226315789473681
-5.957446808510639
8.989473684210523
6.757978723404255
10.81315789473684
3.5930851063829774
12.139473684210529
-2.792553191489362
11.844736842105263
2.0664893617021267
5.231578947368419
0.42819148936170137
6.226315789473681
-6.013297872340425
8.860526315789471
6.757978723404255
10.81315789473684
3.5930851063829774
12.139473684210529
-2.792553191489362
11.844736842105263
2.0664893617021267
5.231578947368419
0.42819148936170137
6.226315789473681
-6.050531914893617
8.694736842105264
6.757978723404255
10.81315789473684
3.5930851063829774
12.139473684210529
-2.792553191489362
11.844736842105263
2.0664893617021267
5.231578947368419
0.42819148936170137
6.226315789473681
-6.050531914893617
8.657894736842103
6.757978723404255
10.81315789473684
3.5930851063829774
12.139473684210529
-2.792553191489362
11.844736842105263
1.917553191489361
5.673684210526318
0.42819148936170137
6.226315789473681
-6.050531914893617
8.657894736842103
6.757978723404255
10.81315789473684
3.5930851063829774
12.139473684210529
-2.792553191489362
11.844736842105263
1.824468085106382
5.710526315789473
0.42819148936170137
6.226315789473681
-6.050531914893617
8.657894736842103
6.757978723404255
10.81315789473684
3.5930851063829774
12.139473684210529
-2.792553191489362
11.844736842105263
1.824468085106382
5.710526315789473
0.42819148936170137
6.226315789473681
-6.050531914893617
8.657894736842103
6.757978723404255
10.81315789473684
3.5930851063829774
12.139473684210529
-2.792553191489362
11.844736842105263
1.8058510638297864
5.710526315789473
0.42819148936170137
6.226315789473681
-6.050531914893617
8.657894736842103
6.757978723404255
10.81315789473684
3.5930851063829774
12.139473684210529
-2.792553191489362
11.844736842105263
1.787234042553191
5.710526315789473
0.42819148936170137
6.226315789473681
-6.050531914893617
8.657894736842103
6.757978723404255
10.81315789473684
3.5930851063829774
12.139473684210529
-2.792553191489362
11.844736842105263
1.75
5.710526315789473
0.42819148936170137
6.226315789473681
-6.050531914893617
8.657894736842103
6.757978723404255
10.81315789473684
3.5930851063829774
12.139473684210529
-2.792553191489362
11.844736842105263
1.6755319148936163
5.710526315789473
0.42819148936170137
6.226315789473681
-6.050531914893617
8.657894736842103
6.757978723404255
10.81315789473684
3.5930851063829774
12.139473684210529
-2.792553191489362
11.844736842105263
1.6010638297872344
5.747368421052634
0.42819148936170137
6.226315789473681
-6.050531914893617
8.657894736842103
6.757978723404255
10.81315789473684
3.5930851063829774
12.139473684210529
-2.792553191489362
11.844736842105263
1.3218085106382969
5.8578947368421055
0.42819148936170137
6.226315789473681
-6.050531914893617
8.657894736842103
6.757978723404255
10.81315789473684
3.5930851063829774
12.139473684210529
-2.792553191489362
11.844736842105263
0.875
6.042105263157893
0.42819148936170137
6.226315789473681
-6.050531914893617
8.657894736842103
6.757978723404255
10.81315789473684
3.5930851063829774
12.139473684210529
-2.792553191489362
11.844736842105263
0.6143617021276588
6.171052631578945
0.42819148936170137
6.226315789473681
-6.050531914893617
8.657894736842103
6.757978723404255
10.81315789473684
3.5930851063829774
12.139473684210529
-2.792553191489362
11.844736842105263
0.3164893617021276
6.300000000000004
0.42819148936170137
6.226315789473681
-6.050531914893617
8.657894736842103
6.757978723404255
10.81315789473684
3.5930851063829774
12.139473684210529
-2.792553191489362
11.844736842105263
-0.37234042553191493
6.557894736842101
0.42819148936170137
6.226315789473681
-6.050531914893617
8.657894736842103
6.757978723404255
10.81315789473684
3.5930851063829774
12.139473684210529
-2.792553191489362
11.844736842105263
-1.1170212765957448
6.815789473684212
0.42819148936170137
6.226315789473681
-6.050531914893617
8.657894736842103
6.757978723404255
10.81315789473684
3.5930851063829774
12.139473684210529
-2.792553191489362
11.844736842105263
-1.4893617021276597
6.963157894736838
0.42819148936170137
6.226315789473681
-6.050531914893617
8.657894736842103
6.757978723404255
10.81315789473684
3.5930851063829774
12.139473684210529
-2.792553191489362
11.844736842105263
