1981
1589
1052
1999
1865
1208
1460
1337
1741
1955
1474
1159
1163
1199
1583
1912
1557
1462
1408
1339
1762
1731
1110
1423
1029
1083
1031
1185
1195
1184
1281
1825
1892
1238
1084
1672
1969
1307
1434
1428
1719
1690
1011
1962
1138
1234
1387
1719
1194
1024