4 9 7 4
3 3 3 2
2 1 2 8
4 3 7 6
7 3 8 6
3 2 2 5
3 5 7 9
9 9 2 5
8 9 6 8
3 6 5 3
4 3 6 9
5 2 9 3
3 5 8 6
1 9 3 8
7 5 8 6
1 1 7 9
9 8 9 1
2 7 5 5
8 8 1 2
6 4 5 2
5 4 5 4
2 7 5 1
6 7 3 3
5 2 8 2
2 4 9 2
2 2 4 3
2 4 9 4
5 5 5 6
8 9 4 3
4 8 7 2
5 9 1 6
5 6 7 1
8 7 2 9
2 4 4 5
3 8 3 5
5 8 4 3
1 5 2 2
3 3 7 7
1 7 9 6
2 3 3 3
7 6 6 5
5 7 6 3
4 1 6 5
1 6 6 5
2 7 8 6
4 1 3 1
4 1 8 8
1 4 2 7
2 7 8 1
9 4 8 6