45
12
7.912234042553191
6.889473684210529
3.63031914893617
12.305263157894736
6.73936170212766
7.755263157894738
-3.1835106382978724
11.881578947368425
2.8856382978723403
8.363157894736844
-2.382978723404255
8.676315789473684
7.912234042553191
6.889473684210529
3.5186170212765955
12.305263157894736
6.73936170212766
7.755263157894738
-3.1835106382978724
11.881578947368425
2.75531914893617
8.363157894736844
-2.382978723404255
8.676315789473684
7.912234042553191
6.889473684210529
3.4813829787234045
12.305263157894736
6.73936170212766
7.755263157894738
-3.1835106382978724
11.881578947368425
2.7180851063829774
8.363157894736844
-2.457446808510639
8.805263157894736
7.912234042553191
6.889473684210529
3.406914893617021
12.305263157894736
6.73936170212766
7.755263157894738
-3.071808510638298
11.844736842105263
2.662234042553191
8.381578947368425
-2.457446808510639
8.860526315789471
7.912234042553191
6.889473684210529
3.1462765957446805
12.305263157894736
6.73936170212766
7.755263157894738
-2.960106382978724
11.899999999999999
2.5505319148936163
8.41842105263158
-2.457446808510639
8.915789473684214
7.912234042553191
6.889473684210529
2.960106382978722
12.305263157894736
6.73936170212766
7.755263157894738
-2.587765957446809
12.047368421052632
2.4760638297872344
8.43684210526316
-2.457446808510639
9.08157894736842
7.912234042553191
6.889473684210529
2.531914893617021
12.25
6.73936170212766
7.755263157894738
-1.9920212765957448
12.231578947368419
2.4015957446808507
8.473684210526315
-2.457446808510639
9.192105263157899
7.912234042553191
6.889473684210529
2.289893617021276
12.231578947368419
6.73936170212766
7.755263157894738
-1.6196808510638299
12.34210526315789
2.159574468085106
8.565789473684212
-2.420212765957447
9.30263157894737
7.912234042553191
6.889473684210529
1.8058510638297864
12.139473684210529
6.73936170212766
7.755263157894738
-0.6888297872340425
12.507894736842104
2.0106382978723403
8.639473684210529
-2.382978723404255
9.505263157894738
7.912234042553191
6.889473684210529
1.5824468085106371
12.084210526315786
6.73936170212766
7.755263157894738
-0.13031914893617014
12.618421052631575
1.8803191489361701
8.713157894736838
-2.3643617021276597
9.597368421052629
7.912234042553191
6.889473684210529
1.2101063829787222
11.992105263157896
6.73936170212766
7.755263157894738
1.6196808510638299
12.949999999999996
1.5452127659574462
8.897368421052633
-2.3457446808510642
9.671052631578945
7.912234042553191
6.889473684210529
1.042553191489361
11.93684210526316
6.73936170212766
7.755263157894738
2.1781914893617014
13.02368421052632
1.3590425531914896
8.989473684210523
-2.327127659574468
9.818421052631578
7.912234042553191
6.889473684210529
0.8191489361702127
11.789473684210527
6.73936170212766
7.755263157894738
3.704787234042552
13.152631578947371
1.042553191489361
9.210526315789473
-2.3085106382978724
9.873684210526314
7.912234042553191
6.889473684210529
0.7446808510638299
11.69736842105263
6.73936170212766
7.755263157894738
4.151595744680851
13.171052631578945
0.8936170212765955
9.30263157894737
-2.3085106382978724
9.928947368421056
7.912234042553191
6.889473684210529
0.6702127659574462
11.586842105263159
6.73936170212766
7.755263157894738
5.2686170212765955
13.171052631578945
0.6515957446808507
9.486842105263158
-2.289893617021277
9.94736842105263
7.912234042553191
6.889473684210529
0.539893617021276
11.27368421052632
6.73936170212766
7.755263157894738
5.566489361702127
13.171052631578945
0.539893617021276
9.578947368421055
-2.289893617021277
10.021052631578947
7.912234042553191
6.889473684210529
0.5026595744680851
11.089473684210525
6.73936170212766
7.755263157894738
6.069148936170212
13.171052631578945
0.35372340425531856
9.72631578947368
-2.289893617021277
10.039473684210527
7.912234042553191
6.889473684210529
0.42819148936170137
10.647368421052633
6.73936170212766
7.755263157894738
6.460106382978722
13.207894736842107
0.27925531914893575
9.781578947368416
-2.289893617021277
10.057894736842101
7.912234042553191
6.889473684210529
0.3909574468085104
10.40789473684211
6.73936170212766
7.755263157894738
6.73936170212766
13.22631578947368
0.22340425531914843
9.818421052631578
-2.289893617021277
10.07631578947369
7.912234042553191
6.889473684210529
0.37234042553191493
10.149999999999999
6.73936170212766
7.755263157894738
6.851063829787233
13.244736842105262
0.18617021276595747
9.836842105263159
-2.2712765957446814
10.094736842105263
7.912234042553191
6.889473684210529
0.35372340425531856
9.652631578947371
6.73936170212766
7.755263157894738
7.037234042553191
13.244736842105262
0.18617021276595747
9.836842105263159
-2.2712765957446814
10.113157894736844
7.912234042553191
6.889473684210529
0.35372340425531856
9.39473684210526
6.73936170212766
7.755263157894738
7.093085106382977
13.244736842105262
0.18617021276595747
9.836842105263159
-2.2712765957446814
10.113157894736844
7.912234042553191
6.889473684210529
0.35372340425531856
9.155263157894737
6.73936170212766
7.755263157894738
7.093085106382977
13.244736842105262
0.18617021276595747
9.836842105263159
-2.2712765957446814
10.113157894736844
7.912234042553191
6.889473684210529
0.3351063829787231
8.657894736842103
6.73936170212766
7.755263157894738
7.093085106382977
13.244736842105262
0.18617021276595747
9.836842105263159
-2.2712765957446814
10.113157894736844
7.912234042553191
6.889473684210529
0.3351063829787231
8.41842105263158
6.73936170212766
7.755263157894738
7.093085106382977
13.244736842105262
0.18617021276595747
9.836842105263159
-2.2712765957446814
10.113157894736844
7.912234042553191
6.889473684210529
0.3351063829787231
8.160526315789475
6.73936170212766
7.755263157894738
7.093085106382977
13.244736842105262
0.18617021276595747
9.836842105263159
-2.2712765957446814
10.113157894736844
7.912234042553191
6.889473684210529
0.35372340425531856
7.699999999999996
6.73936170212766
7.755263157894738
7.093085106382977
13.244736842105262
0.18617021276595747
9.836842105263159
-2.2712765957446814
10.113157894736844
7.912234042553191
6.889473684210529
0.37234042553191493
7.460526315789473
6.73936170212766
7.755263157894738
7.093085106382977
13.244736842105262
0.18617021276595747
9.836842105263159
-2.2712765957446814
10.113157894736844
7.912234042553191
6.889473684210529
0.4095744680851059
7.221052631578949
6.73936170212766
7.755263157894738
7.093085106382977
13.244736842105262
0.18617021276595747
9.836842105263159
-2.2712765957446814
10.113157894736844
7.912234042553191
6.889473684210529
0.4654255319148932
6.815789473684212
6.73936170212766
7.755263157894738
7.093085106382977
13.244736842105262
0.18617021276595747
9.836842105263159
-2.2712765957446814
10.113157894736844
7.912234042553191
6.889473684210529
0.4840425531914887
6.631578947368425
6.73936170212766
7.755263157894738
7.093085106382977
13.244736842105262
0.18617021276595747
9.836842105263159
-2.2712765957446814
10.113157894736844
7.912234042553191
6.889473684210529
0.5212765957446805
6.465789473684211
6.73936170212766
7.755263157894738
7.093085106382977
13.244736842105262
0.18617021276595747
9.836842105263159
-2.2712765957446814
10.113157894736844
7.912234042553191
6.889473684210529
0.5585106382978724
6.207894736842107
6.73936170212766
7.755263157894738
7.093085106382977
13.244736842105262
0.18617021276595747
9.836842105263159
-2.2712765957446814
10.113157894736844
7.912234042553191
6.889473684210529
0.5585106382978724
6.097368421052636
6.73936170212766
7.755263157894738
7.093085106382977
13.244736842105262
0.18617021276595747
9.836842105263159
-2.2712765957446814
10.113157894736844
7.912234042553191
6.889473684210529
0.5771276595744679
5.9868421052631575
6.73936170212766
7.755263157894738
7.093085106382977
13.244736842105262
0.18617021276595747
9.836842105263159
-2.2712765957446814
10.113157894736844
7.912234042553191
6.889473684210529
0.5771276595744679
5.89473684210526
6.73936170212766
7.755263157894738
7.093085106382977
13.244736842105262
0.18617021276595747
9.836842105263159
-2.2712765957446814
10.113157894736844
7.912234042553191
6.889473684210529
0.5957446808510634
5.747368421052634
6.73936170212766
7.755263157894738
7.093085106382977
13.244736842105262
0.18617021276595747
9.836842105263159
-2.2712765957446814
10.113157894736844
7.912234042553191
6.889473684210529
0.6143617021276588
5.710526315789473
6.73936170212766
7.755263157894738
7.093085106382977
13.244736842105262
0.18617021276595747
9.836842105263159
-2.2712765957446814
10.113157894736844
7.912234042553191
6.889473684210529
0.6329787234042552
5.673684210526318
6.73936170212766
7.755263157894738
7.093085106382977
13.244736842105262
0.18617021276595747
9.836842105263159
-2.2712765957446814
10.113157894736844
8.228723404255318
7.2026315789473685
0.6329787234042552
5.673684210526318
6.73936170212766
7.755263157894738
7.093085106382977
13.244736842105262
0.18617021276595747
9.836842105263159
-2.2712765957446814
10.113157894736844
8.13563829787234
7.2026315789473685
0.6329787234042552
5.673684210526318
6.73936170212766
7.755263157894738
7.093085106382977
13.244736842105262
0.18617021276595747
9.836842105263159
-2.2712765957446814
10.113157894736844
8.117021276595745
7.2026315789473685
0.6329787234042552
5.673684210526318
6.73936170212766
7.755263157894738
7.093085106382977
13.244736842105262
0.18617021276595747
9.836842105263159
-2.2712765957446814
10.113157894736844
8.079787234042552
7.184210526315788
0.6329787234042552
5.673684210526318
6.73936170212766
7.755263157894738
7.093085106382977
13.244736842105262
0.18617021276595747
9.836842105263159
-2.2712765957446814
10.113157894736844
8.00531914893617
7.147368421052633
0.6329787234042552
5.673684210526318
6.73936170212766
7.755263157894738
7.093085106382977
13.244736842105262
0.18617021276595747
9.836842105263159
-2.2712765957446814
10.113157894736844
7.726063829787233
7.018421052631581
0.6329787234042552
5.673684210526318
6.73936170212766
7.755263157894738
7.093085106382977
13.244736842105262
0.18617021276595747
9.836842105263159
-2.2712765957446814
10.113157894736844
