45
12
-0.6515957446808516
4.734210526315792
-1.9734042553191493
5.0473684210526315
-5.547872340425532
8.860526315789471
-5.659574468085106
12.80263157894737
0.539893617021276
8.050000000000004
3.8164893617021267
10.868421052631575
-0.6515957446808516
4.734210526315792
-2.625
5.084210526315786
-5.547872340425532
8.860526315789471
-5.659574468085106
12.80263157894737
0.539893617021276
8.050000000000004
3.8164893617021267
10.868421052631575
-0.6515957446808516
4.734210526315792
-2.6808510638297873
5.102631578947367
-5.547872340425532
8.860526315789471
-5.659574468085106
12.80263157894737
0.539893617021276
8.050000000000004
3.8164893617021267
10.868421052631575
-0.6515957446808516
4.734210526315792
-2.7739361702127665
5.121052631578948
-5.51063829787234
9.026315789473685
-5.659574468085106
12.80263157894737
0.539893617021276
8.050000000000004
3.8164893617021267
10.868421052631575
-0.6515957446808516
4.734210526315792
-3.034574468085107
5.213157894736838
-5.492021276595745
9.06315789473684
-5.659574468085106
12.80263157894737
0.539893617021276
8.050000000000004
3.8164893617021267
10.868421052631575
-0.6515957446808516
4.734210526315792
-3.2393617021276597
5.3236842105263165
-5.343085106382979
9.228947368421053
-5.659574468085106
12.80263157894737
0.539893617021276
8.050000000000004
3.8164893617021267
10.868421052631575
-0.6515957446808516
4.734210526315792
-3.444148936170213
5.4526315789473685
-5.2313829787234045
9.39473684210526
-5.659574468085106
12.80263157894737
0.539893617021276
8.050000000000004
3.8164893617021267
10.868421052631575
-0.6515957446808516
4.734210526315792
-3.8537234042553195
5.747368421052634
-4.747340425531915
9.873684210526314
-5.659574468085106
12.80263157894737
0.539893617021276
8.050000000000004
3.8164893617021267
10.868421052631575
-0.6515957446808516
4.734210526315792
-4.058510638297872
5.931578947368422
-4.430851063829787
10.149999999999999
-5.659574468085106
12.80263157894737
0.539893617021276
8.050000000000004
3.8164893617021267
10.868421052631575
-0.6515957446808516
4.734210526315792
-4.24468085106383
6.097368421052636
-3.5930851063829787
10.702631578947368
-5.659574468085106
12.80263157894737
0.539893617021276
8.050000000000004
3.8164893617021267
10.868421052631575
-0.6515957446808516
4.734210526315792
-4.617021276595745
6.465789473684211
-2.6808510638297873
11.181578947368422
-5.659574468085106
12.80263157894737
0.539893617021276
8.050000000000004
3.8164893617021267
10.868421052631575
-0.6515957446808516
4.734210526315792
-4.747340425531915
6.594736842105263
-2.252659574468085
11.402631578947371
-5.659574468085106
12.80263157894737
0.539893617021276
8.050000000000004
3.8164893617021267
10.868421052631575
-0.6515957446808516
4.734210526315792
-4.840425531914894
6.723684210526315
-1.4521276595744688
11.752631578947366
-5.659574468085106
12.80263157894737
0.539893617021276
8.050000000000004
3.8164893617021267
10.868421052631575
-0.6515957446808516
4.734210526315792
-4.914893617021277
6.834210526315786
-1.1170212765957448
11.899999999999999
-5.659574468085106
12.80263157894737
0.539893617021276
8.050000000000004
3.8164893617021267
10.868421052631575
-0.6515957446808516
4.734210526315792
-4.98936170212766
6.963157894736838
-0.5212765957446814
12.121052631578948
-5.659574468085106
12.80263157894737
0.539893617021276
8.050000000000004
3.8164893617021267
10.868421052631575
-0.6515957446808516
4.734210526315792
-5.007978723404255
7.0
-0.11170212765957466
12.268421052631581
-5.659574468085106
12.80263157894737
0.539893617021276
8.050000000000004
3.8164893617021267
10.868421052631575
-0.6515957446808516
4.734210526315792
-5.007978723404255
7.0
0.18617021276595747
12.34210526315789
-5.659574468085106
12.80263157894737
0.539893617021276
8.050000000000004
3.8164893617021267
10.868421052631575
-0.6515957446808516
4.734210526315792
-5.007978723404255
7.0
0.27925531914893575
12.37894736842106
-5.659574468085106
12.80263157894737
0.539893617021276
8.050000000000004
3.8164893617021267
10.868421052631575
-0.6515957446808516
4.734210526315792
-5.007978723404255
7.0
0.4654255319148932
12.415789473684214
-5.659574468085106
12.80263157894737
0.539893617021276
8.050000000000004
3.8164893617021267
10.868421052631575
-0.6515957446808516
4.734210526315792
-5.007978723404255
7.0
0.539893617021276
12.415789473684214
-5.659574468085106
12.80263157894737
0.539893617021276
8.050000000000004
3.8164893617021267
10.868421052631575
-0.6515957446808516
4.734210526315792
-5.007978723404255
7.0
0.539893617021276
12.415789473684214
-5.659574468085106
12.80263157894737
0.6515957446808507
8.252631578947366
3.835106382978722
11.034210526315789
-0.6515957446808516
4.734210526315792
-5.007978723404255
7.0
0.6329787234042552
12.58157894736842
-5.659574468085106
12.80263157894737
0.7632978723404253
8.344736842105263
3.872340425531915
11.107894736842105
-0.6515957446808516
4.734210526315792
-5.007978723404255
7.0
0.707446808510638
12.600000000000001
-5.659574468085106
12.80263157894737
0.912234042553191
8.455263157894734
3.909574468085106
11.199999999999996
-0.6515957446808516
4.734210526315792
-5.007978723404255
7.0
0.7819148936170208
12.636842105263156
-5.659574468085106
12.80263157894737
1.2101063829787222
8.786842105263162
3.9840425531914896
11.402631578947371
-0.6515957446808516
4.734210526315792
-5.007978723404255
7.0
1.1728723404255312
12.728947368421053
-5.659574468085106
12.80263157894737
1.3962765957446805
8.97105263157895
4.039893617021276
11.513157894736842
-0.6515957446808516
4.734210526315792
-5.007978723404255
7.0
1.414893617021276
12.765789473684208
-5.659574468085106
12.80263157894737
1.8058510638297864
9.339473684210525
4.0957446808510625
11.60526315789474
-0.6515957446808516
4.734210526315792
-5.007978723404255
7.0
2.0106382978723403
12.821052631578944
-5.659574468085106
12.80263157894737
1.9734042553191493
9.52368421052632
4.188829787234042
11.752631578947366
-0.6515957446808516
4.734210526315792
-5.007978723404255
7.0
2.625
12.821052631578944
-5.659574468085106
12.80263157894737
2.3085106382978715
9.85526315789474
4.226063829787234
11.807894736842101
-0.6515957446808516
4.734210526315792
-5.007978723404255
7.0
3.202127659574467
12.747368421052634
-5.659574468085106
12.80263157894737
2.457446808510637
9.984210526315792
4.24468085106383
11.844736842105263
-0.6515957446808516
4.734210526315792
-5.007978723404255
7.0
3.5
12.692105263157899
-5.659574468085106
12.80263157894737
2.699468085106382
10.223684210526315
4.319148936170212
11.881578947368425
-0.6515957446808516
4.734210526315792
-5.007978723404255
7.0
4.002659574468085
12.544736842105266
-5.659574468085106
12.80263157894737
2.792553191489361
10.297368421052632
4.319148936170212
11.899999999999999
-0.6515957446808516
4.734210526315792
-5.007978723404255
7.0
4.226063829787234
12.47105263157895
-5.659574468085106
12.80263157894737
2.867021276595745
10.371052631578948
4.319148936170212
11.899999999999999
-0.6515957446808516
4.734210526315792
-5.007978723404255
7.0
4.63563829787234
12.305263157894736
-5.659574468085106
12.80263157894737
2.997340425531915
10.5
4.319148936170212
11.899999999999999
-0.6515957446808516
4.734210526315792
-5.007978723404255
7.0
4.784574468085106
12.231578947368419
-5.659574468085106
12.80263157894737
3.0531914893617014
10.555263157894736
4.319148936170212
11.899999999999999
-0.6515957446808516
4.734210526315792
-5.007978723404255
7.0
5.063829787234042
12.065789473684205
-5.659574468085106
12.80263157894737
3.0904255319148923
10.59210526315789
4.319148936170212
11.899999999999999
-0.6515957446808516
4.734210526315792
-5.007978723404255
7.0
5.305851063829786
11.82631578947369
-5.659574468085106
12.80263157894737
3.164893617021276
10.665789473684214
4.319148936170212
11.899999999999999
-0.6515957446808516
4.734210526315792
-5.007978723404255
7.0
5.38031914893617
11.715789473684211
-5.659574468085106
12.80263157894737
3.1835106382978715
10.684210526315795
4.319148936170212
11.899999999999999
-0.6515957446808516
4.734210526315792
-5.007978723404255
7.0
5.547872340425531
11.494736842105262
-5.659574468085106
12.80263157894737
3.202127659574467
10.684210526315795
4.319148936170212
11.899999999999999
-0.6515957446808516
4.734210526315792
-5.007978723404255
7.0
5.622340425531915
11.38421052631579
-5.659574468085106
12.80263157894737
3.202127659574467
10.684210526315795
4.319148936170212
11.899999999999999
-0.6515957446808516
4.734210526315792
-5.007978723404255
7.0
5.678191489361701
11.292105263157893
-5.659574468085106
12.80263157894737
3.202127659574467
10.684210526315795
4.319148936170212
11.899999999999999
-0.6515957446808516
4.734210526315792
-5.007978723404255
7.0
5.8085106382978715
11.05263157894737
-5.659574468085106
12.80263157894737
3.202127659574467
10.684210526315795
4.319148936170212
11.899999999999999
-0.6515957446808516
4.734210526315792
-5.007978723404255
7.0
5.86436170212766
10.92368421052631
-5.659574468085106
12.80263157894737
3.202127659574467
10.684210526315795
4.319148936170212
11.899999999999999
-0.6515957446808516
4.734210526315792
-5.007978723404255
7.0
5.957446808510637
10.702631578947368
-5.659574468085106
12.80263157894737
3.202127659574467
10.684210526315795
4.319148936170212
11.899999999999999
-0.6515957446808516
4.734210526315792
-5.007978723404255
7.0
5.99468085106383
10.59210526315789
-5.659574468085106
12.80263157894737
3.202127659574467
10.684210526315795
4.319148936170212
11.899999999999999
-0.6515957446808516
4.734210526315792
-5.007978723404255
7.0
6.050531914893616
10.352631578947374
-5.659574468085106
12.80263157894737
3.202127659574467
10.684210526315795
4.319148936170212
11.899999999999999
