45
12
1.8803191489361701
6.963157894736838
2.792553191489361
9.118421052631575
1.1170212765957448
10.518421052631581
6.51595744680851
9.892105263157895
-3.1090425531914896
11.992105263157896
0.539893617021276
7.828947368421055
1.8803191489361701
6.963157894736838
2.5132978723404253
9.39473684210526
1.7127659574468073
10.905263157894737
6.51595744680851
9.892105263157895
-2.9042553191489366
12.176315789473684
0.539893617021276
7.828947368421055
1.8803191489361701
6.963157894736838
1.9734042553191493
9.928947368421056
2.1781914893617014
11.163157894736841
6.51595744680851
9.892105263157895
-2.8111702127659575
12.231578947368419
0.539893617021276
7.828947368421055
1.8803191489361701
6.963157894736838
1.7127659574468073
10.149999999999999
2.5132978723404253
11.328947368421055
6.51595744680851
9.892105263157895
-2.662234042553192
12.34210526315789
0.539893617021276
7.828947368421055
1.8803191489361701
6.963157894736838
1.247340425531915
10.573684210526316
2.662234042553191
11.38421052631579
6.51595744680851
9.892105263157895
-2.587765957446809
12.360526315789471
0.539893617021276
7.828947368421055
1.8803191489361701
6.963157894736838
1.0239361702127656
10.776315789473685
2.9042553191489358
11.457894736842107
6.51595744680851
9.892105263157895
-2.587765957446809
12.360526315789471
0.539893617021276
7.828947368421055
1.8803191489361701
6.963157894736838
0.6329787234042552
11.089473684210525
2.997340425531915
11.494736842105262
6.51595744680851
9.892105263157895
-2.587765957446809
12.360526315789471
0.539893617021276
7.828947368421055
1.8803191489361701
6.963157894736838
0.44680851063829774
11.236842105263158
3.1090425531914896
11.513157894736842
6.51595744680851
9.892105263157895
-2.587765957446809
12.360526315789471
0.539893617021276
7.828947368421055
1.8803191489361701
6.963157894736838
0.13031914893617014
11.47631578947368
3.127659574468085
11.513157894736842
6.51595744680851
9.892105263157895
-2.587765957446809
12.360526315789471
0.539893617021276
7.828947368421055
1.8803191489361701
6.963157894736838
0.0
11.550000000000004
3.127659574468085
11.513157894736842
6.51595744680851
9.892105263157895
-2.587765957446809
12.360526315789471
0.539893617021276
7.828947368421055
1.8803191489361701
6.963157894736838
-0.11170212765957466
11.586842105263159
3.127659574468085
11.513157894736842
6.51595744680851
9.892105263157895
-2.587765957446809
12.360526315789471
0.539893617021276
7.828947368421055
1.8803191489361701
6.963157894736838
-0.18617021276595747
11.69736842105263
3.127659574468085
11.513157894736842
6.776595744680851
9.818421052631578
-2.587765957446809
12.360526315789471
0.539893617021276
7.828947368421055
1.8803191489361701
6.963157894736838
-0.22340425531914931
11.734210526315792
3.2393617021276597
11.513157894736842
6.6835106382978715
9.892105263157895
-2.457446808510639
12.213157894736845
0.539893617021276
7.828947368421055
1.8803191489361701
6.963157894736838
-0.3164893617021276
11.807894736842101
3.3138297872340416
11.531578947368416
6.627659574468085
9.94736842105263
-2.4015957446808516
12.176315789473684
0.539893617021276
7.828947368421055
1.8803191489361701
6.963157894736838
-0.37234042553191493
11.844736842105263
3.406914893617021
11.568421052631578
6.478723404255318
10.057894736842101
-2.3457446808510642
12.15789473684211
0.539893617021276
7.828947368421055
1.8803191489361701
6.963157894736838
-0.44680851063829863
11.881578947368425
3.6489361702127656
11.586842105263159
6.38563829787234
10.113157894736844
-2.252659574468085
12.102631578947374
0.539893617021276
7.828947368421055
1.8803191489361701
6.963157894736838
-0.6143617021276597
11.955263157894734
3.8164893617021267
11.60526315789474
6.069148936170212
10.297368421052632
-2.1968085106382977
12.065789473684205
0.539893617021276
7.828947368421055
1.8803191489361701
6.963157894736838
-0.7260638297872344
12.010526315789477
4.151595744680851
11.60526315789474
5.882978723404255
10.40789473684211
-2.122340425531915
12.010526315789477
0.539893617021276
7.828947368421055
1.8803191489361701
6.963157894736838
-0.9680851063829792
12.084210526315786
4.468085106382977
11.586842105263159
5.51063829787234
10.647368421052633
-2.1037234042553195
11.992105263157896
0.539893617021276
7.828947368421055
1.8803191489361701
6.963157894736838
-1.0984042553191493
12.121052631578948
4.76595744680851
11.494736842105262
5.175531914893616
10.886842105263156
-2.0664893617021276
11.973684210526315
0.539893617021276
7.828947368421055
1.8803191489361701
6.963157894736838
-1.2287234042553195
12.139473684210529
4.8962765957446805
11.439473684210526
5.007978723404255
10.978947368421053
-2.0292553191489366
11.93684210526316
0.539893617021276
7.828947368421055
1.8803191489361701
6.963157894736838
-1.5079787234042552
12.194736842105264
5.156914893617021
11.292105263157893
4.784574468085106
11.14473684210526
-2.0106382978723403
11.93684210526316
0.539893617021276
7.828947368421055
1.8803191489361701
6.963157894736838
-1.6569148936170217
12.194736842105264
5.2686170212765955
11.218421052631584
4.7287234042553195
11.163157894736841
-2.0106382978723403
11.93684210526316
0.539893617021276
7.828947368421055
1.8803191489361701
6.963157894736838
-1.917553191489362
12.213157894736845
5.4734042553191475
11.05263157894737
4.7287234042553195
11.163157894736841
-1.9920212765957448
11.91842105263158
0.539893617021276
7.828947368421055
1.8803191489361701
6.963157894736838
-2.047872340425532
12.213157894736845
5.566489361702127
10.942105263157899
4.7287234042553195
11.163157894736841
-1.9734042553191493
11.91842105263158
0.539893617021276
7.828947368421055
1.8803191489361701
6.963157894736838
-2.3085106382978724
12.176315789473684
5.715425531914892
10.72105263157895
4.7287234042553195
11.163157894736841
-1.9547872340425538
11.899999999999999
0.539893617021276
7.828947368421055
1.8803191489361701
6.963157894736838
-2.457446808510639
12.121052631578948
5.789893617021276
10.610526315789471
4.7287234042553195
11.163157894736841
-1.9547872340425538
11.899999999999999
0.539893617021276
7.828947368421055
1.8803191489361701
6.963157894736838
-2.7739361702127665
11.992105263157896
5.920212765957446
10.352631578947374
4.7287234042553195
11.163157894736841
-1.9547872340425538
11.899999999999999
0.539893617021276
7.828947368421055
1.8803191489361701
6.963157894736838
-2.960106382978724
11.881578947368425
5.957446808510637
10.205263157894741
4.7287234042553195
11.163157894736841
-1.9547872340425538
11.899999999999999
0.539893617021276
7.828947368421055
1.8803191489361701
6.963157894736838
-3.3138297872340425
11.60526315789474
6.013297872340425
9.928947368421056
4.7287234042553195
11.163157894736841
-1.9547872340425538
11.899999999999999
0.539893617021276
7.828947368421055
1.8803191489361701
6.963157894736838
-3.4813829787234045
11.439473684210526
6.031914893617021
9.763157894736842
4.7287234042553195
11.163157894736841
-1.9547872340425538
11.899999999999999
0.539893617021276
7.828947368421055
1.8803191489361701
6.963157894736838
-3.797872340425532
11.071052631578944
6.031914893617021
9.61578947368421
4.7287234042553195
11.163157894736841
-1.9547872340425538
11.899999999999999
0.539893617021276
7.828947368421055
1.8803191489361701
6.963157894736838
-3.9654255319148937
10.850000000000001
6.013297872340425
9.284210526315789
4.7287234042553195
11.163157894736841
-1.9547872340425538
11.899999999999999
0.539893617021276
7.828947368421055
1.8803191489361701
6.963157894736838
-4.281914893617021
10.334210526315786
5.99468085106383
9.118421052631575
4.7287234042553195
11.163157894736841
-1.9547872340425538
11.899999999999999
0.539893617021276
7.828947368421055
1.8803191489361701
6.963157894736838
-4.430851063829787
10.094736842105263
5.957446808510637
8.823684210526316
4.7287234042553195
11.163157894736841
-1.9547872340425538
11.899999999999999
0.539893617021276
7.828947368421055
1.8803191489361701
6.963157894736838
-4.710106382978724
9.597368421052629
5.901595744680851
8.584210526315786
4.7287234042553195
11.163157894736841
-1.9547872340425538
11.899999999999999
0.539893617021276
7.828947368421055
1.8803191489361701
6.963157894736838
-4.821808510638299
9.357894736842105
5.882978723404255
8.473684210526315
4.7287234042553195
11.163157894736841
-1.9547872340425538
11.899999999999999
0.539893617021276
7.828947368421055
1.8803191489361701
6.963157894736838
-4.98936170212766
8.842105263157897
5.827127659574467
8.289473684210527
4.7287234042553195
11.163157894736841
-1.9547872340425538
11.899999999999999
0.539893617021276
7.828947368421055
1.8803191489361701
6.963157894736838
-5.045212765957447
8.602631578947374
5.8085106382978715
8.234210526315792
4.7287234042553195
11.163157894736841
-1.9547872340425538
11.899999999999999
0.539893617021276
7.828947368421055
1.8803191489361701
6.963157894736838
-5.082446808510639
8.381578947368425
5.8085106382978715
8.234210526315792
4.7287234042553195
11.163157894736841
-1.9547872340425538
11.899999999999999
0.539893617021276
7.828947368421055
1.8803191489361701
6.963157894736838
-5.11968085106383
8.050000000000004
5.8085106382978715
8.234210526315792
4.7287234042553195
11.163157894736841
-1.9547872340425538
11.899999999999999
0.539893617021276
7.828947368421055
1.8803191489361701
6.963157894736838
-5.11968085106383
7.921052631578945
5.8085106382978715
8.234210526315792
4.7287234042553195
11.163157894736841
-1.9547872340425538
11.899999999999999
0.539893617021276
7.828947368421055
2.0292553191489358
7.276315789473685
-5.11968085106383
7.921052631578945
5.8085106382978715
8.234210526315792
4.7287234042553195
11.163157894736841
-1.9547872340425538
11.899999999999999
0.539893617021276
7.828947368421055
1.9361702127659566
7.184210526315788
-5.11968085106383
7.921052631578945
5.8085106382978715
8.234210526315792
4.7287234042553195
11.163157894736841
-1.9547872340425538
11.899999999999999
0.539893617021276
7.828947368421055
1.8989361702127656
7.165789473684214
-5.11968085106383
7.921052631578945
5.8085106382978715
8.234210526315792
4.7287234042553195
11.163157894736841
-1.9547872340425538
11.899999999999999
0.539893617021276
7.828947368421055
