45
12
-4.24468085106383
7.184210526315788
-5.585106382978724
8.676315789473684
0.9494680851063828
6.226315789473681
3.574468085106382
12.876315789473686
-1.3031914893617023
8.676315789473684
3.4255319148936163
9.873684210526314
-4.24468085106383
7.184210526315788
-6.1436170212765955
8.676315789473684
0.9494680851063828
6.226315789473681
3.574468085106382
12.876315789473686
-1.3962765957446814
8.713157894736838
3.4255319148936163
9.873684210526314
-4.24468085106383
7.184210526315788
-6.050531914893617
8.676315789473684
0.9494680851063828
6.521052631578954
3.574468085106382
12.876315789473686
-1.4521276595744688
8.75
3.4255319148936163
9.873684210526314
-4.24468085106383
7.184210526315788
-5.9388297872340425
8.602631578947374
0.9308510638297864
6.723684210526315
3.574468085106382
12.876315789473686
-1.5079787234042552
8.786842105263162
3.4255319148936163
9.873684210526314
-4.24468085106383
7.184210526315788
-5.808510638297872
8.52894736842105
0.912234042553191
7.350000000000001
3.574468085106382
12.876315789473686
-1.5638297872340425
8.842105263157897
3.4255319148936163
9.873684210526314
-4.24468085106383
7.184210526315788
-5.51063829787234
8.32631578947369
0.912234042553191
7.773684210526319
3.574468085106382
12.876315789473686
-1.712765957446809
9.007894736842104
3.4255319148936163
9.873684210526314
-4.24468085106383
7.184210526315788
-5.324468085106383
8.178947368421056
0.8936170212765955
8.584210526315786
3.574468085106382
12.876315789473686
-1.8058510638297873
9.155263157894737
3.4255319148936163
9.873684210526314
-4.24468085106383
7.184210526315788
-5.082446808510639
8.013157894736842
0.8936170212765955
8.934210526315788
3.574468085106382
12.876315789473686
-1.8803191489361701
9.32105263157895
3.4255319148936163
9.873684210526314
-4.24468085106383
7.184210526315788
-4.598404255319149
7.663157894736841
0.875
9.63421052631579
3.574468085106382
12.876315789473686
-2.0664893617021276
9.72631578947368
3.4255319148936163
9.873684210526314
-4.24468085106383
7.184210526315788
-4.300531914893617
7.4789473684210535
0.875
9.94736842105263
3.574468085106382
12.876315789473686
-2.1409574468085113
9.928947368421056
3.4255319148936163
9.873684210526314
-4.24468085106383
7.184210526315788
-4.039893617021277
7.31315789473684
0.8563829787234036
10.481578947368419
3.574468085106382
12.876315789473686
-2.289893617021277
10.27894736842105
3.4255319148936163
9.873684210526314
-4.24468085106383
7.184210526315788
-3.6861702127659575
7.128947368421052
0.8191489361702127
10.72105263157895
3.574468085106382
12.876315789473686
-2.3457446808510642
10.444736842105264
3.4255319148936163
9.873684210526314
-4.24468085106383
7.184210526315788
-2.9787234042553195
6.760526315789477
0.7632978723404253
10.905263157894737
3.574468085106382
12.876315789473686
-2.3643617021276597
10.573684210526316
3.4255319148936163
9.873684210526314
-4.24468085106383
7.184210526315788
-2.587765957446809
6.576315789473689
0.707446808510638
11.071052631578944
3.574468085106382
12.876315789473686
-2.4015957446808516
10.739473684210523
3.4255319148936163
9.873684210526314
-4.24468085106383
7.184210526315788
-2.2712765957446814
6.44736842105263
0.6329787234042552
11.36578947368421
3.574468085106382
12.876315789473686
-2.4015957446808516
10.81315789473684
3.4255319148936163
9.873684210526314
-4.24468085106383
7.184210526315788
-1.9547872340425538
6.318421052631578
0.6143617021276588
11.439473684210526
3.574468085106382
12.876315789473686
-2.4015957446808516
10.81315789473684
3.4255319148936163
9.873684210526314
-4.24468085106383
7.184210526315788
-1.377659574468085
6.1157894736842096
0.6143617021276588
11.457894736842107
3.574468085106382
12.876315789473686
-2.4015957446808516
10.81315789473684
3.4255319148936163
9.873684210526314
-4.24468085106383
7.184210526315788
-1.1914893617021276
6.042105263157893
0.6143617021276588
11.457894736842107
3.574468085106382
12.876315789473686
-2.4015957446808516
10.81315789473684
3.4255319148936163
9.873684210526314
-4.24468085106383
7.184210526315788
-0.9680851063829792
5.968421052631584
0.6143617021276588
11.457894736842107
3.574468085106382
12.876315789473686
-2.4015957446808516
10.81315789473684
3.4255319148936163
9.873684210526314
-4.24468085106383
7.184210526315788
-0.7632978723404262
5.931578947368422
0.6143617021276588
11.457894736842107
3.574468085106382
12.876315789473686
-2.4015957446808516
10.81315789473684
3.4255319148936163
9.873684210526314
-4.24468085106383
7.184210526315788
-0.37234042553191493
5.8578947368421055
0.6143617021276588
11.457894736842107
3.574468085106382
12.876315789473686
-2.4015957446808516
10.81315789473684
3.4255319148936163
9.873684210526314
-4.24468085106383
7.184210526315788
-0.37234042553191493
5.8578947368421055
0.6143617021276588
11.457894736842107
3.574468085106382
12.876315789473686
-2.457446808510639
10.92368421052631
3.4255319148936163
9.873684210526314
-4.24468085106383
7.184210526315788
-0.37234042553191493
5.8578947368421055
0.4654255319148932
11.550000000000004
3.574468085106382
12.876315789473686
-2.4760638297872344
10.978947368421053
3.4255319148936163
9.873684210526314
-4.24468085106383
7.184210526315788
-0.37234042553191493
5.8578947368421055
0.42819148936170137
11.586842105263159
3.574468085106382
12.876315789473686
-2.49468085106383
11.107894736842105
3.4255319148936163
9.873684210526314
-4.24468085106383
7.184210526315788
-0.37234042553191493
5.8578947368421055
0.29787234042553123
11.678947368421056
3.574468085106382
12.876315789473686
-2.49468085106383
11.181578947368422
3.4255319148936163
9.873684210526314
-4.24468085106383
7.184210526315788
-0.37234042553191493
5.8578947368421055
0.22340425531914843
11.734210526315792
3.574468085106382
12.876315789473686
-2.49468085106383
11.292105263157893
3.4255319148936163
9.873684210526314
-4.24468085106383
7.184210526315788
-0.37234042553191493
5.8578947368421055
-0.01861702127659637
11.863157894736844
3.574468085106382
12.876315789473686
-2.49468085106383
11.38421052631579
3.4255319148936163
9.873684210526314
-4.24468085106383
7.184210526315788
-0.37234042553191493
5.8578947368421055
-0.1489361702127665
11.955263157894734
3.574468085106382
12.876315789473686
-2.49468085106383
11.550000000000004
3.4255319148936163
9.873684210526314
-4.24468085106383
7.184210526315788
-0.37234042553191493
5.8578947368421055
-0.4095744680851068
12.102631578947374
3.574468085106382
12.876315789473686
-2.5132978723404253
11.623684210526314
3.4255319148936163
9.873684210526314
-4.24468085106383
7.184210526315788
-0.37234042553191493
5.8578947368421055
-0.5585106382978724
12.176315789473684
3.574468085106382
12.876315789473686
-2.5132978723404253
11.69736842105263
3.4255319148936163
9.873684210526314
-4.24468085106383
7.184210526315788
-0.37234042553191493
5.8578947368421055
-0.9494680851063837
12.286842105263155
3.574468085106382
12.876315789473686
-2.5132978723404253
11.807894736842101
3.4255319148936163
9.873684210526314
-4.24468085106383
7.184210526315788
-0.37234042553191493
5.8578947368421055
-1.0984042553191493
12.34210526315789
3.574468085106382
12.876315789473686
-2.5132978723404253
11.844736842105263
3.4255319148936163
9.873684210526314
-4.24468085106383
7.184210526315788
-0.37234042553191493
5.8578947368421055
-1.4521276595744688
12.37894736842106
3.574468085106382
12.876315789473686
-2.5132978723404253
11.899999999999999
3.4255319148936163
9.873684210526314
-4.24468085106383
7.184210526315788
-0.37234042553191493
5.8578947368421055
-1.6569148936170217
12.397368421052626
3.574468085106382
12.876315789473686
-2.5132978723404253
11.93684210526316
3.4255319148936163
9.873684210526314
-4.24468085106383
7.184210526315788
-0.37234042553191493
5.8578947368421055
-2.0106382978723403
12.415789473684214
3.574468085106382
12.876315789473686
-2.5132978723404253
11.93684210526316
3.4255319148936163
9.873684210526314
-4.24468085106383
7.184210526315788
-0.37234042553191493
5.8578947368421055
-2.1409574468085113
12.415789473684214
3.574468085106382
12.876315789473686
-2.5132978723404253
11.93684210526316
3.4255319148936163
9.873684210526314
-4.24468085106383
7.184210526315788
-0.37234042553191493
5.8578947368421055
-2.4388297872340425
12.34210526315789
3.574468085106382
12.876315789473686
-2.5132978723404253
11.93684210526316
3.4255319148936163
9.873684210526314
-4.24468085106383
7.184210526315788
-0.37234042553191493
5.8578947368421055
-2.6063829787234045
12.286842105263155
3.574468085106382
12.876315789473686
-2.5132978723404253
11.93684210526316
3.4255319148936163
9.873684210526314
-4.24468085106383
7.184210526315788
-0.37234042553191493
5.8578947368421055
-2.9042553191489366
12.176315789473684
3.574468085106382
12.876315789473686
-2.5132978723404253
11.93684210526316
3.4255319148936163
9.873684210526314
-4.24468085106383
7.184210526315788
-0.37234042553191493
5.8578947368421055
-3.034574468085107
12.084210526315786
3.574468085106382
12.876315789473686
-2.5132978723404253
11.93684210526316
3.4255319148936163
9.873684210526314
-4.24468085106383
7.184210526315788
-0.37234042553191493
5.8578947368421055
-3.3138297872340425
11.807894736842101
3.574468085106382
12.876315789473686
-2.5132978723404253
11.93684210526316
3.4255319148936163
9.873684210526314
-4.24468085106383
7.184210526315788
-0.37234042553191493
5.8578947368421055
-3.6117021276595747
11.439473684210526
3.574468085106382
12.876315789473686
-2.5132978723404253
11.93684210526316
3.4255319148936163
9.873684210526314
-4.24468085106383
7.184210526315788
-0.37234042553191493
5.8578947368421055
-3.890957446808511
11.015789473684208
3.574468085106382
12.876315789473686
-2.5132978723404253
11.93684210526316
3.4255319148936163
9.873684210526314
-4.24468085106383
7.184210526315788
-0.37234042553191493
5.8578947368421055
-3.9840425531914896
10.81315789473684
3.574468085106382
12.876315789473686
-2.5132978723404253
11.93684210526316
3.4255319148936163
9.873684210526314
-4.24468085106383
7.184210526315788
-0.37234042553191493
5.8578947368421055
-4.077127659574469
10.573684210526316
3.574468085106382
12.876315789473686
-2.5132978723404253
11.93684210526316
3.4255319148936163
9.873684210526314
