50
12
2.2340425531914896
5.305263157894736
0.6888297872340425
6.060526315789474
-2.3085106382978724
12.544736842105266
3.704787234042552
12.286842105263155
5.789893617021276
10.997368421052634
-4.747340425531915
9.910526315789475
2.2340425531914896
5.305263157894736
0.6888297872340425
6.060526315789474
-2.3085106382978724
12.544736842105266
3.8164893617021267
12.360526315789471
5.789893617021276
10.997368421052634
-4.63563829787234
10.113157894736844
2.2340425531914896
5.305263157894736
0.6888297872340425
6.060526315789474
-2.1409574468085113
12.728947368421053
3.8537234042553195
12.397368421052626
5.789893617021276
10.997368421052634
-4.50531914893617
10.242105263157896
2.2340425531914896
5.305263157894736
0.6888297872340425
6.060526315789474
-2.0106382978723403
12.765789473684208
3.9281914893617014
12.415789473684214
5.678191489361701
11.071052631578944
-4.3563829787234045
10.389473684210529
2.2340425531914896
5.305263157894736
0.6888297872340425
6.060526315789474
-1.6941489361702127
12.913157894736841
4.207446808510637
12.489473684210523
5.492021276595745
11.089473684210525
-3.9840425531914896
10.757894736842104
2.2340425531914896
5.305263157894736
0.6888297872340425
6.060526315789474
-1.4707446808510642
12.968421052631584
4.449468085106382
12.526315789473685
5.361702127659575
11.089473684210525
-3.779255319148936
10.942105263157899
2.2340425531914896
5.305263157894736
0.6888297872340425
6.060526315789474
-1.0239361702127665
13.060526315789474
4.98936170212766
12.655263157894737
5.11968085106383
11.126315789473686
-3.4069148936170213
11.310526315789474
2.2340425531914896
5.305263157894736
0.6888297872340425
6.060526315789474
-0.7446808510638299
13.078947368421055
5.25
12.710526315789473
4.98936170212766
11.126315789473686
-3.220744680851064
11.457894736842107
2.2340425531914896
5.305263157894736
0.6888297872340425
6.060526315789474
-0.26063829787234116
13.078947368421055
5.8457446808510625
12.839473684210525
4.691489361702127
11.163157894736841
-2.922872340425532
11.69736842105263
2.2340425531914896
5.305263157894736
0.6888297872340425
6.060526315789474
-0.01861702127659637
13.097368421052629
6.069148936170212
12.89473684210526
4.579787234042552
11.163157894736841
-2.792553191489362
11.82631578947369
2.2340425531914896
5.305263157894736
0.6888297872340425
6.060526315789474
0.44680851063829774
13.097368421052629
6.590425531914892
12.986842105263158
4.523936170212766
11.163157894736841
-2.5691489361702127
11.992105263157896
2.2340425531914896
5.305263157894736
0.6888297872340425
6.060526315789474
0.6143617021276588
13.060526315789474
6.795212765957446
13.02368421052632
4.523936170212766
11.163157894736841
-2.420212765957447
12.047368421052632
2.2340425531914896
5.305263157894736
0.6888297872340425
6.060526315789474
1.0239361702127656
12.986842105263158
7.093085106382977
13.078947368421055
4.523936170212766
11.163157894736841
-2.382978723404255
12.084210526315786
2.2340425531914896
5.305263157894736
0.6888297872340425
6.060526315789474
1.2287234042553195
12.949999999999996
7.204787234042552
13.097368421052629
4.523936170212766
11.163157894736841
-2.382978723404255
12.084210526315786
2.2340425531914896
5.305263157894736
0.6888297872340425
6.060526315789474
1.5452127659574462
12.876315789473686
7.409574468085106
13.11578947368421
4.523936170212766
11.163157894736841
-2.382978723404255
12.084210526315786
2.2340425531914896
5.305263157894736
0.6888297872340425
6.060526315789474
1.6941489361702118
12.839473684210525
7.502659574468085
13.11578947368421
4.523936170212766
11.163157894736841
-2.382978723404255
12.084210526315786
2.2340425531914896
5.305263157894736
0.6888297872340425
6.060526315789474
2.0106382978723403
12.765789473684208
7.577127659574467
13.11578947368421
4.523936170212766
11.163157894736841
-2.382978723404255
12.084210526315786
2.2340425531914896
5.305263157894736
0.6888297872340425
6.060526315789474
2.159574468085106
12.747368421052634
7.577127659574467
13.11578947368421
4.523936170212766
11.163157894736841
-2.382978723404255
12.084210526315786
2.2340425531914896
5.305263157894736
0.6888297872340425
6.060526315789474
2.4015957446808507
12.710526315789473
7.577127659574467
13.11578947368421
4.523936170212766
11.163157894736841
-2.382978723404255
12.084210526315786
2.2340425531914896
5.305263157894736
0.6888297872340425
6.060526315789474
2.49468085106383
12.692105263157899
7.577127659574467
13.11578947368421
4.523936170212766
11.163157894736841
-2.382978723404255
12.084210526315786
2.2340425531914896
5.305263157894736
0.6888297872340425
6.060526315789474
2.569148936170212
12.67368421052631
7.577127659574467
13.11578947368421
4.523936170212766
11.163157894736841
-2.382978723404255
12.084210526315786
2.2340425531914896
5.305263157894736
0.6888297872340425
6.060526315789474
2.699468085106382
12.636842105263156
7.577127659574467
13.11578947368421
4.523936170212766
11.163157894736841
-2.382978723404255
12.084210526315786
2.2340425531914896
5.305263157894736
0.6888297872340425
6.060526315789474
2.7739361702127656
12.636842105263156
7.577127659574467
13.11578947368421
4.523936170212766
11.163157894736841
-2.382978723404255
12.084210526315786
2.2340425531914896
5.305263157894736
0.6888297872340425
6.060526315789474
2.8856382978723403
12.56315789473684
7.577127659574467
13.11578947368421
4.523936170212766
11.163157894736841
-2.382978723404255
12.084210526315786
2.2340425531914896
5.305263157894736
0.6888297872340425
6.060526315789474
2.8856382978723403
12.544736842105266
7.577127659574467
13.11578947368421
4.523936170212766
11.163157894736841
-2.382978723404255
12.084210526315786
2.2340425531914896
5.305263157894736
0.6888297872340425
6.060526315789474
2.9228723404255312
12.507894736842104
7.577127659574467
13.11578947368421
4.523936170212766
11.163157894736841
-2.382978723404255
12.084210526315786
2.2340425531914896
5.305263157894736
0.6888297872340425
6.060526315789474
2.997340425531915
12.360526315789471
7.577127659574467
13.11578947368421
4.523936170212766
11.163157894736841
-2.382978723404255
12.084210526315786
2.2340425531914896
5.305263157894736
0.6888297872340425
6.060526315789474
3.034574468085106
12.268421052631581
7.577127659574467
13.11578947368421
4.523936170212766
11.163157894736841
-2.382978723404255
12.084210526315786
2.2340425531914896
5.305263157894736
0.6888297872340425
6.060526315789474
3.127659574468085
12.047368421052632
7.577127659574467
13.11578947368421
4.523936170212766
11.163157894736841
-2.382978723404255
12.084210526315786
2.2340425531914896
5.305263157894736
0.6888297872340425
6.060526315789474
3.202127659574467
11.91842105263158
7.577127659574467
13.11578947368421
4.523936170212766
11.163157894736841
-2.382978723404255
12.084210526315786
2.2340425531914896
5.305263157894736
0.6888297872340425
6.060526315789474
3.295212765957446
11.752631578947366
7.577127659574467
13.11578947368421
4.523936170212766
11.163157894736841
-2.382978723404255
12.084210526315786
2.2340425531914896
5.305263157894736
0.6888297872340425
6.060526315789474
3.4627659574468073
11.439473684210526
7.577127659574467
13.11578947368421
4.523936170212766
11.163157894736841
-2.382978723404255
12.084210526315786
2.2340425531914896
5.305263157894736
0.6888297872340425
6.060526315789474
3.5558510638297864
11.292105263157893
7.577127659574467
13.11578947368421
4.523936170212766
11.163157894736841
-2.382978723404255
12.084210526315786
2.2340425531914896
5.305263157894736
0.6888297872340425
6.060526315789474
3.6489361702127656
11.14473684210526
7.577127659574467
13.11578947368421
4.523936170212766
11.163157894736841
-2.382978723404255
12.084210526315786
2.2340425531914896
5.305263157894736
0.6888297872340425
6.060526315789474
3.835106382978722
10.81315789473684
7.577127659574467
13.11578947368421
4.523936170212766
11.163157894736841
-2.382978723404255
12.084210526315786
2.2340425531914896
5.305263157894736
0.6888297872340425
6.060526315789474
3.909574468085106
10.62894736842106
7.577127659574467
13.11578947368421
4.523936170212766
11.163157894736841
-2.382978723404255
12.084210526315786
2.2340425531914896
5.305263157894736
0.6888297872340425
6.060526315789474
4.0957446808510625
10.315789473684205
7.577127659574467
13.11578947368421
4.523936170212766
11.163157894736841
-2.382978723404255
12.084210526315786
2.2340425531914896
5.305263157894736
0.6888297872340425
6.060526315789474
4.207446808510637
10.16842105263158
7.577127659574467
13.11578947368421
4.523936170212766
11.163157894736841
-2.382978723404255
12.084210526315786
2.2340425531914896
5.305263157894736
0.6888297872340425
6.060526315789474
4.375
9.85526315789474
7.577127659574467
13.11578947368421
4.523936170212766
11.163157894736841
-2.382978723404255
12.084210526315786
2.2340425531914896
5.305263157894736
0.6888297872340425
6.060526315789474
4.468085106382977
9.689473684210526
7.577127659574467
13.11578947368421
4.523936170212766
11.163157894736841
-2.382978723404255
12.084210526315786
2.2340425531914896
5.305263157894736
0.6888297872340425
6.060526315789474
4.5984042553191475
9.413157894736841
7.577127659574467
13.11578947368421
4.523936170212766
11.163157894736841
-2.382978723404255
12.084210526315786
2.2340425531914896
5.305263157894736
0.6888297872340425
6.060526315789474
4.654255319148936
9.265789473684208
7.577127659574467
13.11578947368421
4.523936170212766
11.163157894736841
-2.382978723404255
12.084210526315786
2.2340425531914896
5.305263157894736
0.6888297872340425
6.060526315789474
4.76595744680851
8.97105263157895
7.577127659574467
13.11578947368421
4.523936170212766
11.163157894736841
-2.382978723404255
12.084210526315786
2.2340425531914896
5.305263157894736
0.6888297872340425
6.060526315789474
4.821808510638297
8.823684210526316
7.577127659574467
13.11578947368421
4.523936170212766
11.163157894736841
-2.382978723404255
12.084210526315786
2.2340425531914896
5.305263157894736
0.6888297872340425
6.060526315789474
4.914893617021276
8.510526315789477
7.577127659574467
13.11578947368421
4.523936170212766
11.163157894736841
-2.382978723404255
12.084210526315786
2.2340425531914896
5.305263157894736
0.6888297872340425
6.060526315789474
4.952127659574467
8.344736842105263
7.577127659574467
13.11578947368421
4.523936170212766
11.163157894736841
-2.382978723404255
12.084210526315786
2.2340425531914896
5.305263157894736
0.6888297872340425
6.060526315789474
4.98936170212766
8.19736842105263
7.577127659574467
13.11578947368421
4.523936170212766
11.163157894736841
-2.382978723404255
12.084210526315786
2.2340425531914896
5.305263157894736
0.6888297872340425
6.060526315789474
5.045212765957446
7.921052631578945
7.577127659574467
13.11578947368421
4.523936170212766
11.163157894736841
-2.382978723404255
12.084210526315786
2.2340425531914896
5.305263157894736
0.6888297872340425
6.060526315789474
5.063829787234042
7.810526315789474
7.577127659574467
13.11578947368421
4.523936170212766
11.163157894736841
-2.382978723404255
12.084210526315786
2.2340425531914896
5.305263157894736
0.6888297872340425
6.060526315789474
5.082446808510637
7.7368421052631575
7.577127659574467
13.11578947368421
4.523936170212766
11.163157894736841
-2.382978723404255
12.084210526315786
