40
12
2.4015957446808507
4.752631578947366
1.1170212765957448
5.89473684210526
-5.585106382978724
12.839473684210525
6.553191489361701
13.11578947368421
2.569148936170212
7.810526315789474
-1.6941489361702127
8.547368421052632
2.4015957446808507
4.752631578947366
1.1170212765957448
5.89473684210526
-5.585106382978724
12.839473684210525
6.553191489361701
13.11578947368421
2.4760638297872344
7.663157894736841
-1.6941489361702127
8.547368421052632
2.4015957446808507
4.752631578947366
1.1170212765957448
5.89473684210526
-5.585106382978724
12.839473684210525
6.553191489361701
13.11578947368421
2.4015957446808507
7.534210526315789
-1.6941489361702127
8.547368421052632
2.4015957446808507
4.752631578947366
1.1170212765957448
5.89473684210526
-5.585106382978724
12.839473684210525
6.553191489361701
13.11578947368421
2.3085106382978715
7.3315789473684205
-1.6941489361702127
8.547368421052632
2.4015957446808507
4.752631578947366
1.1170212765957448
5.89473684210526
-5.585106382978724
12.839473684210525
6.553191489361701
13.11578947368421
2.2712765957446805
7.257894736842104
-1.6941489361702127
8.547368421052632
2.4015957446808507
4.752631578947366
1.1170212765957448
5.89473684210526
-5.585106382978724
12.839473684210525
6.553191489361701
13.11578947368421
2.2154255319148923
7.128947368421052
-1.6941489361702127
8.547368421052632
2.4015957446808507
4.752631578947366
1.1170212765957448
5.89473684210526
-5.585106382978724
12.839473684210525
6.553191489361701
13.11578947368421
2.196808510638297
7.110526315789471
-1.6941489361702127
8.547368421052632
2.4015957446808507
4.752631578947366
1.1170212765957448
5.89473684210526
-5.585106382978724
12.839473684210525
6.553191489361701
13.11578947368421
2.1781914893617014
7.0736842105263165
-1.6941489361702127
8.547368421052632
2.4015957446808507
4.752631578947366
1.1170212765957448
5.89473684210526
-5.585106382978724
12.839473684210525
6.553191489361701
13.11578947368421
2.159574468085106
7.036842105263162
-1.6941489361702127
8.547368421052632
2.4015957446808507
4.752631578947366
0.5585106382978724
5.89473684210526
-5.585106382978724
12.839473684210525
6.553191489361701
13.11578947368421
2.0664893617021267
7.092105263157897
-1.6941489361702127
8.547368421052632
2.4015957446808507
4.752631578947366
0.5585106382978724
5.89473684210526
-5.585106382978724
12.839473684210525
6.553191489361701
13.11578947368421
2.0664893617021267
7.128947368421052
-1.6196808510638299
8.492105263157896
2.4015957446808507
4.752631578947366
0.707446808510638
5.89473684210526
-5.585106382978724
12.839473684210525
6.553191489361701
13.11578947368421
2.0664893617021267
7.2026315789473685
-1.5265957446808516
8.43684210526316
2.4015957446808507
4.752631578947366
0.8005319148936163
5.931578947368422
-5.585106382978724
12.839473684210525
6.553191489361701
13.11578947368421
2.0664893617021267
7.276315789473685
-1.4335106382978724
8.363157894736844
2.4015957446808507
4.752631578947366
0.9494680851063828
5.931578947368422
-5.585106382978724
12.839473684210525
6.553191489361701
13.11578947368421
2.0292553191489358
7.386842105263156
-1.2287234042553195
8.215789473684211
2.4015957446808507
4.752631578947366
1.1542553191489358
5.950000000000003
-5.585106382978724
12.839473684210525
6.553191489361701
13.11578947368421
2.0292553191489358
7.534210526315789
-0.9867021276595747
8.068421052631578
2.4015957446808507
4.752631578947366
1.6755319148936163
6.097368421052636
-5.585106382978724
12.839473684210525
6.553191489361701
13.11578947368421
2.0292553191489358
7.921052631578945
-0.875
7.994736842105269
2.4015957446808507
4.752631578947366
1.9920212765957448
6.207894736842107
-5.585106382978724
12.839473684210525
6.553191489361701
13.11578947368421
2.0292553191489358
8.178947368421056
-0.7632978723404262
7.902631578947371
2.4015957446808507
4.752631578947366
2.867021276595745
6.631578947368425
-5.585106382978724
12.839473684210525
6.553191489361701
13.11578947368421
2.085106382978722
8.621052631578948
-0.5957446808510642
7.792105263157893
2.4015957446808507
4.752631578947366
3.3138297872340416
6.9263157894736835
-5.585106382978724
12.839473684210525
6.553191489361701
13.11578947368421
2.085106382978722
9.007894736842104
-0.5212765957446814
7.7368421052631575
2.4015957446808507
4.752631578947366
3.4627659574468073
7.055263157894736
-5.585106382978724
12.839473684210525
6.553191489361701
13.11578947368421
2.085106382978722
9.192105263157899
-0.4095744680851068
7.64473684210526
2.4015957446808507
4.752631578947366
3.704787234042552
7.257894736842104
-5.585106382978724
12.839473684210525
6.553191489361701
13.11578947368421
2.122340425531915
9.486842105263158
-0.35372340425531945
7.6078947368421055
2.4015957446808507
4.752631578947366
3.7978723404255312
7.350000000000001
-5.585106382978724
12.839473684210525
6.553191489361701
13.11578947368421
2.159574468085106
9.597368421052629
-0.2978723404255321
7.55263157894737
2.4015957446808507
4.752631578947366
3.872340425531915
7.405263157894737
-5.585106382978724
12.839473684210525
6.553191489361701
13.11578947368421
2.196808510638297
9.781578947368416
-0.26063829787234116
7.534210526315789
2.4015957446808507
4.752631578947366
3.9840425531914896
7.515789473684208
-5.585106382978724
12.839473684210525
6.553191489361701
13.11578947368421
2.196808510638297
9.85526315789474
-0.2420212765957448
7.515789473684208
2.4015957446808507
4.752631578947366
3.9840425531914896
7.515789473684208
-5.585106382978724
12.839473684210525
6.553191489361701
13.11578947368421
2.2154255319148923
9.928947368421056
-0.20478723404255383
7.4789473684210535
2.4015957446808507
4.752631578947366
3.9840425531914896
7.515789473684208
-5.585106382978724
12.839473684210525
6.553191489361701
13.11578947368421
2.252659574468085
10.039473684210527
-0.18617021276595747
7.460526315789473
2.4015957446808507
4.752631578947366
3.9840425531914896
7.515789473684208
-5.585106382978724
12.839473684210525
6.553191489361701
13.11578947368421
2.252659574468085
10.113157894736844
-0.16755319148936199
7.460526315789473
2.4015957446808507
4.752631578947366
3.9840425531914896
7.515789473684208
-5.585106382978724
12.839473684210525
6.553191489361701
13.11578947368421
2.289893617021276
10.223684210526315
-0.1489361702127665
7.442105263157899
2.4015957446808507
4.752631578947366
3.9840425531914896
7.515789473684208
-5.585106382978724
12.839473684210525
6.553191489361701
13.11578947368421
2.289893617021276
10.27894736842105
-0.1489361702127665
7.442105263157899
2.4015957446808507
4.752631578947366
3.9840425531914896
7.515789473684208
-5.585106382978724
12.839473684210525
6.553191489361701
13.11578947368421
2.3085106382978715
10.389473684210529
-0.13031914893617014
7.423684210526318
2.4015957446808507
4.752631578947366
3.9840425531914896
7.515789473684208
-5.585106382978724
12.839473684210525
6.553191489361701
13.11578947368421
2.327127659574467
10.426315789473684
-0.13031914893617014
7.423684210526318
2.4015957446808507
4.752631578947366
3.9840425531914896
7.515789473684208
-5.585106382978724
12.839473684210525
6.553191489361701
13.11578947368421
2.3457446808510642
10.463157894736845
-0.13031914893617014
7.423684210526318
2.4015957446808507
4.752631578947366
3.9840425531914896
7.515789473684208
-5.585106382978724
12.839473684210525
6.553191489361701
13.11578947368421
2.4015957446808507
10.518421052631581
-0.13031914893617014
7.423684210526318
2.4015957446808507
4.752631578947366
3.9840425531914896
7.515789473684208
-5.585106382978724
12.839473684210525
6.553191489361701
13.11578947368421
2.457446808510637
10.536842105263155
-0.13031914893617014
7.423684210526318
2.4015957446808507
4.752631578947366
3.9840425531914896
7.515789473684208
-5.585106382978724
12.839473684210525
6.553191489361701
13.11578947368421
2.569148936170212
10.573684210526316
-0.13031914893617014
7.423684210526318
2.4015957446808507
4.752631578947366
3.9840425531914896
7.515789473684208
-5.585106382978724
12.839473684210525
6.553191489361701
13.11578947368421
2.6436170212765955
10.59210526315789
-0.13031914893617014
7.423684210526318
2.4015957446808507
4.752631578947366
3.9840425531914896
7.515789473684208
-5.585106382978724
12.839473684210525
6.553191489361701
13.11578947368421
2.9042553191489358
10.610526315789471
-0.13031914893617014
7.423684210526318
2.4015957446808507
4.752631578947366
3.9840425531914896
7.515789473684208
-5.585106382978724
12.839473684210525
6.553191489361701
13.11578947368421
3.0531914893617014
10.610526315789471
-0.13031914893617014
7.423684210526318
2.4015957446808507
4.752631578947366
3.9840425531914896
7.515789473684208
-5.585106382978724
12.839473684210525
6.553191489361701
13.11578947368421
3.3510638297872344
10.610526315789471
-0.13031914893617014
7.423684210526318
2.4015957446808507
4.752631578947366
3.9840425531914896
7.515789473684208
-5.585106382978724
12.839473684210525
6.553191489361701
13.11578947368421
3.5186170212765955
10.573684210526316
-0.13031914893617014
7.423684210526318
