48
12
-2.159574468085107
5.636842105263156
-3.3510638297872344
5.342105263157897
3.332446808510637
5.139473684210529
-5.51063829787234
7.994736842105269
3.704787234042552
10.315789473684205
-2.5319148936170217
11.771052631578947
-2.159574468085107
5.636842105263156
-3.3510638297872344
5.342105263157897
3.332446808510637
5.139473684210529
-5.51063829787234
7.994736842105269
3.704787234042552
10.315789473684205
-2.5319148936170217
11.771052631578947
-2.159574468085107
5.636842105263156
-3.3510638297872344
5.342105263157897
3.3510638297872344
5.286842105263162
-5.51063829787234
7.994736842105269
3.704787234042552
10.315789473684205
-2.5319148936170217
11.771052631578947
-2.159574468085107
5.636842105263156
-3.3510638297872344
5.342105263157897
3.36968085106383
5.378947368421052
-5.51063829787234
7.994736842105269
3.5930851063829774
10.27894736842105
-2.5319148936170217
11.771052631578947
-2.159574468085107
5.636842105263156
-3.3510638297872344
5.342105263157897
3.3882978723404253
5.471052631578949
-5.51063829787234
7.994736842105269
3.4813829787234045
10.094736842105263
-2.5319148936170217
11.771052631578947
-2.159574468085107
5.636842105263156
-3.3510638297872344
5.342105263157897
3.4255319148936163
5.600000000000001
-5.51063829787234
7.994736842105269
3.3882978723404253
9.965789473684211
-2.5319148936170217
11.771052631578947
-2.159574468085107
5.636842105263156
-3.3510638297872344
5.342105263157897
3.4813829787234045
5.931578947368422
-5.51063829787234
7.994736842105269
3.2765957446808507
9.800000000000004
-2.5319148936170217
11.771052631578947
-2.159574468085107
5.636842105263156
-3.3510638297872344
5.342105263157897
3.5186170212765955
6.1342105263157904
-5.51063829787234
7.994736842105269
3.164893617021276
9.61578947368421
-2.5319148936170217
11.771052631578947
-2.159574468085107
5.636842105263156
-3.3510638297872344
5.342105263157897
3.5558510638297864
6.300000000000004
-5.51063829787234
7.994736842105269
2.960106382978722
9.228947368421053
-2.5319148936170217
11.771052631578947
-2.159574468085107
5.636842105263156
-3.3510638297872344
5.342105263157897
3.5930851063829774
6.44736842105263
-5.51063829787234
7.994736842105269
2.8484042553191493
9.044736842105266
-2.5319148936170217
11.771052631578947
-2.159574468085107
5.636842105263156
-3.3510638297872344
5.342105263157897
3.667553191489361
6.760526315789477
-5.51063829787234
7.994736842105269
2.662234042553191
8.657894736842103
-2.5319148936170217
11.771052631578947
-2.159574468085107
5.636842105263156
-3.3510638297872344
5.342105263157897
3.6861702127659566
6.944736842105264
-5.51063829787234
7.994736842105269
2.6063829787234045
8.52894736842105
-2.5319148936170217
11.771052631578947
-2.159574468085107
5.636842105263156
-3.3510638297872344
5.342105263157897
3.7234042553191493
7.110526315789471
-5.51063829787234
7.994736842105269
2.531914893617021
8.399999999999999
-2.5319148936170217
11.771052631578947
-2.159574468085107
5.636842105263156
-3.3510638297872344
5.342105263157897
3.742021276595745
7.276315789473685
-5.51063829787234
7.994736842105269
2.457446808510637
8.178947368421056
-2.5319148936170217
11.771052631578947
-2.159574468085107
5.636842105263156
-3.3510638297872344
5.342105263157897
3.7606382978723403
7.534210526315789
-5.51063829787234
7.994736842105269
2.420212765957446
8.086842105263159
-2.5319148936170217
11.771052631578947
-2.159574468085107
5.636842105263156
-3.3510638297872344
5.342105263157897
3.7792553191489358
7.64473684210526
-5.51063829787234
7.994736842105269
2.4015957446808507
8.013157894736842
-2.5319148936170217
11.771052631578947
-2.159574468085107
5.636842105263156
-3.3510638297872344
5.342105263157897
3.7792553191489358
7.792105263157893
-5.51063829787234
7.994736842105269
2.382978723404255
7.847368421052636
-2.5319148936170217
11.771052631578947
-2.159574468085107
5.636842105263156
-3.3510638297872344
5.342105263157897
3.7792553191489358
7.921052631578945
-5.51063829787234
7.994736842105269
2.3643617021276597
7.755263157894738
-2.5319148936170217
11.771052631578947
-2.159574468085107
5.636842105263156
-3.3510638297872344
5.342105263157897
3.7792553191489358
8.19736842105263
-5.51063829787234
7.994736842105269
2.4015957446808507
7.681578947368422
-2.5319148936170217
11.771052631578947
-2.159574468085107
5.636842105263156
-3.3510638297872344
5.342105263157897
3.7606382978723403
8.307894736842101
-5.51063829787234
7.994736842105269
2.457446808510637
7.515789473684208
-2.5319148936170217
11.771052631578947
-2.159574468085107
5.636842105263156
-3.3510638297872344
5.342105263157897
3.742021276595745
8.43684210526316
-5.51063829787234
7.994736842105269
2.49468085106383
7.442105263157899
-2.5319148936170217
11.771052631578947
-2.159574468085107
5.636842105263156
-3.3510638297872344
5.342105263157897
3.7234042553191493
8.694736842105264
-5.51063829787234
7.994736842105269
2.5505319148936163
7.350000000000001
-2.5319148936170217
11.771052631578947
-2.159574468085107
5.636842105263156
-3.3510638297872344
5.342105263157897
3.6861702127659566
8.842105263157897
-5.51063829787234
7.994736842105269
2.7180851063829774
7.147368421052633
-2.5319148936170217
11.771052631578947
-2.159574468085107
5.636842105263156
-3.3510638297872344
5.342105263157897
3.667553191489361
8.97105263157895
-5.51063829787234
7.994736842105269
2.792553191489361
7.055263157894736
-2.5319148936170217
11.771052631578947
-2.159574468085107
5.636842105263156
-3.3510638297872344
5.342105263157897
3.6489361702127656
9.136842105263156
-5.51063829787234
7.994736842105269
2.8856382978723403
6.944736842105264
-2.5319148936170217
11.771052631578947
-2.159574468085107
5.636842105263156
-3.3510638297872344
5.342105263157897
3.5558510638297864
9.431578947368422
-5.51063829787234
7.994736842105269
3.071808510638297
6.723684210526315
-2.5319148936170217
11.771052631578947
-2.159574468085107
5.636842105263156
-3.3510638297872344
5.342105263157897
3.5186170212765955
9.61578947368421
-5.51063829787234
7.994736842105269
3.1835106382978715
6.649999999999999
-2.5319148936170217
11.771052631578947
-2.159574468085107
5.636842105263156
-3.3510638297872344
5.342105263157897
3.4627659574468073
9.781578947368416
-5.51063829787234
7.994736842105269
3.2765957446808507
6.594736842105263
-2.5319148936170217
11.771052631578947
-2.159574468085107
5.636842105263156
-3.3510638297872344
5.342105263157897
3.406914893617021
9.928947368421056
-5.51063829787234
7.994736842105269
3.4813829787234045
6.44736842105263
-2.5319148936170217
11.771052631578947
-2.159574468085107
5.636842105263156
-3.3510638297872344
5.342105263157897
3.295212765957446
10.242105263157896
-5.51063829787234
7.994736842105269
3.574468085106382
6.35526315789474
-2.5319148936170217
11.771052631578947
-2.159574468085107
5.636842105263156
-3.3510638297872344
5.342105263157897
3.2207446808510625
10.40789473684211
-5.51063829787234
7.994736842105269
3.7978723404255312
6.171052631578945
-2.5319148936170217
11.771052631578947
-2.159574468085107
5.636842105263156
-3.3510638297872344
5.342105263157897
3.1462765957446805
10.573684210526316
-5.51063829787234
7.994736842105269
3.9281914893617014
6.078947368421055
-2.5319148936170217
11.771052631578947
-2.159574468085107
5.636842105263156
-3.3510638297872344
5.342105263157897
2.997340425531915
10.886842105263156
-5.51063829787234
7.994736842105269
4.132978723404255
5.968421052631584
-2.5319148936170217
11.771052631578947
-2.159574468085107
5.636842105263156
-3.3510638297872344
5.342105263157897
2.9042553191489358
11.034210526315789
-5.51063829787234
7.994736842105269
4.207446808510637
5.931578947368422
-2.5319148936170217
11.771052631578947
-2.159574468085107
5.636842105263156
-3.3510638297872344
5.342105263157897
2.8111702127659566
11.163157894736841
-5.51063829787234
7.994736842105269
4.263297872340425
5.89473684210526
-2.5319148936170217
11.771052631578947
-2.159574468085107
5.636842105263156
-3.3510638297872344
5.342105263157897
2.5877659574468073
11.439473684210526
-5.51063829787234
7.994736842105269
4.300531914893616
5.8578947368421055
-2.5319148936170217
11.771052631578947
-2.159574468085107
5.636842105263156
-3.3510638297872344
5.342105263157897
2.457446808510637
11.568421052631578
-5.51063829787234
7.994736842105269
4.300531914893616
5.8578947368421055
-2.5319148936170217
11.771052631578947
-2.159574468085107
5.636842105263156
-3.3510638297872344
5.342105263157897
2.3457446808510642
11.678947368421056
-5.51063829787234
7.994736842105269
4.300531914893616
5.8578947368421055
-2.5319148936170217
11.771052631578947
-2.159574468085107
5.636842105263156
-3.3510638297872344
5.342105263157897
2.1037234042553195
11.863157894736844
-5.51063829787234
7.994736842105269
4.300531914893616
5.8578947368421055
-2.5319148936170217
11.771052631578947
-2.159574468085107
5.636842105263156
-3.3510638297872344
5.342105263157897
1.9920212765957448
11.93684210526316
-5.51063829787234
7.994736842105269
4.300531914893616
5.8578947368421055
-2.5319148936170217
11.771052631578947
-2.159574468085107
5.636842105263156
-3.3510638297872344
5.342105263157897
1.8989361702127656
11.992105263157896
-5.51063829787234
7.994736842105269
4.300531914893616
5.8578947368421055
-2.5319148936170217
11.771052631578947
-2.159574468085107
5.636842105263156
-3.3510638297872344
5.342105263157897
1.6941489361702118
12.102631578947374
-5.51063829787234
7.994736842105269
4.300531914893616
5.8578947368421055
-2.5319148936170217
11.771052631578947
-2.159574468085107
5.636842105263156
-3.3510638297872344
5.342105263157897
1.6196808510638299
12.139473684210529
-5.51063829787234
7.994736842105269
4.300531914893616
5.8578947368421055
-2.5319148936170217
11.771052631578947
-2.159574468085107
5.636842105263156
-3.3510638297872344
5.342105263157897
1.5452127659574462
12.15789473684211
-5.51063829787234
7.994736842105269
4.300531914893616
5.8578947368421055
-2.5319148936170217
11.771052631578947
-2.159574468085107
5.636842105263156
-3.3510638297872344
5.342105263157897
1.4707446808510642
12.194736842105264
-5.51063829787234
7.994736842105269
4.300531914893616
5.8578947368421055
-2.5319148936170217
11.771052631578947
-1.3031914893617023
4.789473684210527
-3.3510638297872344
5.342105263157897
1.4707446808510642
12.194736842105264
-5.51063829787234
7.994736842105269
4.300531914893616
5.8578947368421055
-2.5319148936170217
11.771052631578947
-1.247340425531915
5.010526315789477
-3.3510638297872344
5.342105263157897
1.4707446808510642
12.194736842105264
-5.51063829787234
7.994736842105269
4.300531914893616
5.8578947368421055
-2.5319148936170217
11.771052631578947
-1.1542553191489366
5.121052631578948
-3.3510638297872344
5.342105263157897
1.4707446808510642
12.194736842105264
-5.51063829787234
7.994736842105269
4.300531914893616
5.8578947368421055
-2.5319148936170217
11.771052631578947
