45
12
-1.0611702127659575
8.031578947368416
-5.38031914893617
7.257894736842104
-5.659574468085106
12.286842105263155
7.26063829787234
12.636842105263156
4.617021276595745
9.32105263157895
-1.5079787234042552
8.344736842105263
-0.9122340425531918
8.086842105263159
-5.38031914893617
7.257894736842104
-5.659574468085106
12.286842105263155
7.26063829787234
12.636842105263156
4.617021276595745
9.32105263157895
-1.5079787234042552
8.344736842105263
-0.837765957446809
8.123684210526314
-5.38031914893617
7.257894736842104
-5.659574468085106
12.286842105263155
7.26063829787234
12.636842105263156
4.617021276595745
9.32105263157895
-1.5079787234042552
8.344736842105263
-0.837765957446809
8.123684210526314
-5.25
7.497368421052634
-5.51063829787234
12.415789473684214
7.26063829787234
12.636842105263156
4.617021276595745
9.32105263157895
-1.5079787234042552
8.344736842105263
-0.837765957446809
8.123684210526314
-5.156914893617021
7.64473684210526
-5.343085106382979
12.452631578947368
7.26063829787234
12.636842105263156
4.617021276595745
9.32105263157895
-1.5079787234042552
8.344736842105263
-0.837765957446809
8.123684210526314
-5.082446808510639
7.792105263157893
-5.175531914893617
12.452631578947368
7.26063829787234
12.636842105263156
4.617021276595745
9.32105263157895
-1.5079787234042552
8.344736842105263
-0.837765957446809
8.123684210526314
-4.8962765957446805
8.178947368421056
-4.840425531914894
12.47105263157895
7.26063829787234
12.636842105263156
4.617021276595745
9.32105263157895
-1.5079787234042552
8.344736842105263
-0.837765957446809
8.123684210526314
-4.803191489361702
8.307894736842101
-4.449468085106384
12.489473684210523
7.26063829787234
12.636842105263156
4.617021276595745
9.32105263157895
-1.5079787234042552
8.344736842105263
-0.837765957446809
8.123684210526314
-4.617021276595745
8.713157894736838
-3.9281914893617023
12.544736842105266
7.26063829787234
12.636842105263156
4.617021276595745
9.32105263157895
-1.5079787234042552
8.344736842105263
-0.837765957446809
8.123684210526314
-4.50531914893617
8.915789473684214
-3.6303191489361706
12.56315789473684
7.26063829787234
12.636842105263156
4.617021276595745
9.32105263157895
-1.5079787234042552
8.344736842105263
-0.837765957446809
8.123684210526314
-4.281914893617021
9.339473684210525
-3.127659574468085
12.655263157894737
7.26063829787234
12.636842105263156
4.617021276595745
9.32105263157895
-1.5079787234042552
8.344736842105263
-0.837765957446809
8.123684210526314
-4.207446808510639
9.52368421052632
-2.6808510638297873
12.710526315789473
7.26063829787234
12.636842105263156
4.617021276595745
9.32105263157895
-1.5079787234042552
8.344736842105263
-0.837765957446809
8.123684210526314
-4.11436170212766
9.689473684210526
-2.327127659574468
12.710526315789473
7.26063829787234
12.636842105263156
4.617021276595745
9.32105263157895
-1.5079787234042552
8.344736842105263
-0.837765957446809
8.123684210526314
-3.946808510638298
10.021052631578947
-2.1781914893617023
12.710526315789473
7.26063829787234
12.636842105263156
4.617021276595745
9.32105263157895
-1.5079787234042552
8.344736842105263
-0.837765957446809
8.123684210526314
-3.8351063829787235
10.18684210526316
-1.8803191489361701
12.67368421052631
7.26063829787234
12.636842105263156
4.617021276595745
9.32105263157895
-1.5079787234042552
8.344736842105263
-0.837765957446809
8.123684210526314
-3.5930851063829787
10.536842105263155
-1.712765957446809
12.636842105263156
7.26063829787234
12.636842105263156
4.617021276595745
9.32105263157895
-1.5079787234042552
8.344736842105263
-0.837765957446809
8.123684210526314
-3.518617021276596
10.702631578947368
-1.6010638297872344
12.600000000000001
7.26063829787234
12.636842105263156
4.617021276595745
9.32105263157895
-1.5079787234042552
8.344736842105263
-0.837765957446809
8.123684210526314
-3.3510638297872344
10.960526315789473
-1.3590425531914896
12.58157894736842
7.26063829787234
12.636842105263156
4.617021276595745
9.32105263157895
-1.5079787234042552
8.344736842105263
-0.837765957446809
8.123684210526314
-3.295212765957447
11.071052631578944
-1.210106382978724
12.56315789473684
7.26063829787234
12.636842105263156
4.617021276595745
9.32105263157895
-1.5079787234042552
8.344736842105263
-0.837765957446809
8.123684210526314
-3.1835106382978724
11.310526315789474
-0.8936170212765964
12.489473684210523
7.26063829787234
12.636842105263156
4.617021276595745
9.32105263157895
-1.5079787234042552
8.344736842105263
-0.837765957446809
8.123684210526314
-3.0904255319148937
11.439473684210526
-0.7632978723404262
12.47105263157895
7.26063829787234
12.636842105263156
4.617021276595745
9.32105263157895
-1.5079787234042552
8.344736842105263
-0.837765957446809
8.123684210526314
-3.015957446808511
11.531578947368416
-0.6143617021276597
12.415789473684214
7.26063829787234
12.636842105263156
4.617021276595745
9.32105263157895
-1.5079787234042552
8.344736842105263
-0.837765957446809
8.123684210526314
-2.8856382978723403
11.69736842105263
-0.5771276595744688
12.397368421052626
7.26063829787234
12.636842105263156
4.617021276595745
9.32105263157895
-1.5079787234042552
8.344736842105263
-0.837765957446809
8.123684210526314
-2.829787234042554
11.752631578947366
-0.5398936170212769
12.397368421052626
7.26063829787234
12.636842105263156
4.617021276595745
9.32105263157895
-1.5079787234042552
8.344736842105263
-0.837765957446809
8.123684210526314
-2.7367021276595747
11.82631578947369
-0.4654255319148941
12.360526315789471
7.26063829787234
12.636842105263156
4.617021276595745
9.32105263157895
-1.5079787234042552
8.344736842105263
-0.837765957446809
8.123684210526314
-2.699468085106383
11.881578947368425
-0.42819148936170226
12.360526315789471
7.26063829787234
12.636842105263156
4.617021276595745
9.32105263157895
-1.5079787234042552
8.344736842105263
-0.837765957446809
8.123684210526314
-2.662234042553192
11.955263157894734
-0.4095744680851068
12.34210526315789
7.26063829787234
12.636842105263156
4.617021276595745
9.32105263157895
-1.5079787234042552
8.344736842105263
-0.837765957446809
8.123684210526314
-2.662234042553192
11.973684210526315
-0.4095744680851068
12.323684210526316
7.26063829787234
12.636842105263156
4.617021276595745
9.32105263157895
-1.5079787234042552
8.344736842105263
-0.837765957446809
8.123684210526314
-2.6436170212765964
12.010526315789477
-0.44680851063829863
12.323684210526316
7.26063829787234
12.636842105263156
4.617021276595745
9.32105263157895
-1.5079787234042552
8.344736842105263
-0.837765957446809
8.123684210526314
-2.6436170212765964
12.047368421052632
-0.4654255319148941
12.323684210526316
7.26063829787234
12.636842105263156
4.617021276595745
9.32105263157895
-1.5079787234042552
8.344736842105263
-0.837765957446809
8.123684210526314
-2.6436170212765964
12.047368421052632
-0.6515957446808516
12.415789473684214
7.26063829787234
12.636842105263156
4.617021276595745
9.32105263157895
-1.5079787234042552
8.344736842105263
-0.837765957446809
8.123684210526314
-2.662234042553192
12.065789473684205
-0.7260638297872344
12.415789473684214
7.26063829787234
12.636842105263156
4.617021276595745
9.32105263157895
-1.5079787234042552
8.344736842105263
-0.837765957446809
8.123684210526314
-2.6808510638297873
12.084210526315786
-0.9680851063829792
12.415789473684214
7.26063829787234
12.636842105263156
4.617021276595745
9.32105263157895
-1.5079787234042552
8.344736842105263
-0.837765957446809
8.123684210526314
-2.7367021276595747
12.084210526315786
-1.0797872340425538
12.415789473684214
7.26063829787234
12.636842105263156
4.617021276595745
9.32105263157895
-1.5079787234042552
8.344736842105263
-0.837765957446809
8.123684210526314
-2.7739361702127665
12.084210526315786
-1.340425531914894
12.434210526315795
7.26063829787234
12.636842105263156
4.617021276595745
9.32105263157895
-1.5079787234042552
8.344736842105263
-0.837765957446809
8.123684210526314
-2.8856382978723403
12.065789473684205
-1.414893617021277
12.434210526315795
7.26063829787234
12.636842105263156
4.617021276595745
9.32105263157895
-1.5079787234042552
8.344736842105263
-0.837765957446809
8.123684210526314
-2.9414893617021276
12.02894736842105
-1.582446808510639
12.434210526315795
7.26063829787234
12.636842105263156
4.617021276595745
9.32105263157895
-1.5079787234042552
8.344736842105263
-0.837765957446809
8.123684210526314
-3.0904255319148937
11.973684210526315
-1.6941489361702127
12.434210526315795
7.26063829787234
12.636842105263156
4.617021276595745
9.32105263157895
-1.5079787234042552
8.344736842105263
-0.837765957446809
8.123684210526314
-3.146276595744681
11.955263157894734
-1.9734042553191493
12.397368421052626
7.26063829787234
12.636842105263156
4.617021276595745
9.32105263157895
-1.5079787234042552
8.344736842105263
-0.837765957446809
8.123684210526314
-3.2021276595744683
11.91842105263158
-2.085106382978724
12.37894736842106
7.26063829787234
12.636842105263156
4.617021276595745
9.32105263157895
-1.5079787234042552
8.344736842105263
-0.837765957446809
8.123684210526314
-3.3138297872340425
11.82631578947369
-2.252659574468085
12.37894736842106
7.26063829787234
12.636842105263156
4.617021276595745
9.32105263157895
-1.5079787234042552
8.344736842105263
-0.837765957446809
8.123684210526314
-3.36968085106383
11.789473684210527
-2.3085106382978724
12.37894736842106
7.26063829787234
12.636842105263156
4.617021276595745
9.32105263157895
-1.5079787234042552
8.344736842105263
-0.837765957446809
8.123684210526314
-3.518617021276596
11.60526315789474
-2.3457446808510642
12.37894736842106
7.26063829787234
12.636842105263156
4.617021276595745
9.32105263157895
-1.5079787234042552
8.344736842105263
-0.837765957446809
8.123684210526314
-3.6303191489361706
11.513157894736842
-2.3643617021276597
12.37894736842106
7.26063829787234
12.636842105263156
4.617021276595745
9.32105263157895
-1.5079787234042552
8.344736842105263
-0.837765957446809
8.123684210526314
-3.872340425531915
11.328947368421055
-2.3643617021276597
12.37894736842106
7.26063829787234
12.636842105263156
4.617021276595745
9.32105263157895
-1.5079787234042552
8.344736842105263
