45
12
-1.247340425531915
7.773684210526319
-4.747340425531915
6.7973684210526315
6.944148936170212
13.244736842105262
-5.845744680851064
12.747368421052634
-1.6196808510638299
8.842105263157897
3.704787234042552
10.057894736842101
-1.1356382978723403
7.902631578947371
-4.747340425531915
6.7973684210526315
6.944148936170212
13.244736842105262
-5.845744680851064
12.747368421052634
-1.6196808510638299
8.842105263157897
3.704787234042552
10.057894736842101
-0.9867021276595747
8.086842105263159
-4.747340425531915
6.7973684210526315
6.944148936170212
13.244736842105262
-5.845744680851064
12.747368421052634
-1.6196808510638299
8.842105263157897
3.704787234042552
10.057894736842101
-0.9122340425531918
8.178947368421056
-4.747340425531915
6.7973684210526315
6.944148936170212
13.244736842105262
-5.845744680851064
12.747368421052634
-1.6196808510638299
8.842105263157897
3.704787234042552
10.057894736842101
-0.875
8.234210526315792
-4.747340425531915
6.7973684210526315
6.944148936170212
13.244736842105262
-5.845744680851064
12.747368421052634
-1.6196808510638299
8.842105263157897
3.704787234042552
10.057894736842101
-0.8005319148936172
8.344736842105263
-4.747340425531915
6.7973684210526315
6.944148936170212
13.244736842105262
-5.845744680851064
12.747368421052634
-1.6196808510638299
8.842105263157897
3.704787234042552
10.057894736842101
-0.7632978723404262
8.363157894736844
-4.747340425531915
6.7973684210526315
6.944148936170212
13.244736842105262
-5.845744680851064
12.747368421052634
-1.6196808510638299
8.842105263157897
3.704787234042552
10.057894736842101
-0.7632978723404262
8.363157894736844
-4.85904255319149
6.834210526315786
6.944148936170212
13.244736842105262
-5.845744680851064
12.747368421052634
-1.6196808510638299
8.842105263157897
3.704787234042552
10.057894736842101
-0.7632978723404262
8.363157894736844
-4.914893617021277
6.871052631578948
6.944148936170212
13.244736842105262
-5.7712765957446805
12.58157894736842
-1.6196808510638299
8.842105263157897
3.704787234042552
10.057894736842101
-0.7632978723404262
8.363157894736844
-4.970744680851064
6.907894736842103
6.944148936170212
13.244736842105262
-5.696808510638298
12.489473684210523
-1.6196808510638299
8.842105263157897
3.704787234042552
10.057894736842101
-0.7632978723404262
8.363157894736844
-5.138297872340425
7.092105263157897
6.944148936170212
13.244736842105262
-5.529255319148936
12.213157894736845
-1.6196808510638299
8.842105263157897
3.704787234042552
10.057894736842101
-0.7632978723404262
8.363157894736844
-5.25
7.239473684210523
6.944148936170212
13.244736842105262
-5.4361702127659575
12.047368421052632
-1.6196808510638299
8.842105263157897
3.704787234042552
10.057894736842101
-0.7632978723404262
8.363157894736844
-5.473404255319149
7.571052631578951
6.944148936170212
13.244736842105262
-5.2686170212765955
11.568421052631578
-1.6196808510638299
8.842105263157897
3.704787234042552
10.057894736842101
-0.7632978723404262
8.363157894736844
-5.566489361702128
7.773684210526319
6.944148936170212
13.244736842105262
-5.194148936170213
11.310526315789474
-1.6196808510638299
8.842105263157897
3.704787234042552
10.057894736842101
-0.7632978723404262
8.363157894736844
-5.73404255319149
8.19736842105263
6.944148936170212
13.244736842105262
-5.101063829787234
10.757894736842104
-1.6196808510638299
8.842105263157897
3.704787234042552
10.057894736842101
-0.7632978723404262
8.363157894736844
-5.789893617021277
8.399999999999999
6.944148936170212
13.244736842105262
-5.045212765957447
10.481578947368419
-1.6196808510638299
8.842105263157897
3.704787234042552
10.057894736842101
-0.7632978723404262
8.363157894736844
-5.901595744680851
8.786842105263162
6.944148936170212
13.244736842105262
-4.970744680851064
9.873684210526314
-1.6196808510638299
8.842105263157897
3.704787234042552
10.057894736842101
-0.7632978723404262
8.363157894736844
-5.9388297872340425
8.952631578947368
6.944148936170212
13.244736842105262
-4.952127659574469
9.597368421052629
-1.6196808510638299
8.842105263157897
3.704787234042552
10.057894736842101
-0.7632978723404262
8.363157894736844
-5.99468085106383
9.284210526315789
6.944148936170212
13.244736842105262
-4.933510638297872
9.32105263157895
-1.6196808510638299
8.842105263157897
3.704787234042552
10.057894736842101
-0.7632978723404262
8.363157894736844
-6.013297872340425
9.413157894736841
6.944148936170212
13.244736842105262
-4.914893617021277
9.026315789473685
-1.6196808510638299
8.842105263157897
3.704787234042552
10.057894736842101
-0.7632978723404262
8.363157894736844
-6.031914893617021
9.542105263157893
6.944148936170212
13.244736842105262
-4.8962765957446805
8.584210526315786
-1.6196808510638299
8.842105263157897
3.704787234042552
10.057894736842101
-0.7632978723404262
8.363157894736844
-6.050531914893617
9.671052631578945
6.944148936170212
13.244736842105262
-4.8962765957446805
8.363157894736844
-1.6196808510638299
8.842105263157897
3.704787234042552
10.057894736842101
-0.7632978723404262
8.363157894736844
-6.050531914893617
9.85526315789474
6.944148936170212
13.244736842105262
-4.8962765957446805
8.160526315789475
-1.6196808510638299
8.842105263157897
3.704787234042552
10.057894736842101
-0.7632978723404262
8.363157894736844
-6.050531914893617
9.94736842105263
6.944148936170212
13.244736842105262
-4.8962765957446805
7.810526315789474
-1.6196808510638299
8.842105263157897
3.704787234042552
10.057894736842101
-0.7632978723404262
8.363157894736844
-6.013297872340425
10.021052631578947
6.944148936170212
13.244736842105262
-4.8962765957446805
7.681578947368422
-1.6196808510638299
8.842105263157897
3.704787234042552
10.057894736842101
-0.7632978723404262
8.363157894736844
-6.013297872340425
10.07631578947369
6.944148936170212
13.244736842105262
-4.877659574468085
7.571052631578951
-1.6196808510638299
8.842105263157897
3.704787234042552
10.057894736842101
-0.7632978723404262
8.363157894736844
-5.976063829787234
10.149999999999999
6.944148936170212
13.244736842105262
-4.840425531914894
7.497368421052634
-1.6196808510638299
8.842105263157897
3.704787234042552
10.057894736842101
-0.7632978723404262
8.363157894736844
-5.957446808510639
10.16842105263158
6.944148936170212
13.244736842105262
-4.840425531914894
7.497368421052634
-1.6196808510638299
8.842105263157897
3.704787234042552
10.057894736842101
-0.11170212765957466
8.160526315789475
-5.957446808510639
10.16842105263158
6.944148936170212
13.244736842105262
-4.840425531914894
7.497368421052634
-1.6196808510638299
8.842105263157897
3.704787234042552
10.057894736842101
-0.16755319148936199
8.050000000000004
-5.957446808510639
10.16842105263158
6.944148936170212
13.244736842105262
-4.840425531914894
7.497368421052634
-1.6196808510638299
8.842105263157897
3.704787234042552
10.057894736842101
-0.20478723404255383
7.957894736842107
-5.957446808510639
10.16842105263158
6.944148936170212
13.244736842105262
-4.840425531914894
7.497368421052634
-1.6196808510638299
8.842105263157897
3.704787234042552
10.057894736842101
-0.37234042553191493
7.773684210526319
-5.957446808510639
10.16842105263158
6.944148936170212
13.244736842105262
-4.840425531914894
7.497368421052634
-1.6196808510638299
8.842105263157897
3.704787234042552
10.057894736842101
-0.5212765957446814
7.663157894736841
-5.957446808510639
10.16842105263158
6.944148936170212
13.244736842105262
-4.840425531914894
7.497368421052634
-1.6196808510638299
8.842105263157897
3.704787234042552
10.057894736842101
-0.875
7.386842105263156
-5.957446808510639
10.16842105263158
6.944148936170212
13.244736842105262
-4.840425531914894
7.497368421052634
-1.6196808510638299
8.842105263157897
3.704787234042552
10.057894736842101
-1.0797872340425538
7.239473684210523
-5.957446808510639
10.16842105263158
6.944148936170212
13.244736842105262
-4.840425531914894
7.497368421052634
-1.6196808510638299
8.842105263157897
3.704787234042552
10.057894736842101
-1.545212765957447
6.963157894736838
-5.957446808510639
10.16842105263158
6.944148936170212
13.244736842105262
-4.840425531914894
7.497368421052634
-1.6196808510638299
8.842105263157897
3.704787234042552
10.057894736842101
-1.7686170212765964
6.852631578947374
-5.957446808510639
10.16842105263158
6.944148936170212
13.244736842105262
-4.840425531914894
7.497368421052634
-1.6196808510638299
8.842105263157897
3.704787234042552
10.057894736842101
-1.9920212765957448
6.760526315789477
-5.957446808510639
10.16842105263158
6.944148936170212
13.244736842105262
-4.840425531914894
7.497368421052634
-1.6196808510638299
8.842105263157897
3.704787234042552
10.057894736842101
-2.215425531914894
6.68684210526316
-5.957446808510639
10.16842105263158
6.944148936170212
13.244736842105262
-4.840425531914894
7.497368421052634
-1.6196808510638299
8.842105263157897
3.704787234042552
10.057894736842101
-2.662234042553192
6.576315789473689
-5.957446808510639
10.16842105263158
6.944148936170212
13.244736842105262
-4.840425531914894
7.497368421052634
-1.6196808510638299
8.842105263157897
3.704787234042552
10.057894736842101
-3.0531914893617023
6.521052631578954
-5.957446808510639
10.16842105263158
6.944148936170212
13.244736842105262
-4.840425531914894
7.497368421052634
-1.6196808510638299
8.842105263157897
3.704787234042552
10.057894736842101
-3.2393617021276597
6.521052631578954
-5.957446808510639
10.16842105263158
6.944148936170212
13.244736842105262
-4.840425531914894
7.497368421052634
-1.6196808510638299
8.842105263157897
3.704787234042552
10.057894736842101
-3.4069148936170213
6.521052631578954
-5.957446808510639
10.16842105263158
6.944148936170212
13.244736842105262
-4.840425531914894
7.497368421052634
-1.6196808510638299
8.842105263157897
3.704787234042552
10.057894736842101
-3.648936170212766
6.521052631578954
-5.957446808510639
10.16842105263158
6.944148936170212
13.244736842105262
-4.840425531914894
7.497368421052634
-1.6196808510638299
8.842105263157897
3.704787234042552
10.057894736842101
-3.648936170212766
6.521052631578954
-5.957446808510639
10.16842105263158
6.944148936170212
13.244736842105262
-5.417553191489362
7.534210526315789
-1.6196808510638299
8.842105263157897
3.704787234042552
10.057894736842101
