45
12
1.8430851063829792
3.8500000000000014
4.523936170212766
6.778947368421051
0.03723404255319096
8.639473684210529
-6.199468085106383
12.600000000000001
3.2393617021276597
11.973684210526315
-0.670212765957447
12.857894736842105
1.8430851063829792
3.8500000000000014
4.523936170212766
6.778947368421051
0.05585106382978733
8.307894736842101
-6.199468085106383
12.600000000000001
3.2393617021276597
11.973684210526315
-0.9308510638297873
12.839473684210525
1.8430851063829792
3.8500000000000014
4.523936170212766
6.778947368421051
0.07446808510638281
7.626315789473686
-6.199468085106383
12.600000000000001
3.2393617021276597
11.973684210526315
-1.1170212765957448
12.821052631578944
1.8430851063829792
3.8500000000000014
4.523936170212766
6.778947368421051
0.09308510638297829
7.3315789473684205
-6.199468085106383
12.600000000000001
3.2393617021276597
11.973684210526315
-1.414893617021277
12.80263157894737
1.8430851063829792
3.8500000000000014
4.523936170212766
6.778947368421051
0.11170212765957377
7.036842105263162
-6.199468085106383
12.600000000000001
3.2393617021276597
11.973684210526315
-1.5265957446808516
12.784210526315789
1.8430851063829792
3.8500000000000014
4.523936170212766
6.778947368421051
0.11170212765957377
6.778947368421051
-6.199468085106383
12.600000000000001
3.2393617021276597
11.973684210526315
-1.6196808510638299
12.784210526315789
1.8430851063829792
3.8500000000000014
4.523936170212766
6.778947368421051
0.14893617021276562
6.373684210526314
-6.199468085106383
12.600000000000001
3.2393617021276597
11.973684210526315
-1.8617021276595747
12.747368421052634
1.8430851063829792
3.8500000000000014
4.523936170212766
6.778947368421051
0.14893617021276562
6.1342105263157904
-6.199468085106383
12.600000000000001
3.2393617021276597
11.973684210526315
-1.9920212765957448
12.728947368421053
1.8430851063829792
3.8500000000000014
4.523936170212766
6.778947368421051
0.14893617021276562
5.950000000000003
-6.199468085106383
12.600000000000001
3.2393617021276597
11.973684210526315
-2.159574468085107
12.692105263157899
1.8430851063829792
3.8500000000000014
4.523936170212766
6.778947368421051
0.18617021276595747
5.710526315789473
-6.199468085106383
12.600000000000001
3.2393617021276597
11.973684210526315
-2.3643617021276597
12.618421052631575
1.8430851063829792
3.8500000000000014
4.523936170212766
6.778947368421051
0.22340425531914843
5.636842105263156
-6.199468085106383
12.600000000000001
3.2393617021276597
11.973684210526315
-2.420212765957447
12.58157894736842
1.8430851063829792
3.8500000000000014
4.523936170212766
6.778947368421051
0.2606382978723403
5.618421052631575
-6.199468085106383
12.600000000000001
3.2393617021276597
11.973684210526315
-2.457446808510639
12.56315789473684
6.460106382978722
6.226315789473681
4.523936170212766
6.778947368421051
0.2606382978723403
5.618421052631575
-6.199468085106383
12.600000000000001
3.2393617021276597
11.973684210526315
-2.457446808510639
12.56315789473684
6.422872340425531
6.207894736842107
4.523936170212766
6.778947368421051
0.2606382978723403
5.618421052631575
-6.199468085106383
12.600000000000001
3.2393617021276597
11.973684210526315
-2.457446808510639
12.56315789473684
6.38563829787234
6.189473684210526
4.523936170212766
6.778947368421051
0.2606382978723403
5.618421052631575
-6.199468085106383
12.600000000000001
3.2393617021276597
11.973684210526315
-2.457446808510639
12.56315789473684
6.311170212765957
6.171052631578945
4.523936170212766
6.778947368421051
0.2606382978723403
5.618421052631575
-6.199468085106383
12.600000000000001
3.2393617021276597
11.973684210526315
-2.457446808510639
12.56315789473684
5.976063829787233
6.023684210526319
4.523936170212766
6.778947368421051
0.2606382978723403
5.618421052631575
-6.199468085106383
12.600000000000001
3.2393617021276597
11.973684210526315
-2.457446808510639
12.56315789473684
5.73404255319149
5.968421052631584
4.523936170212766
6.778947368421051
0.2606382978723403
5.618421052631575
-6.199468085106383
12.600000000000001
3.2393617021276597
11.973684210526315
-2.457446808510639
12.56315789473684
5.212765957446807
5.821052631578951
4.523936170212766
6.778947368421051
0.2606382978723403
5.618421052631575
-6.199468085106383
12.600000000000001
3.2393617021276597
11.973684210526315
-2.457446808510639
12.56315789473684
4.877659574468085
5.7289473684210535
4.523936170212766
6.778947368421051
0.2606382978723403
5.618421052631575
-6.199468085106383
12.600000000000001
3.2393617021276597
11.973684210526315
-2.457446808510639
12.56315789473684
4.617021276595745
5.636842105263156
4.523936170212766
6.778947368421051
0.2606382978723403
5.618421052631575
-6.199468085106383
12.600000000000001
3.2393617021276597
11.973684210526315
-2.457446808510639
12.56315789473684
3.9840425531914896
5.434210526315788
4.523936170212766
6.778947368421051
0.2606382978723403
5.618421052631575
-6.199468085106383
12.600000000000001
3.2393617021276597
11.973684210526315
-2.457446808510639
12.56315789473684
3.742021276595745
5.378947368421052
4.523936170212766
6.778947368421051
0.2606382978723403
5.618421052631575
-6.199468085106383
12.600000000000001
3.2393617021276597
11.973684210526315
-2.457446808510639
12.56315789473684
3.202127659574467
5.268421052631581
4.523936170212766
6.778947368421051
0.2606382978723403
5.618421052631575
-6.199468085106383
12.600000000000001
3.2393617021276597
11.973684210526315
-2.457446808510639
12.56315789473684
2.9414893617021267
5.268421052631581
4.523936170212766
6.778947368421051
0.2606382978723403
5.618421052631575
-6.199468085106383
12.600000000000001
3.2393617021276597
11.973684210526315
-2.457446808510639
12.56315789473684
2.4388297872340416
5.1763157894736835
4.523936170212766
6.778947368421051
0.2606382978723403
5.618421052631575
-6.199468085106383
12.600000000000001
3.2393617021276597
11.973684210526315
-2.457446808510639
12.56315789473684
2.2154255319148923
5.1763157894736835
4.523936170212766
6.778947368421051
0.2606382978723403
5.618421052631575
-6.199468085106383
12.600000000000001
3.2393617021276597
11.973684210526315
-2.457446808510639
12.56315789473684
2.0292553191489358
5.231578947368419
4.523936170212766
6.778947368421051
0.2606382978723403
5.618421052631575
-6.199468085106383
12.600000000000001
3.2393617021276597
11.973684210526315
-2.457446808510639
12.56315789473684
1.6941489361702118
5.1763157894736835
4.523936170212766
6.778947368421051
0.2606382978723403
5.618421052631575
-6.199468085106383
12.600000000000001
3.2393617021276597
11.973684210526315
-2.457446808510639
12.56315789473684
1.5265957446808507
5.157894736842103
4.523936170212766
6.778947368421051
0.2606382978723403
5.618421052631575
-6.199468085106383
12.600000000000001
3.2393617021276597
11.973684210526315
-2.457446808510639
12.56315789473684
1.3404255319148923
5.157894736842103
4.523936170212766
6.778947368421051
0.2606382978723403
5.618421052631575
-6.199468085106383
12.600000000000001
3.2393617021276597
11.973684210526315
-2.457446808510639
12.56315789473684
1.3404255319148923
5.157894736842103
5.194148936170212
7.018421052631581
0.2606382978723403
5.618421052631575
-6.199468085106383
12.600000000000001
3.2393617021276597
11.973684210526315
-2.457446808510639
12.56315789473684
1.3404255319148923
5.157894736842103
5.492021276595745
7.350000000000001
0.2606382978723403
5.618421052631575
-6.199468085106383
12.600000000000001
3.2393617021276597
11.973684210526315
-2.457446808510639
12.56315789473684
1.3404255319148923
5.157894736842103
5.659574468085106
7.589473684210525
0.2606382978723403
5.618421052631575
-6.199468085106383
12.600000000000001
3.2393617021276597
11.973684210526315
-2.457446808510639
12.56315789473684
1.3404255319148923
5.157894736842103
5.957446808510637
8.160526315789475
0.2606382978723403
5.618421052631575
-6.199468085106383
12.600000000000001
3.2393617021276597
11.973684210526315
-2.457446808510639
12.56315789473684
1.3404255319148923
5.157894736842103
6.180851063829786
8.547368421052632
0.2606382978723403
5.618421052631575
-6.199468085106383
12.600000000000001
3.2393617021276597
11.973684210526315
-2.457446808510639
12.56315789473684
1.3404255319148923
5.157894736842103
6.534574468085106
9.39473684210526
0.2606382978723403
5.618421052631575
-6.199468085106383
12.600000000000001
3.2393617021276597
11.973684210526315
-2.457446808510639
12.56315789473684
1.3404255319148923
5.157894736842103
6.6462765957446805
9.836842105263159
0.2606382978723403
5.618421052631575
-6.199468085106383
12.600000000000001
3.2393617021276597
11.973684210526315
-2.457446808510639
12.56315789473684
1.3404255319148923
5.157894736842103
6.776595744680851
10.555263157894736
0.2606382978723403
5.618421052631575
-6.199468085106383
12.600000000000001
3.2393617021276597
11.973684210526315
-2.457446808510639
12.56315789473684
1.3404255319148923
5.157894736842103
6.813829787234042
10.905263157894737
0.2606382978723403
5.618421052631575
-6.199468085106383
12.600000000000001
3.2393617021276597
11.973684210526315
-2.457446808510639
12.56315789473684
1.3404255319148923
5.157894736842103
6.832446808510637
11.218421052631584
0.2606382978723403
5.618421052631575
-6.199468085106383
12.600000000000001
3.2393617021276597
11.973684210526315
-2.457446808510639
12.56315789473684
1.3404255319148923
5.157894736842103
6.86968085106383
11.715789473684211
0.2606382978723403
5.618421052631575
-6.199468085106383
12.600000000000001
3.2393617021276597
11.973684210526315
-2.457446808510639
12.56315789473684
1.3404255319148923
5.157894736842103
6.851063829787233
11.955263157894734
0.2606382978723403
5.618421052631575
-6.199468085106383
12.600000000000001
3.2393617021276597
11.973684210526315
-2.457446808510639
12.56315789473684
1.3404255319148923
5.157894736842103
6.832446808510637
12.15789473684211
0.2606382978723403
5.618421052631575
-6.199468085106383
12.600000000000001
3.2393617021276597
11.973684210526315
-2.457446808510639
12.56315789473684
1.3404255319148923
5.157894736842103
6.86968085106383
12.47105263157895
0.2606382978723403
5.618421052631575
-6.199468085106383
12.600000000000001
3.2393617021276597
11.973684210526315
-2.457446808510639
12.56315789473684
