45
12
7.502659574468085
8.142105263157895
1.3031914893617014
6.078947368421055
-5.082446808510639
9.94736842105263
4.98936170212766
7.460526315789473
-2.8111702127659575
11.255263157894738
3.742021276595745
10.684210526315795
7.502659574468085
8.142105263157895
1.2659574468085104
6.465789473684211
-5.082446808510639
9.94736842105263
4.877659574468085
7.350000000000001
-2.8111702127659575
11.255263157894738
3.835106382978722
10.426315789473684
7.502659574468085
8.142105263157895
1.2659574468085104
6.6684210526315795
-5.082446808510639
9.94736842105263
4.691489361702127
7.2026315789473685
-2.8111702127659575
11.255263157894738
4.039893617021276
9.94736842105263
7.502659574468085
8.142105263157895
1.2287234042553195
6.907894736842103
-5.082446808510639
9.94736842105263
4.617021276595745
7.147368421052633
-2.8111702127659575
11.255263157894738
4.11436170212766
9.72631578947368
7.502659574468085
8.142105263157895
1.1728723404255312
7.368421052631575
-5.082446808510639
9.94736842105263
4.579787234042552
7.147368421052633
-2.8111702127659575
11.255263157894738
4.263297872340425
9.32105263157895
7.502659574468085
8.142105263157895
1.1356382978723403
7.626315789473686
-5.082446808510639
9.94736842105263
4.579787234042552
7.147368421052633
-2.8111702127659575
11.255263157894738
4.319148936170212
9.155263157894737
7.502659574468085
8.142105263157895
1.0611702127659566
8.10526315789474
-5.082446808510639
9.94736842105263
4.579787234042552
7.147368421052633
-2.8111702127659575
11.255263157894738
4.375
9.026315789473685
7.502659574468085
8.142105263157895
1.042553191489361
8.289473684210527
-5.082446808510639
9.94736842105263
4.579787234042552
7.147368421052633
-2.8111702127659575
11.255263157894738
4.449468085106382
8.823684210526316
7.502659574468085
8.142105263157895
1.0053191489361701
8.455263157894734
-5.082446808510639
9.94736842105263
4.579787234042552
7.147368421052633
-2.8111702127659575
11.255263157894738
4.468085106382977
8.731578947368419
7.502659574468085
8.142105263157895
0.9494680851063828
8.786842105263162
-5.082446808510639
9.94736842105263
4.579787234042552
7.147368421052633
-2.8111702127659575
11.255263157894738
4.50531914893617
8.657894736842103
7.502659574468085
8.142105263157895
0.9308510638297864
8.934210526315788
-5.082446808510639
9.94736842105263
4.579787234042552
7.147368421052633
-2.8111702127659575
11.255263157894738
4.561170212765957
8.547368421052632
7.502659574468085
8.142105263157895
0.9308510638297864
9.08157894736842
-5.082446808510639
9.94736842105263
4.579787234042552
7.147368421052633
-2.8111702127659575
11.255263157894738
4.561170212765957
8.547368421052632
7.502659574468085
8.142105263157895
0.875
9.339473684210525
-5.082446808510639
9.94736842105263
4.579787234042552
7.147368421052633
-2.8111702127659575
11.255263157894738
4.561170212765957
8.547368421052632
7.502659574468085
8.142105263157895
0.8563829787234036
9.449999999999996
-5.082446808510639
9.94736842105263
4.579787234042552
7.147368421052633
-2.8111702127659575
11.255263157894738
4.561170212765957
8.547368421052632
7.502659574468085
8.142105263157895
0.8191489361702127
9.578947368421055
-5.082446808510639
9.94736842105263
4.579787234042552
7.147368421052633
-2.8111702127659575
11.255263157894738
4.561170212765957
8.547368421052632
7.502659574468085
8.142105263157895
0.7632978723404253
9.85526315789474
-5.082446808510639
9.94736842105263
4.579787234042552
7.147368421052633
-2.8111702127659575
11.255263157894738
4.561170212765957
8.547368421052632
7.502659574468085
8.142105263157895
0.7260638297872335
9.984210526315792
-5.082446808510639
9.94736842105263
4.579787234042552
7.147368421052633
-2.8111702127659575
11.255263157894738
4.561170212765957
8.547368421052632
7.502659574468085
8.142105263157895
0.6888297872340425
10.223684210526315
-5.082446808510639
9.94736842105263
4.579787234042552
7.147368421052633
-2.8111702127659575
11.255263157894738
4.561170212765957
8.547368421052632
7.502659574468085
8.142105263157895
0.6702127659574462
10.334210526315786
-5.082446808510639
9.94736842105263
4.579787234042552
7.147368421052633
-2.8111702127659575
11.255263157894738
4.561170212765957
8.547368421052632
7.502659574468085
8.142105263157895
0.6515957446808507
10.444736842105264
-5.082446808510639
9.94736842105263
4.579787234042552
7.147368421052633
-2.8111702127659575
11.255263157894738
4.561170212765957
8.547368421052632
7.502659574468085
8.142105263157895
0.6329787234042552
10.647368421052633
-5.082446808510639
9.94736842105263
4.579787234042552
7.147368421052633
-2.8111702127659575
11.255263157894738
4.561170212765957
8.547368421052632
7.502659574468085
8.142105263157895
0.6143617021276588
10.757894736842104
-5.082446808510639
9.94736842105263
4.579787234042552
7.147368421052633
-2.8111702127659575
11.255263157894738
4.561170212765957
8.547368421052632
7.502659574468085
8.142105263157895
0.5957446808510634
10.850000000000001
-5.082446808510639
9.94736842105263
4.579787234042552
7.147368421052633
-2.8111702127659575
11.255263157894738
4.561170212765957
8.547368421052632
7.502659574468085
8.142105263157895
0.5771276595744679
10.997368421052634
-5.082446808510639
9.94736842105263
4.579787234042552
7.147368421052633
-2.8111702127659575
11.255263157894738
4.561170212765957
8.547368421052632
7.502659574468085
8.142105263157895
0.5771276595744679
11.034210526315789
-5.082446808510639
9.94736842105263
4.579787234042552
7.147368421052633
-2.8111702127659575
11.255263157894738
4.561170212765957
8.547368421052632
7.502659574468085
8.142105263157895
0.5771276595744679
11.05263157894737
-5.082446808510639
9.94736842105263
4.579787234042552
7.147368421052633
-2.8111702127659575
11.255263157894738
4.561170212765957
8.547368421052632
7.502659574468085
8.142105263157895
0.5771276595744679
11.05263157894737
-5.082446808510639
9.94736842105263
4.579787234042552
7.147368421052633
-2.8111702127659575
11.255263157894738
4.561170212765957
8.547368421052632
7.502659574468085
8.142105263157895
0.44680851063829774
11.199999999999996
-5.082446808510639
9.94736842105263
4.579787234042552
7.147368421052633
-2.8111702127659575
11.255263157894738
4.561170212765957
8.547368421052632
7.502659574468085
8.142105263157895
0.4095744680851059
11.218421052631584
-5.082446808510639
9.94736842105263
4.579787234042552
7.147368421052633
-2.8111702127659575
11.255263157894738
4.561170212765957
8.547368421052632
7.502659574468085
8.142105263157895
0.35372340425531856
11.236842105263158
-5.082446808510639
9.94736842105263
4.579787234042552
7.147368421052633
-2.8111702127659575
11.255263157894738
4.561170212765957
8.547368421052632
7.502659574468085
8.142105263157895
0.14893617021276562
11.292105263157893
-5.082446808510639
9.94736842105263
4.579787234042552
7.147368421052633
-2.8111702127659575
11.255263157894738
4.561170212765957
8.547368421052632
7.502659574468085
8.142105263157895
0.03723404255319096
11.310526315789474
-5.082446808510639
9.94736842105263
4.579787234042552
7.147368421052633
-2.8111702127659575
11.255263157894738
4.561170212765957
8.547368421052632
7.502659574468085
8.142105263157895
-0.18617021276595747
11.402631578947371
-5.082446808510639
9.94736842105263
4.579787234042552
7.147368421052633
-2.8111702127659575
11.255263157894738
4.561170212765957
8.547368421052632
7.502659574468085
8.142105263157895
-0.3164893617021276
11.439473684210526
-5.082446808510639
9.94736842105263
4.579787234042552
7.147368421052633
-2.8111702127659575
11.255263157894738
4.561170212765957
8.547368421052632
7.502659574468085
8.142105263157895
-0.6515957446808516
11.568421052631578
-5.082446808510639
9.94736842105263
4.579787234042552
7.147368421052633
-2.8111702127659575
11.255263157894738
4.561170212765957
8.547368421052632
7.502659574468085
8.142105263157895
-0.837765957446809
11.642105263157895
-5.082446808510639
9.94736842105263
4.579787234042552
7.147368421052633
-2.8111702127659575
11.255263157894738
4.561170212765957
8.547368421052632
7.502659574468085
8.142105263157895
-1.2287234042553195
11.807894736842101
-5.082446808510639
9.94736842105263
4.579787234042552
7.147368421052633
-2.8111702127659575
11.255263157894738
4.561170212765957
8.547368421052632
7.502659574468085
8.142105263157895
-1.4521276595744688
11.899999999999999
-5.082446808510639
9.94736842105263
4.579787234042552
7.147368421052633
-2.8111702127659575
11.255263157894738
4.561170212765957
8.547368421052632
7.502659574468085
8.142105263157895
-1.8058510638297873
12.084210526315786
-5.082446808510639
9.94736842105263
4.579787234042552
7.147368421052633
-2.8111702127659575
11.255263157894738
4.561170212765957
8.547368421052632
7.502659574468085
8.142105263157895
-1.9734042553191493
12.15789473684211
-5.082446808510639
9.94736842105263
4.579787234042552
7.147368421052633
-2.8111702127659575
11.255263157894738
4.561170212765957
8.547368421052632
7.502659574468085
8.142105263157895
-2.3643617021276597
12.323684210526316
-5.082446808510639
9.94736842105263
4.579787234042552
7.147368421052633
-2.8111702127659575
11.255263157894738
4.561170212765957
8.547368421052632
7.502659574468085
8.142105263157895
-2.5319148936170217
12.397368421052626
-5.082446808510639
9.94736842105263
4.579787234042552
7.147368421052633
-2.8111702127659575
11.255263157894738
4.561170212765957
8.547368421052632
7.502659574468085
8.142105263157895
-2.867021276595745
12.526315789473685
-5.082446808510639
9.94736842105263
4.579787234042552
7.147368421052633
-2.8111702127659575
11.255263157894738
4.561170212765957
8.547368421052632
7.502659574468085
8.142105263157895
-3.034574468085107
12.58157894736842
-5.082446808510639
9.94736842105263
4.579787234042552
7.147368421052633
-2.8111702127659575
11.255263157894738
4.561170212765957
8.547368421052632
7.502659574468085
8.142105263157895
-3.36968085106383
12.67368421052631
-5.082446808510639
9.94736842105263
4.579787234042552
7.147368421052633
-2.8111702127659575
11.255263157894738
4.561170212765957
8.547368421052632
