85
12
-0.35372340425531945
6.042105263157893
-2.3643617021276597
6.907894736842103
4.002659574468085
12.636842105263156
-3.648936170212766
12.526315789473685
2.5505319148936163
10.444736842105264
4.375
9.265789473684208
-0.35372340425531945
6.042105263157893
-2.3643617021276597
6.907894736842103
4.002659574468085
12.636842105263156
-3.648936170212766
12.526315789473685
2.5505319148936163
10.444736842105264
4.375
9.265789473684208
-0.35372340425531945
6.042105263157893
-2.3643617021276597
6.907894736842103
4.002659574468085
12.636842105263156
-3.537234042553192
12.636842105263156
2.5505319148936163
10.444736842105264
4.375
9.265789473684208
-0.35372340425531945
6.042105263157893
-2.3643617021276597
6.907894736842103
4.077127659574467
12.434210526315795
-3.388297872340426
12.67368421052631
2.5505319148936163
10.444736842105264
4.375
9.265789473684208
-0.35372340425531945
6.042105263157893
-2.3643617021276597
6.907894736842103
4.151595744680851
12.102631578947374
-3.220744680851064
12.710526315789473
2.5505319148936163
10.444736842105264
4.375
9.265789473684208
-0.35372340425531945
6.042105263157893
-2.3643617021276597
6.907894736842103
4.170212765957446
11.69736842105263
-3.015957446808511
12.747368421052634
2.5505319148936163
10.444736842105264
4.375
9.265789473684208
-0.35372340425531945
6.042105263157893
-2.3643617021276597
6.907894736842103
4.170212765957446
11.494736842105262
-2.49468085106383
12.80263157894737
2.5505319148936163
10.444736842105264
4.375
9.265789473684208
-0.35372340425531945
6.042105263157893
-2.3643617021276597
6.907894736842103
4.132978723404255
11.27368421052632
-2.215425531914894
12.839473684210525
2.5505319148936163
10.444736842105264
4.375
9.265789473684208
-0.35372340425531945
6.042105263157893
-2.3643617021276597
6.907894736842103
4.0212765957446805
10.868421052631575
-1.6010638297872344
12.839473684210525
2.5505319148936163
10.444736842105264
4.375
9.265789473684208
-0.35372340425531945
6.042105263157893
-2.3643617021276597
6.907894736842103
3.9281914893617014
10.684210526315795
-0.9680851063829792
12.857894736842105
2.5505319148936163
10.444736842105264
4.375
9.265789473684208
-0.35372340425531945
6.042105263157893
-2.3643617021276597
6.907894736842103
3.8537234042553195
10.518421052631581
-0.33510638297872397
12.876315789473686
2.5505319148936163
10.444736842105264
4.375
9.265789473684208
-0.35372340425531945
6.042105263157893
-2.3643617021276597
6.907894736842103
3.6861702127659566
10.223684210526315
0.0
12.89473684210526
2.5505319148936163
10.444736842105264
4.375
9.265789473684208
-0.35372340425531945
6.042105263157893
-2.3643617021276597
6.907894736842103
3.5930851063829774
10.094736842105263
0.6515957446808507
12.913157894736841
2.5505319148936163
10.444736842105264
4.375
9.265789473684208
-0.35372340425531945
6.042105263157893
-2.3643617021276597
6.907894736842103
3.5
9.94736842105263
0.9494680851063828
12.913157894736841
2.5505319148936163
10.444736842105264
4.375
9.265789473684208
-0.35372340425531945
6.042105263157893
-2.3643617021276597
6.907894736842103
3.2393617021276597
9.72631578947368
1.5638297872340416
12.913157894736841
2.5505319148936163
10.444736842105264
4.375
9.265789473684208
-0.35372340425531945
6.042105263157893
-2.3643617021276597
6.907894736842103
3.1090425531914896
9.61578947368421
2.159574468085106
12.857894736842105
2.5505319148936163
10.444736842105264
4.375
9.265789473684208
-0.35372340425531945
6.042105263157893
-2.3643617021276597
6.907894736842103
2.9042553191489358
9.449999999999996
2.7367021276595747
12.857894736842105
2.5505319148936163
10.444736842105264
4.375
9.265789473684208
-0.35372340425531945
6.042105263157893
-2.3643617021276597
6.907894736842103
2.7739361702127656
9.376315789473686
3.034574468085106
12.857894736842105
2.5505319148936163
10.444736842105264
4.375
9.265789473684208
-0.35372340425531945
6.042105263157893
-2.3643617021276597
6.907894736842103
2.625
9.30263157894737
3.63031914893617
12.857894736842105
2.5505319148936163
10.444736842105264
4.375
9.265789473684208
-0.35372340425531945
6.042105263157893
-2.3643617021276597
6.907894736842103
2.327127659574467
9.17368421052631
3.946808510638297
12.839473684210525
2.5505319148936163
10.444736842105264
4.375
9.265789473684208
-0.35372340425531945
6.042105263157893
-2.3643617021276597
6.907894736842103
2.196808510638297
9.136842105263156
4.561170212765957
12.821052631578944
2.5505319148936163
10.444736842105264
4.375
9.265789473684208
-0.35372340425531945
6.042105263157893
-2.3643617021276597
6.907894736842103
2.0664893617021267
9.100000000000001
5.101063829787233
12.80263157894737
2.5505319148936163
10.444736842105264
4.375
9.265789473684208
-0.35372340425531945
6.042105263157893
-2.3643617021276597
6.907894736842103
1.8058510638297864
9.08157894736842
5.622340425531915
12.784210526315789
2.5505319148936163
10.444736842105264
4.375
9.265789473684208
-0.35372340425531945
6.042105263157893
-2.3643617021276597
6.907894736842103
1.6382978723404253
9.100000000000001
5.8085106382978715
12.784210526315789
2.5505319148936163
10.444736842105264
4.375
9.265789473684208
-0.35372340425531945
6.042105263157893
-2.3643617021276597
6.907894736842103
1.377659574468085
9.228947368421053
6.1436170212765955
12.765789473684208
2.5505319148936163
10.444736842105264
4.375
9.265789473684208
-0.35372340425531945
6.042105263157893
-2.3643617021276597
6.907894736842103
1.247340425531915
9.32105263157895
6.292553191489361
12.747368421052634
2.5505319148936163
10.444736842105264
4.375
9.265789473684208
-0.35372340425531945
6.042105263157893
-2.3643617021276597
6.907894736842103
1.0611702127659566
9.560526315789474
6.590425531914892
12.710526315789473
2.5505319148936163
10.444736842105264
4.375
9.265789473684208
-0.35372340425531945
6.042105263157893
-2.3643617021276597
6.907894736842103
0.9680851063829783
9.763157894736842
6.702127659574467
12.67368421052631
2.5505319148936163
10.444736842105264
4.375
9.265789473684208
-0.35372340425531945
6.042105263157893
-2.3643617021276597
6.907894736842103
0.875
10.205263157894741
6.86968085106383
12.58157894736842
2.5505319148936163
10.444736842105264
4.375
9.265789473684208
-0.35372340425531945
6.042105263157893
-2.3643617021276597
6.907894736842103
0.875
10.444736842105264
6.981382978723403
12.47105263157895
2.5505319148936163
10.444736842105264
4.375
9.265789473684208
-0.35372340425531945
6.042105263157893
-2.3643617021276597
6.907894736842103
0.912234042553191
10.868421052631575
7.037234042553191
12.397368421052626
2.5505319148936163
10.444736842105264
4.375
9.265789473684208
-0.35372340425531945
6.042105263157893
-2.3643617021276597
6.907894736842103
1.0611702127659566
11.27368421052632
7.093085106382977
12.231578947368419
2.5505319148936163
10.444736842105264
4.375
9.265789473684208
-0.35372340425531945
6.042105263157893
-2.3643617021276597
6.907894736842103
1.3031914893617014
11.623684210526314
7.111702127659575
12.102631578947374
2.5505319148936163
10.444736842105264
4.375
9.265789473684208
-0.35372340425531945
6.042105263157893
-2.3643617021276597
6.907894736842103
1.414893617021276
11.789473684210527
7.111702127659575
11.955263157894734
2.5505319148936163
10.444736842105264
4.375
9.265789473684208
-0.35372340425531945
6.042105263157893
-2.3643617021276597
6.907894736842103
1.5452127659574462
11.91842105263158
7.074468085106382
11.60526315789474
2.5505319148936163
10.444736842105264
4.375
9.265789473684208
-0.35372340425531945
6.042105263157893
-2.3643617021276597
6.907894736842103
1.7686170212765955
12.176315789473684
7.037234042553191
11.255263157894738
2.5505319148936163
10.444736842105264
4.375
9.265789473684208
-0.35372340425531945
6.042105263157893
-2.3643617021276597
6.907894736842103
1.8989361702127656
12.305263157894736
6.981382978723403
11.034210526315789
2.5505319148936163
10.444736842105264
4.375
9.265789473684208
-0.35372340425531945
6.042105263157893
-2.3643617021276597
6.907894736842103
2.159574468085106
12.526315789473685
6.906914893617021
10.647368421052633
2.5505319148936163
10.444736842105264
4.375
9.265789473684208
-0.35372340425531945
6.042105263157893
-2.3643617021276597
6.907894736842103
2.2712765957446805
12.600000000000001
6.851063829787233
10.444736842105264
2.5505319148936163
10.444736842105264
4.375
9.265789473684208
-0.35372340425531945
6.042105263157893
-2.3643617021276597
6.907894736842103
2.3643617021276597
12.67368421052631
6.776595744680851
10.242105263157896
2.5505319148936163
10.444736842105264
4.375
9.265789473684208
-0.35372340425531945
6.042105263157893
-2.3643617021276597
6.907894736842103
2.5505319148936163
12.80263157894737
6.664893617021276
9.892105263157895
2.5505319148936163
10.444736842105264
4.375
9.265789473684208
-0.35372340425531945
6.042105263157893
-2.3643617021276597
6.907894736842103
2.625
12.839473684210525
6.590425531914892
9.744736842105269
2.5505319148936163
10.444736842105264
4.375
9.265789473684208
-0.35372340425531945
6.042105263157893
-2.3643617021276597
6.907894736842103
2.75531914893617
12.89473684210526
6.441489361702127
9.431578947368422
2.5505319148936163
10.444736842105264
4.375
9.265789473684208
-0.35372340425531945
6.042105263157893
-2.3643617021276597
6.907894736842103
2.792553191489361
12.89473684210526
6.367021276595745
9.32105263157895
2.5505319148936163
10.444736842105264
4.375
9.265789473684208
-0.35372340425531945
6.042105263157893
-2.3643617021276597
6.907894736842103
2.792553191489361
12.89473684210526
6.236702127659575
9.08157894736842
2.5505319148936163
10.444736842105264
4.375
9.265789473684208
-0.35372340425531945
6.042105263157893
-2.3643617021276597
6.907894736842103
2.792553191489361
12.89473684210526
6.199468085106382
9.026315789473685
2.5505319148936163
10.444736842105264
4.375
9.265789473684208
-0.35372340425531945
6.042105263157893
-2.3643617021276597
6.907894736842103
2.792553191489361
12.89473684210526
6.125
8.934210526315788
2.5505319148936163
10.444736842105264
4.375
9.265789473684208
-0.35372340425531945
6.042105263157893
-2.3643617021276597
6.907894736842103
2.792553191489361
12.89473684210526
6.236702127659575
9.118421052631575
2.49468085106383
10.5
4.710106382978722
9.413157894736841
-0.35372340425531945
6.042105263157893
-2.3643617021276597
6.907894736842103
2.9787234042553195
12.839473684210525
6.292553191489361
9.247368421052634
2.3643617021276597
10.573684210526316
4.747340425531915
9.560526315789474
-0.35372340425531945
6.042105263157893
-2.3643617021276597
6.907894736842103
3.127659574468085
12.80263157894737
6.367021276595745
9.376315789473686
2.2712765957446805
10.62894736842106
4.76595744680851
9.744736842105269
-0.35372340425531945
6.042105263157893
-2.3643617021276597
6.907894736842103
3.4255319148936163
12.728947368421053
6.460106382978722
9.560526315789474
2.0478723404255312
10.72105263157895
4.803191489361701
9.892105263157895
-0.35372340425531945
6.042105263157893
-2.3643617021276597
6.907894736842103
3.63031914893617
12.710526315789473
6.702127659574467
9.984210526315792
1.8617021276595747
10.794736842105266
4.840425531914892
10.07631578947369
-0.35372340425531945
6.042105263157893
-2.3643617021276597
6.907894736842103
3.8537234042553195
12.67368421052631
6.832446808510637
10.242105263157896
1.414893617021276
10.978947368421053
4.85904255319149
10.260526315789477
-0.35372340425531945
6.042105263157893
-2.3643617021276597
6.907894736842103
4.300531914893616
12.56315789473684
7.0
10.739473684210523
1.1356382978723403
11.089473684210525
4.914893617021276
10.610526315789471
-0.35372340425531945
6.042105263157893
-2.3643617021276597
6.907894736842103
4.523936170212766
12.507894736842104
7.037234042553191
10.942105263157899
0.5026595744680851
11.292105263157893
4.9335106382978715
10.794736842105266
-0.35372340425531945
6.042105263157893
-2.3643617021276597
6.907894736842103
4.914893617021276
12.323684210526316
7.111702127659575
11.347368421052629
0.13031914893617014
11.38421052631579
5.007978723404255
11.181578947368422
-0.35372340425531945
6.042105263157893
-2.3643617021276597
6.907894736842103
5.063829787234042
12.213157894736845
7.13031914893617
11.531578947368416
-0.5957446808510642
11.494736842105262
5.045212765957446
11.347368421052629
-0.35372340425531945
6.042105263157893
-2.3643617021276597
6.907894736842103
5.361702127659575
11.955263157894734
7.148936170212766
11.678947368421056
-0.9308510638297873
11.550000000000004
5.082446808510637
11.494736842105262
-0.35372340425531945
6.042105263157893
-2.3643617021276597
6.907894736842103
5.622340425531915
11.69736842105263
7.167553191489361
12.010526315789477
-1.5638297872340425
11.623684210526314
5.138297872340425
11.69736842105263
-0.35372340425531945
6.042105263157893
-2.3643617021276597
6.907894736842103
5.73404255319149
11.568421052631578
7.186170212765957
12.15789473684211
-2.0664893617021276
11.69736842105263
5.156914893617021
11.771052631578947
-0.35372340425531945
6.042105263157893
-2.3643617021276597
6.907894736842103
5.920212765957446
11.236842105263158
7.186170212765957
12.286842105263155
-2.4015957446808516
11.715789473684211
5.194148936170212
11.881578947368425
-0.35372340425531945
6.042105263157893
-2.3643617021276597
6.907894736842103
5.99468085106383
11.071052631578944
7.148936170212766
12.544736842105266
-2.5132978723404253
11.734210526315792
5.212765957446807
11.899999999999999
-0.35372340425531945
6.042105263157893
-2.3643617021276597
6.907894736842103
6.050531914893616
10.92368421052631
7.111702127659575
12.636842105263156
-2.6436170212765964
11.678947368421056
5.212765957446807
11.899999999999999
-0.35372340425531945
6.042105263157893
-2.3643617021276597
6.907894736842103
6.125
10.555263157894736
7.093085106382977
12.710526315789473
-2.6436170212765964
11.678947368421056
5.212765957446807
11.899999999999999
-0.35372340425531945
6.042105263157893
-2.3643617021276597
6.907894736842103
6.1436170212765955
10.40789473684211
7.074468085106382
12.784210526315789
-2.6436170212765964
11.678947368421056
5.212765957446807
11.899999999999999
-0.35372340425531945
6.042105263157893
-2.3643617021276597
6.907894736842103
6.162234042553191
10.223684210526315
7.074468085106382
12.784210526315789
-2.6436170212765964
11.678947368421056
5.212765957446807
11.899999999999999
-0.35372340425531945
6.042105263157893
-2.3643617021276597
6.907894736842103
6.180851063829786
9.818421052631578
7.074468085106382
12.784210526315789
-2.6436170212765964
11.678947368421056
5.212765957446807
11.899999999999999
-0.35372340425531945
6.042105263157893
-2.3643617021276597
6.907894736842103
6.180851063829786
9.63421052631579
7.074468085106382
12.784210526315789
-2.6436170212765964
11.678947368421056
5.212765957446807
11.899999999999999
-0.35372340425531945
6.042105263157893
-2.3643617021276597
6.907894736842103
6.162234042553191
9.431578947368422
7.074468085106382
12.784210526315789
-2.6436170212765964
11.678947368421056
5.212765957446807
11.899999999999999
-0.35372340425531945
6.042105263157893
-2.3643617021276597
6.907894736842103
6.1436170212765955
9.044736842105266
7.074468085106382
12.784210526315789
-2.6436170212765964
11.678947368421056
5.212765957446807
11.899999999999999
-0.35372340425531945
6.042105263157893
-2.3643617021276597
6.907894736842103
6.106382978723403
8.860526315789471
7.074468085106382
12.784210526315789
-2.6436170212765964
11.678947368421056
5.212765957446807
11.899999999999999
-0.35372340425531945
6.042105263157893
-2.3643617021276597
6.907894736842103
6.069148936170212
8.676315789473684
7.074468085106382
12.784210526315789
-2.6436170212765964
11.678947368421056
5.212765957446807
11.899999999999999
-0.35372340425531945
6.042105263157893
-2.3643617021276597
6.907894736842103
6.013297872340425
8.52894736842105
7.074468085106382
12.784210526315789
-2.6436170212765964
11.678947368421056
5.212765957446807
11.899999999999999
-0.35372340425531945
6.042105263157893
-2.3643617021276597
6.907894736842103
5.938829787234042
8.252631578947366
7.074468085106382
12.784210526315789
-2.6436170212765964
11.678947368421056
5.212765957446807
11.899999999999999
-0.35372340425531945
6.042105263157893
-2.3643617021276597
6.907894736842103
5.882978723404255
8.123684210526314
7.074468085106382
12.784210526315789
-2.6436170212765964
11.678947368421056
5.212765957446807
11.899999999999999
-0.35372340425531945
6.042105263157893
-2.3643617021276597
6.907894736842103
5.7712765957446805
7.902631578947371
7.074468085106382
12.784210526315789
-2.6436170212765964
11.678947368421056
5.212765957446807
11.899999999999999
-0.35372340425531945
6.042105263157893
-2.3643617021276597
6.907894736842103
5.73404255319149
7.810526315789474
7.074468085106382
12.784210526315789
-2.6436170212765964
11.678947368421056
5.212765957446807
11.899999999999999
-0.35372340425531945
6.042105263157893
-2.3643617021276597
6.907894736842103
5.678191489361701
7.7368421052631575
7.074468085106382
12.784210526315789
-2.6436170212765964
11.678947368421056
5.212765957446807
11.899999999999999
-0.35372340425531945
6.042105263157893
-2.3643617021276597
6.907894736842103
5.585106382978722
7.589473684210525
7.074468085106382
12.784210526315789
-2.6436170212765964
11.678947368421056
5.212765957446807
11.899999999999999
-0.35372340425531945
6.042105263157893
-2.3643617021276597
6.907894736842103
5.547872340425531
7.55263157894737
7.074468085106382
12.784210526315789
-2.6436170212765964
11.678947368421056
5.212765957446807
11.899999999999999
-0.875
6.35526315789474
-2.3643617021276597
6.907894736842103
5.547872340425531
7.55263157894737
7.074468085106382
12.784210526315789
-2.6436170212765964
11.678947368421056
5.212765957446807
11.899999999999999
-0.7446808510638299
6.35526315789474
-2.3643617021276597
6.907894736842103
5.547872340425531
7.55263157894737
7.074468085106382
12.784210526315789
-2.6436170212765964
11.678947368421056
5.212765957446807
11.899999999999999
-0.6329787234042552
6.35526315789474
-2.3643617021276597
6.907894736842103
5.547872340425531
7.55263157894737
7.074468085106382
12.784210526315789
-2.6436170212765964
11.678947368421056
5.212765957446807
11.899999999999999
-0.4095744680851068
6.35526315789474
-2.3643617021276597
6.907894736842103
5.547872340425531
7.55263157894737
7.074468085106382
12.784210526315789
-2.6436170212765964
11.678947368421056
5.212765957446807
11.899999999999999
0.09308510638297829
6.35526315789474
-2.3643617021276597
6.907894736842103
5.547872340425531
7.55263157894737
7.074468085106382
12.784210526315789
-2.6436170212765964
11.678947368421056
5.212765957446807
11.899999999999999
