45
12
1.452127659574467
4.402631578947371
-0.11170212765957466
4.93684210526316
3.7792553191489358
12.139473684210529
-0.5398936170212769
13.281578947368423
3.444148936170212
12.58157894736842
-2.420212765957447
10.794736842105266
1.452127659574467
4.402631578947371
-0.11170212765957466
4.93684210526316
3.3882978723404253
12.323684210526316
0.07446808510638281
13.373684210526314
3.444148936170212
12.58157894736842
-2.420212765957447
10.960526315789473
1.452127659574467
4.402631578947371
-0.11170212765957466
4.93684210526316
2.997340425531915
12.489473684210523
0.6329787234042552
13.410526315789475
3.444148936170212
12.58157894736842
-2.420212765957447
11.236842105263158
1.452127659574467
4.402631578947371
-0.11170212765957466
4.93684210526316
2.7739361702127656
12.526315789473685
0.8936170212765955
13.410526315789475
3.444148936170212
12.58157894736842
-2.4015957446808516
11.328947368421055
1.452127659574467
4.402631578947371
-0.11170212765957466
4.93684210526316
2.289893617021276
12.600000000000001
1.3404255319148923
13.428947368421056
3.444148936170212
12.58157894736842
-2.4015957446808516
11.457894736842107
1.452127659574467
4.402631578947371
-0.11170212765957466
4.93684210526316
2.0664893617021267
12.618421052631575
1.5452127659574462
13.410526315789475
3.444148936170212
12.58157894736842
-2.382978723404255
11.494736842105262
1.452127659574467
4.402631578947371
-0.11170212765957466
4.93684210526316
1.5638297872340416
12.58157894736842
1.9361702127659566
13.318421052631578
3.444148936170212
12.58157894736842
-2.382978723404255
11.494736842105262
1.452127659574467
4.402631578947371
-0.11170212765957466
4.93684210526316
1.3218085106382969
12.56315789473684
2.1409574468085104
13.263157894736842
3.444148936170212
12.58157894736842
-2.382978723404255
11.494736842105262
1.452127659574467
4.402631578947371
-0.11170212765957466
4.93684210526316
0.8191489361702127
12.489473684210523
2.531914893617021
13.097368421052629
3.444148936170212
12.58157894736842
-2.382978723404255
11.494736842105262
1.452127659574467
4.402631578947371
-0.11170212765957466
4.93684210526316
0.5771276595744679
12.452631578947368
2.9414893617021267
12.913157894736841
3.444148936170212
12.58157894736842
-2.382978723404255
11.494736842105262
1.452127659574467
4.402631578947371
-0.11170212765957466
4.93684210526316
0.07446808510638281
12.397368421052626
3.3510638297872344
12.728947368421053
3.444148936170212
12.58157894736842
-2.382978723404255
11.494736842105262
1.452127659574467
4.402631578947371
-0.11170212765957466
4.93684210526316
-0.1489361702127665
12.360526315789471
3.5558510638297864
12.618421052631575
3.444148936170212
12.58157894736842
-2.382978723404255
11.494736842105262
1.452127659574467
4.402631578947371
-0.11170212765957466
4.93684210526316
-0.6329787234042552
12.34210526315789
3.9840425531914896
12.415789473684214
3.444148936170212
12.58157894736842
-2.382978723404255
11.494736842105262
1.452127659574467
4.402631578947371
-0.11170212765957466
4.93684210526316
-0.8563829787234045
12.323684210526316
4.170212765957446
12.323684210526316
3.444148936170212
12.58157894736842
-2.382978723404255
11.494736842105262
1.452127659574467
4.402631578947371
-0.11170212765957466
4.93684210526316
-1.3031914893617023
12.268421052631581
4.523936170212766
12.047368421052632
3.444148936170212
12.58157894736842
-2.382978723404255
11.494736842105262
1.452127659574467
4.402631578947371
-0.11170212765957466
4.93684210526316
-1.5079787234042552
12.25
4.691489361702127
11.91842105263158
3.444148936170212
12.58157894736842
-2.382978723404255
11.494736842105262
1.452127659574467
4.402631578947371
-0.11170212765957466
4.93684210526316
-1.9361702127659575
12.15789473684211
5.026595744680851
11.642105263157895
3.444148936170212
12.58157894736842
-2.382978723404255
11.494736842105262
1.452127659574467
4.402631578947371
-0.11170212765957466
4.93684210526316
-2.1037234042553195
12.121052631578948
5.175531914893616
11.457894736842107
3.444148936170212
12.58157894736842
-2.382978723404255
11.494736842105262
1.452127659574467
4.402631578947371
-0.11170212765957466
4.93684210526316
-2.420212765957447
12.010526315789477
5.454787234042552
11.107894736842105
3.444148936170212
12.58157894736842
-2.382978723404255
11.494736842105262
1.452127659574467
4.402631578947371
-0.11170212765957466
4.93684210526316
-2.6063829787234045
11.93684210526316
5.566489361702127
10.942105263157899
3.444148936170212
12.58157894736842
-2.382978723404255
11.494736842105262
1.452127659574467
4.402631578947371
-0.11170212765957466
4.93684210526316
-2.9414893617021276
11.789473684210527
5.696808510638297
10.757894736842104
3.444148936170212
12.58157894736842
-2.382978723404255
11.494736842105262
1.452127659574467
4.402631578947371
-0.11170212765957466
4.93684210526316
-3.0904255319148937
11.715789473684211
5.901595744680851
10.352631578947374
3.444148936170212
12.58157894736842
-2.382978723404255
11.494736842105262
1.452127659574467
4.402631578947371
-0.11170212765957466
4.93684210526316
-3.220744680851064
11.60526315789474
5.99468085106383
10.205263157894741
3.444148936170212
12.58157894736842
-2.382978723404255
11.494736842105262
1.452127659574467
4.402631578947371
-0.11170212765957466
4.93684210526316
-3.5
11.38421052631579
6.162234042553191
9.85526315789474
3.444148936170212
12.58157894736842
-2.382978723404255
11.494736842105262
1.452127659574467
4.402631578947371
-0.11170212765957466
4.93684210526316
-3.667553191489362
11.218421052631584
6.218085106382977
9.707894736842107
3.444148936170212
12.58157894736842
-2.382978723404255
11.494736842105262
1.452127659574467
4.402631578947371
-0.11170212765957466
4.93684210526316
-3.9654255319148937
10.905263157894737
6.273936170212766
9.560526315789474
3.444148936170212
12.58157894736842
-2.382978723404255
11.494736842105262
1.452127659574467
4.402631578947371
-0.11170212765957466
4.93684210526316
-4.11436170212766
10.739473684210523
6.329787234042552
9.30263157894737
3.444148936170212
12.58157894736842
-2.382978723404255
11.494736842105262
1.452127659574467
4.402631578947371
-0.11170212765957466
4.93684210526316
-4.263297872340425
10.518421052631581
6.3484042553191475
9.265789473684208
3.444148936170212
12.58157894736842
-2.382978723404255
11.494736842105262
1.452127659574467
4.402631578947371
-0.11170212765957466
4.93684210526316
-4.598404255319149
10.039473684210527
6.3484042553191475
9.265789473684208
3.444148936170212
12.58157894736842
-2.382978723404255
11.494736842105262
1.452127659574467
4.402631578947371
-0.11170212765957466
4.93684210526316
-4.747340425531915
9.800000000000004
6.3484042553191475
9.265789473684208
3.444148936170212
12.58157894736842
-2.382978723404255
11.494736842105262
1.452127659574467
4.402631578947371
-0.11170212765957466
4.93684210526316
-5.026595744680851
9.247368421052634
6.3484042553191475
9.265789473684208
3.444148936170212
12.58157894736842
-2.382978723404255
11.494736842105262
1.452127659574467
4.402631578947371
-0.11170212765957466
4.93684210526316
-5.11968085106383
9.007894736842104
6.3484042553191475
9.265789473684208
3.444148936170212
12.58157894736842
-2.382978723404255
11.494736842105262
1.452127659574467
4.402631578947371
-0.11170212765957466
4.93684210526316
-5.194148936170213
8.805263157894736
6.3484042553191475
9.265789473684208
3.444148936170212
12.58157894736842
-2.382978723404255
11.494736842105262
1.452127659574467
4.402631578947371
-0.11170212765957466
4.93684210526316
-5.2686170212765955
8.602631578947374
6.3484042553191475
9.265789473684208
3.444148936170212
12.58157894736842
-2.382978723404255
11.494736842105262
1.377659574468085
4.3842105263157904
-0.11170212765957466
4.93684210526316
-5.2686170212765955
8.602631578947374
6.3484042553191475
9.265789473684208
3.444148936170212
12.58157894736842
-2.382978723404255
11.494736842105262
1.2287234042553195
4.457894736842107
-0.11170212765957466
4.93684210526316
-5.2686170212765955
8.602631578947374
6.3484042553191475
9.265789473684208
3.444148936170212
12.58157894736842
-2.382978723404255
11.494736842105262
1.1170212765957448
4.5131578947368425
-0.11170212765957466
4.93684210526316
-5.2686170212765955
8.602631578947374
6.3484042553191475
9.265789473684208
3.444148936170212
12.58157894736842
-2.382978723404255
11.494736842105262
0.9867021276595738
4.586842105263159
-0.11170212765957466
4.93684210526316
-5.2686170212765955
8.602631578947374
6.3484042553191475
9.265789473684208
3.444148936170212
12.58157894736842
-2.382978723404255
11.494736842105262
0.5771276595744679
4.826315789473682
-0.11170212765957466
4.93684210526316
-5.2686170212765955
8.602631578947374
6.3484042553191475
9.265789473684208
3.444148936170212
12.58157894736842
-2.382978723404255
11.494736842105262
0.09308510638297829
5.194736842105264
-0.11170212765957466
4.93684210526316
-5.2686170212765955
8.602631578947374
6.3484042553191475
9.265789473684208
3.444148936170212
12.58157894736842
-2.382978723404255
11.494736842105262
-0.20478723404255383
5.415789473684214
-0.11170212765957466
4.93684210526316
-5.2686170212765955
8.602631578947374
6.3484042553191475
9.265789473684208
3.444148936170212
12.58157894736842
-2.382978723404255
11.494736842105262
-0.5026595744680851
5.673684210526318
-0.11170212765957466
4.93684210526316
-5.2686170212765955
8.602631578947374
6.3484042553191475
9.265789473684208
3.444148936170212
12.58157894736842
-2.382978723404255
11.494736842105262
-1.1170212765957448
6.152631578947371
-0.11170212765957466
4.93684210526316
-5.2686170212765955
8.602631578947374
6.3484042553191475
9.265789473684208
3.444148936170212
12.58157894736842
-2.382978723404255
11.494736842105262
-1.6569148936170217
6.557894736842101
-0.11170212765957466
4.93684210526316
-5.2686170212765955
8.602631578947374
6.3484042553191475
9.265789473684208
3.444148936170212
12.58157894736842
-2.382978723404255
11.494736842105262
-1.9547872340425538
6.760526315789477
-0.11170212765957466
4.93684210526316
-5.2686170212765955
8.602631578947374
6.3484042553191475
9.265789473684208
3.444148936170212
12.58157894736842
-2.382978723404255
11.494736842105262
