68
12
1.0053191489361701
4.310526315789474
0.539893617021276
5.4526315789473685
3.537234042553191
12.89473684210526
-2.159574468085107
12.600000000000001
-3.3138297872340425
10.27894736842105
5.436170212765957
9.965789473684211
1.0053191489361701
4.310526315789474
0.539893617021276
5.4526315789473685
3.537234042553191
12.89473684210526
-2.159574468085107
12.600000000000001
-3.3138297872340425
10.27894736842105
5.436170212765957
9.965789473684211
1.0053191489361701
4.310526315789474
0.539893617021276
5.4526315789473685
3.406914893617021
12.949999999999996
-2.1037234042553195
12.600000000000001
-3.3138297872340425
10.27894736842105
5.436170212765957
9.965789473684211
1.0053191489361701
4.310526315789474
0.539893617021276
5.4526315789473685
3.3510638297872344
12.968421052631584
-1.9920212765957448
12.636842105263156
-3.3138297872340425
10.27894736842105
5.436170212765957
9.965789473684211
1.0053191489361701
4.310526315789474
0.539893617021276
5.4526315789473685
3.202127659574467
13.02368421052632
-1.7686170212765964
12.710526315789473
-3.3138297872340425
10.27894736842105
5.436170212765957
9.965789473684211
1.0053191489361701
4.310526315789474
0.539893617021276
5.4526315789473685
3.034574468085106
13.078947368421055
-1.5638297872340425
12.747368421052634
-3.3138297872340425
10.27894736842105
5.436170212765957
9.965789473684211
1.0053191489361701
4.310526315789474
0.539893617021276
5.4526315789473685
2.829787234042552
13.13421052631579
-1.377659574468085
12.80263157894737
-3.3138297872340425
10.27894736842105
5.436170212765957
9.965789473684211
1.0053191489361701
4.310526315789474
0.539893617021276
5.4526315789473685
2.382978723404255
13.207894736842107
-0.9122340425531918
12.839473684210525
-3.3138297872340425
10.27894736842105
5.436170212765957
9.965789473684211
1.0053191489361701
4.310526315789474
0.539893617021276
5.4526315789473685
2.1037234042553195
13.263157894736842
-0.6515957446808516
12.857894736842105
-3.3138297872340425
10.27894736842105
5.436170212765957
9.965789473684211
1.0053191489361701
4.310526315789474
0.539893617021276
5.4526315789473685
1.4893617021276597
13.281578947368423
-0.42819148936170226
12.876315789473686
-3.3138297872340425
10.27894736842105
5.436170212765957
9.965789473684211
1.0053191489361701
4.310526315789474
0.539893617021276
5.4526315789473685
0.9308510638297864
13.281578947368423
0.01861702127659548
12.821052631578944
-3.3138297872340425
10.27894736842105
5.436170212765957
9.965789473684211
1.0053191489361701
4.310526315789474
0.539893617021276
5.4526315789473685
0.6329787234042552
13.281578947368423
0.22340425531914843
12.821052631578944
-3.3138297872340425
10.27894736842105
5.436170212765957
9.965789473684211
1.0053191489361701
4.310526315789474
0.539893617021276
5.4526315789473685
0.11170212765957377
13.22631578947368
0.5585106382978724
12.821052631578944
-3.3138297872340425
10.27894736842105
5.436170212765957
9.965789473684211
1.0053191489361701
4.310526315789474
0.539893617021276
5.4526315789473685
-0.09308510638297918
13.22631578947368
0.7260638297872335
12.80263157894737
-3.3138297872340425
10.27894736842105
5.436170212765957
9.965789473684211
1.0053191489361701
4.310526315789474
0.539893617021276
5.4526315789473685
-0.5585106382978724
13.171052631578945
1.0053191489361701
12.747368421052634
-3.3138297872340425
10.27894736842105
5.436170212765957
9.965789473684211
1.0053191489361701
4.310526315789474
0.539893617021276
5.4526315789473685
-0.7260638297872344
13.13421052631579
1.1356382978723403
12.728947368421053
-3.3138297872340425
10.27894736842105
5.436170212765957
9.965789473684211
1.0053191489361701
4.310526315789474
0.539893617021276
5.4526315789473685
-0.8563829787234045
13.11578947368421
1.247340425531915
12.728947368421053
-3.3138297872340425
10.27894736842105
5.436170212765957
9.965789473684211
1.0053191489361701
4.310526315789474
0.539893617021276
5.4526315789473685
-0.9867021276595747
13.097368421052629
1.414893617021276
12.728947368421053
-3.3138297872340425
10.27894736842105
5.436170212765957
9.965789473684211
1.0053191489361701
4.310526315789474
0.539893617021276
5.4526315789473685
-0.9867021276595747
13.097368421052629
1.4893617021276597
12.728947368421053
-3.3138297872340425
10.27894736842105
5.436170212765957
9.965789473684211
1.0053191489361701
4.310526315789474
0.539893617021276
5.4526315789473685
-0.9867021276595747
13.097368421052629
1.5452127659574462
12.728947368421053
-3.3138297872340425
10.27894736842105
5.436170212765957
9.965789473684211
1.0053191489361701
4.310526315789474
0.539893617021276
5.4526315789473685
-0.9867021276595747
13.097368421052629
1.6755319148936163
12.728947368421053
-3.3138297872340425
10.27894736842105
5.436170212765957
9.965789473684211
1.0053191489361701
4.310526315789474
0.539893617021276
5.4526315789473685
-0.9867021276595747
13.097368421052629
1.7313829787234045
12.710526315789473
-3.3138297872340425
10.27894736842105
5.436170212765957
9.965789473684211
1.0053191489361701
4.310526315789474
0.539893617021276
5.4526315789473685
-0.9867021276595747
13.097368421052629
1.8058510638297864
12.710526315789473
-3.3138297872340425
10.27894736842105
5.436170212765957
9.965789473684211
1.0053191489361701
4.310526315789474
0.539893617021276
5.4526315789473685
-1.1356382978723403
13.097368421052629
1.9920212765957448
12.839473684210525
-3.276595744680851
10.426315789473684
5.436170212765957
9.965789473684211
1.0053191489361701
4.310526315789474
0.539893617021276
5.4526315789473685
-1.210106382978724
13.097368421052629
2.1037234042553195
12.876315789473686
-3.2393617021276597
10.481578947368419
5.305851063829786
10.113157894736844
1.0053191489361701
4.310526315789474
0.539893617021276
5.4526315789473685
-1.377659574468085
13.078947368421055
2.289893617021276
12.876315789473686
-3.1835106382978724
10.573684210526316
5.175531914893616
10.242105263157896
1.0053191489361701
4.310526315789474
0.539893617021276
5.4526315789473685
-1.5079787234042552
13.02368421052632
2.7180851063829774
12.821052631578944
-3.015957446808511
10.757894736842104
5.045212765957446
10.297368421052632
1.0053191489361701
4.310526315789474
0.539893617021276
5.4526315789473685
-1.6755319148936172
12.949999999999996
2.997340425531915
12.747368421052634
-2.9042553191489366
10.886842105263156
4.710106382978722
10.518421052631581
1.0053191489361701
4.310526315789474
0.539893617021276
5.4526315789473685
-2.0106382978723403
12.80263157894737
3.537234042553191
12.58157894736842
-2.792553191489362
10.997368421052634
4.523936170212766
10.62894736842106
1.0053191489361701
4.310526315789474
0.539893617021276
5.4526315789473685
-2.3643617021276597
12.58157894736842
3.7978723404255312
12.452631578947368
-2.625
11.199999999999996
4.337765957446807
10.739473684210523
1.0053191489361701
4.310526315789474
0.539893617021276
5.4526315789473685
-2.5691489361702127
12.434210526315795
4.3563829787234045
12.139473684210529
-2.550531914893617
11.292105263157893
3.9281914893617014
10.978947368421053
1.0053191489361701
4.310526315789474
0.539893617021276
5.4526315789473685
-2.9042553191489366
12.176315789473684
4.5984042553191475
11.955263157894734
-2.49468085106383
11.36578947368421
3.7792553191489358
11.089473684210525
1.0053191489361701
4.310526315789474
0.539893617021276
5.4526315789473685
-3.0904255319148937
12.010526315789477
5.212765957446807
11.439473684210526
-2.420212765957447
11.457894736842107
3.5
11.27368421052632
1.0053191489361701
4.310526315789474
0.539893617021276
5.4526315789473685
-3.3324468085106385
11.789473684210527
5.454787234042552
11.199999999999996
-2.382978723404255
11.513157894736842
3.36968085106383
11.347368421052629
1.0053191489361701
4.310526315789474
0.539893617021276
5.4526315789473685
-3.7047872340425534
11.402631578947371
5.920212765957446
10.647368421052633
-2.382978723404255
11.513157894736842
3.202127659574467
11.457894736842107
1.0053191489361701
4.310526315789474
0.539893617021276
5.4526315789473685
-3.872340425531915
11.181578947368422
6.106382978723403
10.371052631578948
-2.382978723404255
11.513157894736842
3.202127659574467
11.457894736842107
1.0053191489361701
4.310526315789474
0.539893617021276
5.4526315789473685
-4.058510638297872
10.92368421052631
6.404255319148936
9.873684210526314
-2.382978723404255
11.513157894736842
3.202127659574467
11.457894736842107
1.0053191489361701
4.310526315789474
0.539893617021276
5.4526315789473685
-4.375
10.444736842105264
6.51595744680851
9.63421052631579
-2.382978723404255
11.513157894736842
3.202127659574467
11.457894736842107
1.0053191489361701
4.310526315789474
0.539893617021276
5.4526315789473685
-4.50531914893617
10.18684210526316
6.702127659574467
9.247368421052634
-2.382978723404255
11.513157894736842
3.202127659574467
11.457894736842107
1.0053191489361701
4.310526315789474
0.539893617021276
5.4526315789473685
-4.691489361702128
9.707894736842107
6.73936170212766
9.118421052631575
-2.382978723404255
11.513157894736842
3.202127659574467
11.457894736842107
1.0053191489361701
4.310526315789474
0.539893617021276
5.4526315789473685
-4.747340425531915
9.449999999999996
6.73936170212766
9.118421052631575
-2.382978723404255
11.513157894736842
3.202127659574467
11.457894736842107
1.0053191489361701
4.310526315789474
0.539893617021276
5.4526315789473685
-4.85904255319149
8.989473684210523
6.73936170212766
9.118421052631575
-2.382978723404255
11.513157894736842
3.202127659574467
11.457894736842107
1.0053191489361701
4.310526315789474
0.539893617021276
5.4526315789473685
-4.8962765957446805
8.805263157894736
6.73936170212766
9.118421052631575
-2.382978723404255
11.513157894736842
3.202127659574467
11.457894736842107
1.0053191489361701
4.310526315789474
0.539893617021276
5.4526315789473685
-4.933510638297872
8.657894736842103
6.73936170212766
9.118421052631575
-2.382978723404255
11.513157894736842
3.202127659574467
11.457894736842107
1.0053191489361701
4.310526315789474
0.539893617021276
5.4526315789473685
-4.933510638297872
8.52894736842105
6.73936170212766
9.118421052631575
-2.382978723404255
11.513157894736842
3.202127659574467
11.457894736842107
2.0292553191489358
4.900000000000006
0.539893617021276
5.4526315789473685
-4.933510638297872
8.52894736842105
6.73936170212766
9.118421052631575
-2.382978723404255
11.513157894736842
3.202127659574467
11.457894736842107
1.9361702127659566
5.0473684210526315
0.539893617021276
5.4526315789473685
-4.933510638297872
8.52894736842105
6.73936170212766
9.118421052631575
-2.382978723404255
11.513157894736842
3.202127659574467
11.457894736842107
1.8989361702127656
5.0473684210526315
0.539893617021276
5.4526315789473685
-4.933510638297872
8.52894736842105
6.73936170212766
9.118421052631575
-2.382978723404255
11.513157894736842
3.202127659574467
11.457894736842107
1.7686170212765955
5.102631578947367
0.539893617021276
5.4526315789473685
-4.933510638297872
8.52894736842105
6.73936170212766
9.118421052631575
-2.382978723404255
11.513157894736842
3.202127659574467
11.457894736842107
1.6755319148936163
5.121052631578948
0.539893617021276
5.4526315789473685
-4.933510638297872
8.52894736842105
6.73936170212766
9.118421052631575
-2.382978723404255
11.513157894736842
3.202127659574467
11.457894736842107
1.5638297872340416
5.157894736842103
0.539893617021276
5.4526315789473685
-4.933510638297872
8.52894736842105
6.73936170212766
9.118421052631575
-2.382978723404255
11.513157894736842
3.202127659574467
11.457894736842107
1.2101063829787222
5.268421052631581
0.539893617021276
5.4526315789473685
-4.933510638297872
8.52894736842105
6.73936170212766
9.118421052631575
-2.382978723404255
11.513157894736842
3.202127659574467
11.457894736842107
0.9867021276595738
5.342105263157897
0.539893617021276
5.4526315789473685
-4.933510638297872
8.52894736842105
6.73936170212766
9.118421052631575
-2.382978723404255
11.513157894736842
3.202127659574467
11.457894736842107
0.707446808510638
5.434210526315788
0.539893617021276
5.4526315789473685
-4.933510638297872
8.52894736842105
6.73936170212766
9.118421052631575
-2.382978723404255
11.513157894736842
3.202127659574467
11.457894736842107
0.1675531914893611
5.692105263157899
0.539893617021276
5.4526315789473685
-4.933510638297872
8.52894736842105
6.73936170212766
9.118421052631575
-2.382978723404255
11.513157894736842
3.202127659574467
11.457894736842107
-0.13031914893617014
5.8578947368421055
0.539893617021276
5.4526315789473685
-4.933510638297872
8.52894736842105
6.73936170212766
9.118421052631575
-2.382978723404255
11.513157894736842
3.202127659574467
11.457894736842107
-0.6888297872340425
6.226315789473681
0.539893617021276
5.4526315789473685
-4.933510638297872
8.52894736842105
6.73936170212766
9.118421052631575
-2.382978723404255
11.513157894736842
3.202127659574467
11.457894736842107
-0.9680851063829792
6.410526315789475
0.539893617021276
5.4526315789473685
-4.933510638297872
8.52894736842105
6.73936170212766
9.118421052631575
-2.382978723404255
11.513157894736842
3.202127659574467
11.457894736842107
-1.4707446808510642
6.834210526315786
0.539893617021276
5.4526315789473685
-4.933510638297872
8.52894736842105
6.73936170212766
9.118421052631575
-2.382978723404255
11.513157894736842
3.202127659574467
11.457894736842107
-1.7313829787234045
7.018421052631581
0.539893617021276
5.4526315789473685
-4.933510638297872
8.52894736842105
6.73936170212766
9.118421052631575
-2.382978723404255
11.513157894736842
3.202127659574467
11.457894736842107
-1.9920212765957448
7.221052631578949
0.539893617021276
5.4526315789473685
-4.933510638297872
8.52894736842105
6.73936170212766
9.118421052631575
-2.382978723404255
11.513157894736842
3.202127659574467
11.457894736842107
-2.1968085106382977
7.405263157894737
0.539893617021276
5.4526315789473685
-4.933510638297872
8.52894736842105
6.73936170212766
9.118421052631575
-2.382978723404255
11.513157894736842
3.202127659574467
11.457894736842107
-2.550531914893617
7.64473684210526
0.539893617021276
5.4526315789473685
-4.933510638297872
8.52894736842105
6.73936170212766
9.118421052631575
-2.382978723404255
11.513157894736842
3.202127659574467
11.457894736842107
-2.75531914893617
7.792105263157893
0.539893617021276
5.4526315789473685
-4.933510638297872
8.52894736842105
6.73936170212766
9.118421052631575
-2.382978723404255
11.513157894736842
3.202127659574467
11.457894736842107
-2.9414893617021276
7.902631578947371
0.539893617021276
5.4526315789473685
-4.933510638297872
8.52894736842105
6.73936170212766
9.118421052631575
-2.382978723404255
11.513157894736842
3.202127659574467
11.457894736842107
-3.0904255319148937
7.994736842105269
0.539893617021276
5.4526315789473685
-4.933510638297872
8.52894736842105
6.73936170212766
9.118421052631575
-2.382978723404255
11.513157894736842
3.202127659574467
11.457894736842107
-3.295212765957447
8.160526315789475
0.539893617021276
5.4526315789473685
-4.933510638297872
8.52894736842105
6.73936170212766
9.118421052631575
-2.382978723404255
11.513157894736842
3.202127659574467
11.457894736842107
-3.388297872340426
8.215789473684211
0.539893617021276
5.4526315789473685
-4.933510638297872
8.52894736842105
6.73936170212766
9.118421052631575
-2.382978723404255
11.513157894736842
3.202127659574467
11.457894736842107
