45
12
-1.2845744680851068
8.252631578947366
1.247340425531915
5.268421052631581
7.2234042553191475
12.784210526315789
0.2606382978723403
11.181578947368422
-6.050531914893617
12.747368421052634
-2.3085106382978724
8.860526315789471
-1.3590425531914896
8.307894736842101
1.247340425531915
5.268421052631581
7.2234042553191475
12.784210526315789
0.2606382978723403
11.181578947368422
-6.050531914893617
12.747368421052634
-2.3085106382978724
8.860526315789471
-1.3962765957446814
8.363157894736844
1.247340425531915
5.268421052631581
7.2234042553191475
12.784210526315789
0.2606382978723403
11.181578947368422
-6.050531914893617
12.747368421052634
-2.3085106382978724
8.860526315789471
-1.3962765957446814
8.363157894736844
1.247340425531915
5.268421052631581
7.2234042553191475
12.784210526315789
0.2606382978723403
11.181578947368422
-6.050531914893617
12.747368421052634
-2.3085106382978724
8.860526315789471
-1.3962765957446814
8.363157894736844
1.1542553191489358
5.507894736842104
7.093085106382977
12.618421052631575
0.3909574468085104
11.181578947368422
-6.050531914893617
12.747368421052634
-2.3085106382978724
8.860526315789471
-1.3962765957446814
8.363157894736844
1.1356382978723403
5.673684210526318
7.037234042553191
12.56315789473684
0.5771276595744679
11.163157894736841
-6.050531914893617
12.747368421052634
-2.3085106382978724
8.860526315789471
-1.3962765957446814
8.363157894736844
1.0984042553191493
6.336842105263159
6.944148936170212
12.507894736842104
0.6702127659574462
11.14473684210526
-6.050531914893617
12.747368421052634
-2.3085106382978724
8.860526315789471
-1.3962765957446814
8.363157894736844
1.079787234042552
6.68684210526316
6.6835106382978715
12.360526315789471
0.7819148936170208
11.107894736842105
-6.050531914893617
12.747368421052634
-2.3085106382978724
8.860526315789471
-1.3962765957446814
8.363157894736844
1.079787234042552
7.092105263157897
6.51595744680851
12.268421052631581
0.8936170212765955
11.05263157894737
-6.050531914893617
12.747368421052634
-2.3085106382978724
8.860526315789471
-1.3962765957446814
8.363157894736844
1.1356382978723403
7.515789473684208
6.3484042553191475
12.15789473684211
1.1356382978723403
10.978947368421053
-6.050531914893617
12.747368421052634
-2.3085106382978724
8.860526315789471
-1.3962765957446814
8.363157894736844
1.284574468085106
8.307894736842101
5.957446808510637
11.93684210526316
1.2659574468085104
10.942105263157899
-6.050531914893617
12.747368421052634
-2.3085106382978724
8.860526315789471
-1.3962765957446814
8.363157894736844
1.452127659574467
8.713157894736838
5.7712765957446805
11.807894736842101
1.5265957446808507
10.868421052631575
-6.050531914893617
12.747368421052634
-2.3085106382978724
8.860526315789471
-1.3962765957446814
8.363157894736844
1.8803191489361701
9.597368421052629
5.305851063829786
11.586842105263159
1.6569148936170208
10.83157894736842
-6.050531914893617
12.747368421052634
-2.3085106382978724
8.860526315789471
-1.3962765957446814
8.363157894736844
2.1409574468085104
9.984210526315792
5.082446808510637
11.47631578947368
1.8058510638297864
10.776315789473685
-6.050531914893617
12.747368421052634
-2.3085106382978724
8.860526315789471
-1.3962765957446814
8.363157894736844
2.662234042553191
10.684210526315795
4.542553191489361
11.292105263157893
2.1409574468085104
10.684210526315795
-6.050531914893617
12.747368421052634
-2.3085106382978724
8.860526315789471
-1.3962765957446814
8.363157894736844
2.9228723404255312
10.997368421052634
4.263297872340425
11.218421052631584
2.2712765957446805
10.62894736842106
-6.050531914893617
12.747368421052634
-2.3085106382978724
8.860526315789471
-1.3962765957446814
8.363157894736844
3.4627659574468073
11.550000000000004
3.6861702127659566
11.071052631578944
2.382978723404255
10.573684210526316
-6.050531914893617
12.747368421052634
-2.3085106382978724
8.860526315789471
-1.3962765957446814
8.363157894736844
3.7234042553191493
11.789473684210527
3.406914893617021
11.015789473684208
2.6436170212765955
10.40789473684211
-6.050531914893617
12.747368421052634
-2.3085106382978724
8.860526315789471
-1.3962765957446814
8.363157894736844
4.263297872340425
12.231578947368419
2.829787234042552
10.960526315789473
2.792553191489361
10.315789473684205
-6.050531914893617
12.747368421052634
-2.3085106382978724
8.860526315789471
-1.3962765957446814
8.363157894736844
4.50531914893617
12.397368421052626
2.569148936170212
10.942105263157899
3.0531914893617014
10.149999999999999
-6.050531914893617
12.747368421052634
-2.3085106382978724
8.860526315789471
-1.3962765957446814
8.363157894736844
4.9707446808510625
12.710526315789473
2.0106382978723403
10.886842105263156
3.1835106382978715
10.057894736842101
-6.050531914893617
12.747368421052634
-2.3085106382978724
8.860526315789471
-1.3962765957446814
8.363157894736844
5.156914893617021
12.857894736842105
1.7686170212765955
10.868421052631575
3.406914893617021
9.873684210526314
-6.050531914893617
12.747368421052634
-2.3085106382978724
8.860526315789471
-1.3962765957446814
8.363157894736844
5.343085106382977
12.949999999999996
1.2287234042553195
10.83157894736842
3.4813829787234045
9.763157894736842
-6.050531914893617
12.747368421052634
-2.3085106382978724
8.860526315789471
-1.3962765957446814
8.363157894736844
5.678191489361701
13.152631578947371
0.9680851063829783
10.81315789473684
3.5930851063829774
9.652631578947371
-6.050531914893617
12.747368421052634
-2.3085106382978724
8.860526315789471
-1.3962765957446814
8.363157894736844
5.8457446808510625
13.22631578947368
0.4840425531914887
10.794736842105266
3.7792553191489358
9.431578947368422
-6.050531914893617
12.747368421052634
-2.3085106382978724
8.860526315789471
-1.3962765957446814
8.363157894736844
5.99468085106383
13.300000000000004
0.18617021276595747
10.794736842105266
3.872340425531915
9.339473684210525
-6.050531914893617
12.747368421052634
-2.3085106382978724
8.860526315789471
-1.3962765957446814
8.363157894736844
6.273936170212766
13.410526315789475
-0.33510638297872397
10.868421052631575
3.946808510638297
9.228947368421053
-6.050531914893617
12.747368421052634
-2.3085106382978724
8.860526315789471
-1.3962765957446814
8.363157894736844
6.422872340425531
13.465789473684211
-0.6143617021276597
10.92368421052631
4.0957446808510625
8.989473684210523
-6.050531914893617
12.747368421052634
-2.3085106382978724
8.860526315789471
-1.3962765957446814
8.363157894736844
6.664893617021276
13.521052631578947
-1.0984042553191493
11.05263157894737
4.170212765957446
8.878947368421052
-6.050531914893617
12.747368421052634
-2.3085106382978724
8.860526315789471
-1.3962765957446814
8.363157894736844
6.776595744680851
13.539473684210527
-1.340425531914894
11.126315789473686
4.207446808510637
8.768421052631581
-6.050531914893617
12.747368421052634
-2.3085106382978724
8.860526315789471
-1.3962765957446814
8.363157894736844
6.906914893617021
13.539473684210527
-1.7872340425531918
11.27368421052632
4.319148936170212
8.52894736842105
-6.050531914893617
12.747368421052634
-2.3085106382978724
8.860526315789471
-1.3962765957446814
8.363157894736844
7.13031914893617
13.557894736842101
-1.9547872340425538
11.347368421052629
4.3563829787234045
8.41842105263158
-6.050531914893617
12.747368421052634
-2.3085106382978724
8.860526315789471
-1.3962765957446814
8.363157894736844
7.186170212765957
13.557894736842101
-2.1037234042553195
11.421052631578945
4.412234042553191
8.307894736842101
-6.050531914893617
12.747368421052634
-2.3085106382978724
8.860526315789471
-1.3962765957446814
8.363157894736844
7.186170212765957
13.557894736842101
-2.252659574468085
11.513157894736842
4.468085106382977
8.086842105263159
-6.050531914893617
12.747368421052634
-2.3085106382978724
8.860526315789471
-1.3962765957446814
8.363157894736844
7.186170212765957
13.557894736842101
-2.252659574468085
11.513157894736842
4.50531914893617
7.994736842105269
-6.050531914893617
12.747368421052634
-2.3085106382978724
8.860526315789471
-1.3962765957446814
8.363157894736844
7.186170212765957
13.557894736842101
-2.252659574468085
11.513157894736842
4.523936170212766
7.902631578947371
-6.050531914893617
12.747368421052634
-2.3085106382978724
8.860526315789471
-1.3962765957446814
8.363157894736844
7.186170212765957
13.557894736842101
-2.252659574468085
11.513157894736842
4.542553191489361
7.810526315789474
-6.050531914893617
12.747368421052634
-2.3085106382978724
8.860526315789471
-1.3962765957446814
8.363157894736844
7.186170212765957
13.557894736842101
-2.252659574468085
11.513157894736842
4.5984042553191475
7.663157894736841
-6.050531914893617
12.747368421052634
-2.3085106382978724
8.860526315789471
-1.3962765957446814
8.363157894736844
7.186170212765957
13.557894736842101
-2.252659574468085
11.513157894736842
4.617021276595745
7.589473684210525
-6.050531914893617
12.747368421052634
-2.3085106382978724
8.860526315789471
-1.3962765957446814
8.363157894736844
7.186170212765957
13.557894736842101
-2.252659574468085
11.513157894736842
4.63563829787234
7.534210526315789
-6.050531914893617
12.747368421052634
-2.3085106382978724
8.860526315789471
-1.3962765957446814
8.363157894736844
7.186170212765957
13.557894736842101
-2.252659574468085
11.513157894736842
4.63563829787234
7.4789473684210535
-6.050531914893617
12.747368421052634
-2.3085106382978724
8.860526315789471
-1.3962765957446814
8.363157894736844
7.186170212765957
13.557894736842101
-2.252659574468085
11.513157894736842
4.672872340425531
7.423684210526318
-6.050531914893617
12.747368421052634
-2.3085106382978724
8.860526315789471
-0.670212765957447
8.215789473684211
7.186170212765957
13.557894736842101
-2.252659574468085
11.513157894736842
4.672872340425531
7.423684210526318
-6.050531914893617
12.747368421052634
-2.3085106382978724
8.860526315789471
-0.5771276595744688
8.160526315789475
7.186170212765957
13.557894736842101
-2.252659574468085
11.513157894736842
4.672872340425531
7.423684210526318
-6.050531914893617
12.747368421052634
-2.3085106382978724
8.860526315789471
-0.4840425531914896
8.10526315789474
7.186170212765957
13.557894736842101
-2.252659574468085
11.513157894736842
4.672872340425531
7.423684210526318
-6.050531914893617
12.747368421052634
-2.3085106382978724
8.860526315789471
