45
12
-4.468085106382979
7.663157894736841
-1.6382978723404253
5.968421052631584
3.202127659574467
7.018421052631581
-5.715425531914894
8.602631578947374
6.962765957446807
8.897368421052633
1.079787234042552
7.976315789473681
-4.468085106382979
7.663157894736841
-1.4893617021276597
6.2631578947368425
3.127659574468085
7.257894736842104
-5.715425531914894
8.602631578947374
6.962765957446807
8.897368421052633
1.079787234042552
7.976315789473681
-4.468085106382979
7.663157894736841
-1.3590425531914896
6.557894736842101
2.9042553191489358
7.792105263157893
-5.715425531914894
8.602631578947374
6.962765957446807
8.897368421052633
1.079787234042552
7.976315789473681
-4.468085106382979
7.663157894736841
-1.042553191489362
7.184210526315788
2.7739361702127656
8.068421052631578
-5.715425531914894
8.602631578947374
6.962765957446807
8.897368421052633
1.079787234042552
7.976315789473681
-4.468085106382979
7.663157894736841
-0.8936170212765964
7.4789473684210535
2.4015957446808507
8.621052631578948
-5.715425531914894
8.602631578947374
6.962765957446807
8.897368421052633
1.079787234042552
7.976315789473681
-4.468085106382979
7.663157894736841
-0.7074468085106389
7.773684210526319
2.196808510638297
8.878947368421052
-5.715425531914894
8.602631578947374
6.962765957446807
8.897368421052633
1.079787234042552
7.976315789473681
-4.468085106382979
7.663157894736841
-0.35372340425531945
8.32631578947369
1.7313829787234045
9.357894736842105
-5.715425531914894
8.602631578947374
6.962765957446807
8.897368421052633
1.079787234042552
7.976315789473681
-4.468085106382979
7.663157894736841
-0.16755319148936199
8.602631578947374
1.5079787234042552
9.560526315789474
-5.715425531914894
8.602631578947374
6.962765957446807
8.897368421052633
1.079787234042552
7.976315789473681
-4.468085106382979
7.663157894736841
0.22340425531914843
9.100000000000001
1.2659574468085104
9.800000000000004
-5.715425531914894
8.602631578947374
6.962765957446807
8.897368421052633
1.079787234042552
7.976315789473681
-4.468085106382979
7.663157894736841
0.42819148936170137
9.32105263157895
0.7632978723404253
10.242105263157896
-5.715425531914894
8.602631578947374
6.962765957446807
8.897368421052633
1.079787234042552
7.976315789473681
-4.468085106382979
7.663157894736841
0.875
9.763157894736842
0.5212765957446805
10.426315789473684
-5.715425531914894
8.602631578947374
6.962765957446807
8.897368421052633
1.079787234042552
7.976315789473681
-4.468085106382979
7.663157894736841
1.1170212765957448
9.94736842105263
0.03723404255319096
10.757894736842104
-5.715425531914894
8.602631578947374
6.962765957446807
8.897368421052633
1.079787234042552
7.976315789473681
-4.468085106382979
7.663157894736841
1.377659574468085
10.149999999999999
-0.18617021276595747
10.905263157894737
-5.715425531914894
8.602631578947374
6.962765957446807
8.897368421052633
1.079787234042552
7.976315789473681
-4.468085106382979
7.663157894736841
1.9361702127659566
10.5
-0.6143617021276597
11.181578947368422
-5.715425531914894
8.602631578947374
6.962765957446807
8.897368421052633
1.079787234042552
7.976315789473681
-4.468085106382979
7.663157894736841
2.2340425531914896
10.702631578947368
-0.837765957446809
11.27368421052632
-5.715425531914894
8.602631578947374
6.962765957446807
8.897368421052633
1.079787234042552
7.976315789473681
-4.468085106382979
7.663157894736841
2.829787234042552
11.05263157894737
-1.0611702127659575
11.38421052631579
-5.715425531914894
8.602631578947374
6.962765957446807
8.897368421052633
1.079787234042552
7.976315789473681
-4.468085106382979
7.663157894736841
3.127659574468085
11.236842105263158
-1.4521276595744688
11.568421052631578
-5.715425531914894
8.602631578947374
6.962765957446807
8.897368421052633
1.079787234042552
7.976315789473681
-4.468085106382979
7.663157894736841
3.742021276595745
11.642105263157895
-1.6382978723404253
11.642105263157895
-5.715425531914894
8.602631578947374
6.962765957446807
8.897368421052633
1.079787234042552
7.976315789473681
-4.468085106382979
7.663157894736841
4.337765957446807
11.992105263157896
-1.9734042553191493
11.771052631578947
-5.715425531914894
8.602631578947374
6.962765957446807
8.897368421052633
1.079787234042552
7.976315789473681
-4.468085106382979
7.663157894736841
4.579787234042552
12.139473684210529
-2.1037234042553195
11.807894736842101
-5.715425531914894
8.602631578947374
6.962765957446807
8.897368421052633
1.079787234042552
7.976315789473681
-4.468085106382979
7.663157894736841
5.063829787234042
12.434210526315795
-2.215425531914894
11.82631578947369
-5.715425531914894
8.602631578947374
6.962765957446807
8.897368421052633
1.079787234042552
7.976315789473681
-4.468085106382979
7.663157894736841
5.287234042553191
12.56315789473684
-2.215425531914894
11.82631578947369
-5.715425531914894
8.602631578947374
6.962765957446807
8.897368421052633
1.079787234042552
7.976315789473681
-4.468085106382979
7.663157894736841
5.752659574468085
12.821052631578944
-2.215425531914894
11.82631578947369
-5.715425531914894
8.602631578947374
6.962765957446807
8.897368421052633
1.079787234042552
7.976315789473681
-4.468085106382979
7.663157894736841
5.976063829787233
12.931578947368422
-2.215425531914894
11.82631578947369
-5.715425531914894
8.602631578947374
6.962765957446807
8.897368421052633
1.079787234042552
7.976315789473681
-4.468085106382979
7.663157894736841
6.367021276595745
13.13421052631579
-2.215425531914894
11.82631578947369
-5.715425531914894
8.602631578947374
6.962765957446807
8.897368421052633
1.079787234042552
7.976315789473681
-4.468085106382979
7.663157894736841
6.73936170212766
13.300000000000004
-2.215425531914894
11.82631578947369
-5.715425531914894
8.602631578947374
6.962765957446807
8.897368421052633
1.079787234042552
7.976315789473681
-4.468085106382979
7.663157894736841
6.888297872340425
13.373684210526314
-2.215425531914894
11.82631578947369
-5.715425531914894
8.602631578947374
6.962765957446807
8.897368421052633
1.079787234042552
7.976315789473681
-4.468085106382979
7.663157894736841
7.167553191489361
13.465789473684211
-2.215425531914894
11.82631578947369
-5.715425531914894
8.602631578947374
6.962765957446807
8.897368421052633
1.079787234042552
7.976315789473681
-4.468085106382979
7.663157894736841
7.297872340425531
13.502631578947366
-2.215425531914894
11.82631578947369
-5.715425531914894
8.602631578947374
6.962765957446807
8.897368421052633
1.079787234042552
7.976315789473681
-4.468085106382979
7.663157894736841
7.39095744680851
13.539473684210527
-2.215425531914894
11.82631578947369
-5.715425531914894
8.602631578947374
6.962765957446807
8.897368421052633
1.079787234042552
7.976315789473681
-4.468085106382979
7.663157894736841
7.39095744680851
13.539473684210527
-2.215425531914894
11.82631578947369
-5.715425531914894
8.602631578947374
6.962765957446807
8.897368421052633
1.0239361702127656
8.142105263157895
-4.468085106382979
7.663157894736841
7.39095744680851
13.539473684210527
-2.122340425531915
11.807894736842101
-5.715425531914894
8.602631578947374
6.962765957446807
8.897368421052633
1.0053191489361701
8.215789473684211
-4.468085106382979
7.663157894736841
7.39095744680851
13.539473684210527
-2.047872340425532
11.715789473684211
-5.715425531914894
8.602631578947374
6.962765957446807
8.897368421052633
0.9867021276595738
8.289473684210527
-4.468085106382979
7.663157894736841
7.39095744680851
13.539473684210527
-1.9547872340425538
11.586842105263159
-5.715425531914894
8.602631578947374
6.962765957446807
8.897368421052633
0.9680851063829783
8.399999999999999
-4.468085106382979
7.663157894736841
7.39095744680851
13.539473684210527
-1.7686170212765964
11.27368421052632
-5.715425531914894
8.602631578947374
6.962765957446807
8.897368421052633
0.9308510638297864
8.547368421052632
-4.468085106382979
7.663157894736841
7.39095744680851
13.539473684210527
-1.6382978723404253
11.089473684210525
-5.715425531914894
8.602631578947374
6.962765957446807
8.897368421052633
0.8377659574468082
8.952631578947368
-4.468085106382979
7.663157894736841
7.39095744680851
13.539473684210527
-1.5079787234042552
10.868421052631575
-5.715425531914894
8.602631578947374
6.962765957446807
8.897368421052633
0.7632978723404253
9.17368421052631
-4.468085106382979
7.663157894736841
7.39095744680851
13.539473684210527
-1.247340425531915
10.352631578947374
-5.715425531914894
8.602631578947374
6.962765957446807
8.897368421052633
0.5026595744680851
9.72631578947368
-4.468085106382979
7.663157894736841
7.39095744680851
13.539473684210527
-1.1170212765957448
10.07631578947369
-5.715425531914894
8.602631578947374
6.962765957446807
8.897368421052633
0.35372340425531856
9.984210526315792
-4.468085106382979
7.663157894736841
7.39095744680851
13.539473684210527
-0.875
9.52368421052632
-5.715425531914894
8.602631578947374
6.962765957446807
8.897368421052633
0.18617021276595747
10.242105263157896
-4.468085106382979
7.663157894736841
7.39095744680851
13.539473684210527
-0.7632978723404262
9.247368421052634
-5.715425531914894
8.602631578947374
6.962765957446807
8.897368421052633
-0.22340425531914931
10.739473684210523
-4.468085106382979
7.663157894736841
7.39095744680851
13.539473684210527
-0.5398936170212769
8.676315789473684
-5.715425531914894
8.602631578947374
6.962765957446807
8.897368421052633
-0.44680851063829863
10.997368421052634
-4.468085106382979
7.663157894736841
7.39095744680851
13.539473684210527
-0.4654255319148941
8.399999999999999
-5.715425531914894
8.602631578947374
6.962765957446807
8.897368421052633
-0.8936170212765964
11.439473684210526
-4.468085106382979
7.663157894736841
7.39095744680851
13.539473684210527
-0.37234042553191493
8.123684210526314
-5.715425531914894
8.602631578947374
6.962765957446807
8.897368421052633
-1.0984042553191493
11.623684210526314
-4.468085106382979
7.663157894736841
7.39095744680851
13.539473684210527
-0.2420212765957448
7.6078947368421055
-5.715425531914894
8.602631578947374
6.962765957446807
8.897368421052633
-1.3031914893617023
11.789473684210527
