45
12
7.372340425531915
6.613157894736844
6.292553191489361
7.460526315789473
3.071808510638297
11.863157894736844
-6.069148936170213
12.231578947368419
4.840425531914892
13.02368421052632
1.3590425531914896
8.10526315789474
7.372340425531915
6.613157894736844
6.292553191489361
7.460526315789473
2.9228723404255312
11.863157894736844
-6.069148936170213
12.231578947368419
4.85904255319149
13.02368421052632
1.5452127659574462
8.086842105263159
7.372340425531915
6.613157894736844
6.292553191489361
7.460526315789473
2.8856382978723403
11.863157894736844
-6.069148936170213
12.231578947368419
4.914893617021276
13.042105263157893
1.6382978723404253
8.068421052631578
7.372340425531915
6.613157894736844
6.292553191489361
7.460526315789473
2.792553191489361
11.789473684210527
-6.069148936170213
12.231578947368419
4.914893617021276
13.060526315789474
1.7313829787234045
8.068421052631578
7.372340425531915
6.613157894736844
6.292553191489361
7.460526315789473
2.49468085106383
11.642105263157895
-6.069148936170213
12.231578947368419
4.8962765957446805
13.13421052631579
1.9361702127659566
8.068421052631578
7.372340425531915
6.613157894736844
6.292553191489361
7.460526315789473
2.3085106382978715
11.550000000000004
-6.069148936170213
12.231578947368419
4.85904255319149
13.171052631578945
2.0478723404255312
8.068421052631578
7.372340425531915
6.613157894736844
6.292553191489361
7.460526315789473
1.8430851063829792
11.292105263157893
-6.069148936170213
12.231578947368419
4.821808510638297
13.22631578947368
2.1781914893617014
8.068421052631578
7.372340425531915
6.613157894736844
6.292553191489361
7.460526315789473
1.6196808510638299
11.163157894736841
-6.069148936170213
12.231578947368419
4.747340425531915
13.263157894736842
2.4388297872340416
8.123684210526314
7.372340425531915
6.613157894736844
6.292553191489361
7.460526315789473
1.1914893617021267
10.850000000000001
-6.069148936170213
12.231578947368419
4.468085106382977
13.300000000000004
2.5505319148936163
8.142105263157895
7.372340425531915
6.613157894736844
6.292553191489361
7.460526315789473
0.9680851063829783
10.72105263157895
-6.069148936170213
12.231578947368419
4.226063829787234
13.336842105263159
2.75531914893617
8.178947368421056
7.372340425531915
6.613157894736844
6.292553191489361
7.460526315789473
0.5957446808510634
10.463157894736845
-6.069148936170213
12.231578947368419
3.5558510638297864
13.35526315789474
2.9228723404255312
8.215789473684211
7.372340425531915
6.613157894736844
6.292553191489361
7.460526315789473
0.44680851063829774
10.334210526315786
-6.069148936170213
12.231578947368419
3.1835106382978715
13.300000000000004
2.997340425531915
8.234210526315792
7.372340425531915
6.613157894736844
6.292553191489361
7.460526315789473
0.1675531914893611
10.113157894736844
-6.069148936170213
12.231578947368419
2.327127659574467
13.22631578947368
3.071808510638297
8.252631578947366
7.372340425531915
6.613157894736844
6.292553191489361
7.460526315789473
0.05585106382978733
10.039473684210527
-6.069148936170213
12.231578947368419
1.9361702127659566
13.152631578947371
3.2207446808510625
8.307894736842101
7.372340425531915
6.613157894736844
6.292553191489361
7.460526315789473
0.01861702127659548
10.021052631578947
-6.069148936170213
12.231578947368419
1.079787234042552
12.986842105263158
3.295212765957446
8.32631578947369
7.372340425531915
6.613157894736844
6.292553191489361
7.460526315789473
0.01861702127659548
10.021052631578947
-6.069148936170213
12.231578947368419
0.2420212765957439
12.839473684210525
3.3510638297872344
8.344736842105263
7.372340425531915
6.613157894736844
6.292553191489361
7.460526315789473
0.01861702127659548
10.021052631578947
-6.069148936170213
12.231578947368419
-0.4654255319148941
12.67368421052631
3.4627659574468073
8.381578947368425
7.372340425531915
6.613157894736844
6.292553191489361
7.460526315789473
0.01861702127659548
10.021052631578947
-6.069148936170213
12.231578947368419
-0.7446808510638299
12.618421052631575
3.537234042553191
8.399999999999999
7.372340425531915
6.613157894736844
6.292553191489361
7.460526315789473
0.01861702127659548
10.021052631578947
-6.069148936170213
12.231578947368419
-1.247340425531915
12.489473684210523
3.537234042553191
8.399999999999999
7.372340425531915
6.613157894736844
6.292553191489361
7.460526315789473
0.01861702127659548
10.021052631578947
-6.069148936170213
12.231578947368419
-1.582446808510639
12.37894736842106
3.537234042553191
8.399999999999999
7.372340425531915
6.613157894736844
6.292553191489361
7.460526315789473
0.01861702127659548
10.021052631578947
-6.069148936170213
12.231578947368419
-1.6941489361702127
12.323684210526316
3.537234042553191
8.399999999999999
7.372340425531915
6.613157894736844
6.292553191489361
7.460526315789473
0.01861702127659548
10.021052631578947
-6.069148936170213
12.231578947368419
-1.7686170212765964
12.268421052631581
3.537234042553191
8.399999999999999
7.372340425531915
6.613157894736844
5.73404255319149
7.460526315789473
0.01861702127659548
10.021052631578947
-6.069148936170213
12.231578947368419
-1.7686170212765964
12.268421052631581
3.537234042553191
8.399999999999999
7.372340425531915
6.613157894736844
5.73404255319149
7.460526315789473
0.13031914893617014
9.965789473684211
-6.069148936170213
12.231578947368419
-1.7686170212765964
12.268421052631581
3.5558510638297864
8.178947368421056
7.372340425531915
6.613157894736844
5.64095744680851
7.497368421052634
0.18617021276595747
9.910526315789475
-6.069148936170213
12.231578947368419
-1.7686170212765964
12.268421052631581
3.6117021276595747
8.068421052631578
7.372340425531915
6.613157894736844
5.585106382978722
7.423684210526318
0.2606382978723403
9.836842105263159
-6.069148936170213
12.231578947368419
-1.7686170212765964
12.268421052631581
3.667553191489361
7.939473684210526
7.372340425531915
6.613157894736844
5.51063829787234
7.368421052631575
0.5026595744680851
9.63421052631579
-6.069148936170213
12.231578947368419
-1.7686170212765964
12.268421052631581
3.7234042553191493
7.773684210526319
7.372340425531915
6.613157894736844
5.287234042553191
7.147368421052633
0.6515957446808507
9.505263157894738
-6.069148936170213
12.231578947368419
-1.7686170212765964
12.268421052631581
3.8164893617021267
7.515789473684208
7.372340425531915
6.613157894736844
5.101063829787233
7.018421052631581
0.8191489361702127
9.357894736842105
-6.069148936170213
12.231578947368419
-1.7686170212765964
12.268421052631581
3.8537234042553195
7.423684210526318
7.372340425531915
6.613157894736844
4.877659574468085
6.852631578947374
1.2659574468085104
9.06315789473684
-6.069148936170213
12.231578947368419
-1.7686170212765964
12.268421052631581
3.8909574468085104
7.3315789473684205
7.372340425531915
6.613157894736844
4.654255319148936
6.6684210526315795
1.5079787234042552
8.915789473684214
-6.069148936170213
12.231578947368419
-1.7686170212765964
12.268421052631581
3.9281914893617014
7.239473684210523
7.372340425531915
6.613157894736844
4.0212765957446805
6.2631578947368425
2.0292553191489358
8.639473684210529
-6.069148936170213
12.231578947368419
-1.7686170212765964
12.268421052631581
3.946808510638297
7.2026315789473685
7.372340425531915
6.613157894736844
3.6489361702127656
6.042105263157893
2.2712765957446805
8.52894736842105
-6.069148936170213
12.231578947368419
-1.7686170212765964
12.268421052631581
3.9654255319148923
7.184210526315788
7.372340425531915
6.613157894736844
3.295212765957446
5.876315789473686
2.75531914893617
8.271052631578954
-6.069148936170213
12.231578947368419
-1.7686170212765964
12.268421052631581
3.9840425531914896
7.184210526315788
7.372340425531915
6.613157894736844
2.8856382978723403
5.692105263157899
3.0159574468085104
8.160526315789475
-6.069148936170213
12.231578947368419
-1.7686170212765964
12.268421052631581
3.9840425531914896
7.184210526315788
7.372340425531915
6.613157894736844
2.0478723404255312
5.434210526315788
3.4813829787234045
7.976315789473681
-6.069148936170213
12.231578947368419
-1.7686170212765964
12.268421052631581
3.9840425531914896
7.184210526315788
7.372340425531915
6.613157894736844
1.6569148936170208
5.342105263157897
3.7234042553191493
7.902631578947371
-6.069148936170213
12.231578947368419
-1.7686170212765964
12.268421052631581
3.9840425531914896
7.184210526315788
7.372340425531915
6.613157894736844
1.2659574468085104
5.25
4.188829787234042
7.755263157894738
-6.069148936170213
12.231578947368419
-1.7686170212765964
12.268421052631581
3.9840425531914896
7.184210526315788
7.372340425531915
6.613157894736844
0.875
5.194736842105264
4.412234042553191
7.699999999999996
-6.069148936170213
12.231578947368419
-1.7686170212765964
12.268421052631581
3.9840425531914896
7.184210526315788
7.372340425531915
6.613157894736844
0.09308510638297829
5.102631578947367
4.85904255319149
7.571052631578951
-6.069148936170213
12.231578947368419
-1.7686170212765964
12.268421052631581
3.9840425531914896
7.184210526315788
7.372340425531915
6.613157894736844
-0.27925531914893664
5.065789473684212
5.026595744680851
7.55263157894737
-6.069148936170213
12.231578947368419
-1.7686170212765964
12.268421052631581
3.9840425531914896
7.184210526315788
7.372340425531915
6.613157894736844
-0.6329787234042552
5.028947368421051
5.2686170212765955
7.515789473684208
-6.069148936170213
12.231578947368419
-1.7686170212765964
12.268421052631581
3.9840425531914896
7.184210526315788
7.372340425531915
6.613157894736844
-0.9680851063829792
5.0473684210526315
5.38031914893617
7.515789473684208
-6.069148936170213
12.231578947368419
-1.7686170212765964
12.268421052631581
3.9840425531914896
7.184210526315788
7.372340425531915
6.613157894736844
-1.5079787234042552
5.139473684210529
5.547872340425531
7.515789473684208
-6.069148936170213
12.231578947368419
-1.7686170212765964
12.268421052631581
3.9840425531914896
7.184210526315788
7.372340425531915
6.613157894736844
-1.7872340425531918
5.213157894736838
5.659574468085106
7.571052631578951
-6.069148936170213
12.231578947368419
-1.7686170212765964
12.268421052631581
3.9840425531914896
7.184210526315788
