%YAML 1.1
%TAG !u! tag:unity3d.com,2011:
--- !u!21 &2100000
Material:
  serializedVersion: 6
  m_ObjectHideFlags: 0
  m_CorrespondingSourceObject: {fileID: 0}
  m_PrefabInstance: {fileID: 0}
  m_PrefabAsset: {fileID: 0}
  m_Name: hair_man_style_8
  m_Shader: {fileID: 10703, guid: 0000000000000000f000000000000000, type: 0}
  m_ShaderKeywords: _GLOSSINESS_FROM_BASE_ALPHA _NORMALMAP _SPECGLOSSMAP
  m_LightmapFlags: 4
  m_EnableInstancingVariants: 0
  m_DoubleSidedGI: 0
  m_CustomRenderQueue: -1
  stringTagMap: {}
  disabledShaderPasses: []
  m_SavedProperties:
    serializedVersion: 3
    m_TexEnvs:
    - _AlphaClip:
        m_Texture: {fileID: 2800000, guid: efcf011b65939434f85a1705e569594d, type: 3}
        m_Scale: {x: 1, y: 1}
        m_Offset: {x: 0, y: 0}
    - _BumpMap:
        m_Texture: {fileID: 2800000, guid: efcf011b65939434f85a1705e569594d, type: 3}
        m_Scale: {x: 1, y: 1}
        m_Offset: {x: 0, y: 0}
    - _CutoutTipGrad1TipGrad2:
        m_Texture: {fileID: 2800000, guid: b7b31e977f2a3064e9eada168596cbcd, type: 3}
        m_Scale: {x: 1, y: 1}
        m_Offset: {x: 0, y: 0}
    - _DetailAlbedoMap:
        m_Texture: {fileID: 0}
        m_Scale: {x: 1, y: 1}
        m_Offset: {x: 0, y: 0}
    - _DetailMask:
        m_Texture: {fileID: 0}
        m_Scale: {x: 1, y: 1}
        m_Offset: {x: 0, y: 0}
    - _DetailNormalMap:
        m_Texture: {fileID: 0}
        m_Scale: {x: 1, y: 1}
        m_Offset: {x: 0, y: 0}
    - _EmissionMap:
        m_Texture: {fileID: 0}
        m_Scale: {x: 1, y: 1}
        m_Offset: {x: 0, y: 0}
    - _HairToneVariation:
        m_Texture: {fileID: 0}
        m_Scale: {x: 1, y: 1}
        m_Offset: {x: 0, y: 0}
    - _HairsNormal:
        m_Texture: {fileID: 2800000, guid: 9a79aa322f67842448907ade5c0439ed, type: 3}
        m_Scale: {x: 1, y: 1}
        m_Offset: {x: 0, y: 0}
    - _KKFlowMap:
        m_Texture: {fileID: 0}
        m_Scale: {x: 1, y: 1}
        m_Offset: {x: 0, y: 0}
    - _MainTex:
        m_Texture: {fileID: 2800000, guid: b7b31e977f2a3064e9eada168596cbcd, type: 3}
        m_Scale: {x: 1, y: 1}
        m_Offset: {x: 0, y: 0}
    - _MetallicGlossMap:
        m_Texture: {fileID: 0}
        m_Scale: {x: 1, y: 1}
        m_Offset: {x: 0, y: 0}
    - _NormalMap1:
        m_Texture: {fileID: 2800000, guid: efcf011b65939434f85a1705e569594d, type: 3}
        m_Scale: {x: 1, y: 1}
        m_Offset: {x: 0, y: 0}
    - _NormalMap2:
        m_Texture: {fileID: 0}
        m_Scale: {x: 1, y: 1}
        m_Offset: {x: 0, y: 0}
    - _OcclusionMap:
        m_Texture: {fileID: 0}
        m_Scale: {x: 1, y: 1}
        m_Offset: {x: 0, y: 0}
    - _ParallaxMap:
        m_Texture: {fileID: 0}
        m_Scale: {x: 1, y: 1}
        m_Offset: {x: 0, y: 0}
    - _SpecGlossMap:
        m_Texture: {fileID: 2800000, guid: fbaa3d9964d8d2f4bbca334ae7c25a66, type: 3}
        m_Scale: {x: 1, y: 1}
        m_Offset: {x: 0, y: 0}
    m_Floats:
    - _AlphaClip: 0
    - _Blend: 0
    - _BumpScale: 1
    - _Cull: 0
    - _CullMode: 2
    - _Cutoff: 0.5
    - _DetailNormalMapScale: 1
    - _DstBlend: 0
    - _EmissionScaleUI: 0
    - _FastSlow: 150
    - _GlossMapScale: 1
    - _Gloss_Variation: 0.5
    - _Glossiness: 0.5
    - _GlossinessSource: 0
    - _GlossyReflections: 0
    - _Grad1_Power: 1
    - _Grad2_Power: 0.446602
    - _HairSpecCol_Mixing: 1.25
    - _KKPrimaryRootShift: 0.275
    - _KKPrimarySpecularExponent: 64
    - _KKReflectionGrayScale: 5
    - _KKReflectionSmoothness: 0.5
    - _KKSecondaryRootShift: -0.04
    - _KKSecondarySpecularExponent: 48
    - _Metallic: 0
    - _Mode: 0
    - _MotionAmount: 0.01
    - _Normal_Blending: 0.5
    - _OcclusionStrength: 1
    - _Parallax: 0.02
    - _PlaneReflectionBumpClamp: 0.05
    - _PlaneReflectionBumpScale: 0.4
    - _ReceiveShadows: 1
    - _Shininess: 0.5
    - _SmoothnessInAlbedo: 0
    - _SmoothnessTextureChannel: 1
    - _SmoothnessTweak1: 1
    - _SmoothnessTweak2: 0
    - _SpecColorInheritance: -1
    - _SpecSource: 0
    - _SpecularHighlights: 1
    - _SrcBlend: 1
    - _Surface: 0
    - _TipAmount: 1
    - _Translucency: 0
    - _UVSec: 0
    - _ZTest: 4
    - _ZWrite: 1
    m_Colors:
    - _BaseColorGloss: {r: 1, g: 1, b: 1, a: 1}
    - _Color: {r: 1, g: 1, b: 1, a: 1}
    - _EmisColor: {r: 0.5441177, g: 0.48407713, b: 0.40808827, a: 0}
    - _EmissionColor: {r: 0, g: 0, b: 0, a: 1}
    - _EmissionColorUI: {r: 1, g: 1, b: 1, a: 1}
    - _Grad1_Color: {r: 1, g: 0, b: 0, a: 1}
    - _Grad2_Color: {r: 0, g: 0.5, b: 1, a: 1}
    - _Hair_ColorGloss: {r: 0.8897059, g: 0.7850346, b: 0.7850346, a: 1}
    - _KKPrimarySpecularColor: {r: 1, g: 1, b: 1, a: 1}
    - _KKSecondarySpecularColor: {r: 1, g: 1, b: 1, a: 1}
    - _KKSpecularMixDirectFactors: {r: 0.15, g: 0.1, b: 0.05, a: 0}
    - _KKSpecularMixIndirectFactors: {r: 0.75, g: 0.6, b: 0.15, a: 0}
    - _NormalAngleShift: {r: 0.5, g: 0.5, b: 0.5, a: 1}
    - _NormalShift: {r: 0, g: 0.5, b: 0, a: 0}
    - _ShineColor_ToneBoost: {r: 0.5, g: 0.5, b: 0.5, a: 1}
    - _ShineColor_ToneBost: {r: 0.5, g: 0.5, b: 0.5, a: 1}
    - _SpecColor: {r: 0.2, g: 0.2, b: 0.2, a: 1}
    - _SpecularMapColorTweak: {r: 1, g: 1, b: 1, a: 1}
    - _TipColor_Mix: {r: 0.5, g: 0.5, b: 0.5, a: 1}
    - _Tip_Color: {r: 0.1172414, g: 1, b: 0, a: 0.5}
