45
12
-2.4388297872340425
5.784210526315789
-3.5558510638297873
6.963157894736838
5.2313829787234045
8.43684210526316
6.795212765957446
12.839473684210525
0.4840425531914887
6.760526315789477
-3.425531914893617
11.91842105263158
-2.4388297872340425
5.784210526315789
-4.11436170212766
6.963157894736838
5.212765957446807
8.621052631578948
6.795212765957446
12.839473684210525
0.4840425531914887
6.760526315789477
-3.425531914893617
11.91842105263158
-2.4388297872340425
5.784210526315789
-4.11436170212766
6.963157894736838
5.194148936170212
8.676315789473684
6.795212765957446
12.839473684210525
0.3909574468085104
6.6684210526315795
-3.425531914893617
11.91842105263158
-2.4388297872340425
5.784210526315789
-4.095744680851064
6.7973684210526315
5.156914893617021
8.731578947368419
6.795212765957446
12.839473684210525
0.3909574468085104
6.594736842105263
-3.425531914893617
11.91842105263158
-2.4388297872340425
5.784210526315789
-4.058510638297872
6.742105263157896
5.101063829787233
8.842105263157897
6.795212765957446
12.839473684210525
0.37234042553191493
6.410526315789475
-3.425531914893617
11.91842105263158
-2.4388297872340425
5.784210526315789
-3.9840425531914896
6.705263157894734
5.045212765957446
8.915789473684214
6.795212765957446
12.839473684210525
0.3351063829787231
6.318421052631578
-3.425531914893617
11.91842105263158
-2.4388297872340425
5.784210526315789
-3.890957446808511
6.6684210526315795
4.952127659574467
9.026315789473685
6.795212765957446
12.839473684210525
0.3164893617021276
6.226315789473681
-3.425531914893617
11.91842105263158
-2.4388297872340425
5.784210526315789
-3.518617021276596
6.521052631578954
4.85904255319149
9.136842105263156
6.795212765957446
12.839473684210525
0.29787234042553123
6.042105263157893
-3.425531914893617
11.91842105263158
-2.4388297872340425
5.784210526315789
-3.276595744680851
6.428947368421056
4.561170212765957
9.468421052631584
6.795212765957446
12.839473684210525
0.29787234042553123
5.968421052631584
-3.425531914893617
11.91842105263158
-2.4388297872340425
5.784210526315789
-2.997340425531915
6.35526315789474
4.3563829787234045
9.652631578947371
6.795212765957446
12.839473684210525
0.29787234042553123
5.913157894736841
-3.425531914893617
11.91842105263158
-2.4388297872340425
5.784210526315789
-2.252659574468085
6.244736842105269
3.9281914893617014
10.07631578947369
6.795212765957446
12.839473684210525
0.27925531914893575
5.80263157894737
-3.425531914893617
11.91842105263158
-2.4388297872340425
5.784210526315789
-1.8617021276595747
6.226315789473681
3.6489361702127656
10.27894736842105
6.795212765957446
12.839473684210525
0.27925531914893575
5.765789473684208
-3.425531914893617
11.91842105263158
-2.4388297872340425
5.784210526315789
-1.3962765957446814
6.226315789473681
3.0904255319148923
10.702631578947368
6.795212765957446
12.839473684210525
0.27925531914893575
5.7289473684210535
-3.425531914893617
11.91842105263158
-2.4388297872340425
5.784210526315789
-0.9680851063829792
6.226315789473681
2.792553191489361
10.905263157894737
6.795212765957446
12.839473684210525
0.27925531914893575
5.710526315789473
-3.425531914893617
11.91842105263158
-2.4388297872340425
5.784210526315789
-0.03723404255319185
6.2631578947368425
2.2154255319148923
11.310526315789474
6.795212765957446
12.839473684210525
0.27925531914893575
5.710526315789473
-3.425531914893617
11.91842105263158
-2.4388297872340425
5.784210526315789
0.4654255319148932
6.318421052631578
1.8989361702127656
11.494736842105262
6.795212765957446
12.839473684210525
0.27925531914893575
5.710526315789473
-3.425531914893617
11.91842105263158
-2.4388297872340425
5.784210526315789
0.8377659574468082
6.373684210526314
1.3218085106382969
11.807894736842101
6.795212765957446
12.839473684210525
0.27925531914893575
5.710526315789473
-3.425531914893617
11.91842105263158
-2.4388297872340425
5.784210526315789
1.2659574468085104
6.428947368421056
0.7819148936170208
12.084210526315786
6.795212765957446
12.839473684210525
0.27925531914893575
5.710526315789473
-3.425531914893617
11.91842105263158
-2.4388297872340425
5.784210526315789
1.9361702127659566
6.576315789473689
0.27925531914893575
12.34210526315789
6.795212765957446
12.839473684210525
0.27925531914893575
5.710526315789473
-3.425531914893617
11.91842105263158
-2.4388297872340425
5.784210526315789
2.252659574468085
6.6684210526315795
0.03723404255319096
12.452631578947368
6.795212765957446
12.839473684210525
0.27925531914893575
5.710526315789473
-3.425531914893617
11.91842105263158
-2.4388297872340425
5.784210526315789
2.531914893617021
6.760526315789477
-0.42819148936170226
12.655263157894737
6.795212765957446
12.839473684210525
0.27925531914893575
5.710526315789473
-3.425531914893617
11.91842105263158
-2.4388297872340425
5.784210526315789
2.9414893617021267
6.907894736842103
-0.6888297872340425
12.765789473684208
6.795212765957446
12.839473684210525
0.27925531914893575
5.710526315789473
-3.425531914893617
11.91842105263158
-2.4388297872340425
5.784210526315789
3.127659574468085
6.963157894736838
-1.0797872340425538
12.949999999999996
6.795212765957446
12.839473684210525
0.27925531914893575
5.710526315789473
-3.425531914893617
11.91842105263158
-2.4388297872340425
5.784210526315789
3.3138297872340416
7.018421052631581
-1.2659574468085113
13.005263157894738
6.795212765957446
12.839473684210525
0.27925531914893575
5.710526315789473
-3.425531914893617
11.91842105263158
-2.4388297872340425
5.784210526315789
3.4813829787234045
7.055263157894736
-1.6755319148936172
13.13421052631579
6.795212765957446
12.839473684210525
0.27925531914893575
5.710526315789473
-3.425531914893617
11.91842105263158
-2.4388297872340425
5.784210526315789
3.4813829787234045
7.055263157894736
-1.8430851063829792
13.171052631578945
6.795212765957446
12.839473684210525
0.27925531914893575
5.710526315789473
-3.425531914893617
11.91842105263158
-2.4388297872340425
5.784210526315789
3.4813829787234045
7.055263157894736
-2.1409574468085113
13.244736842105262
6.795212765957446
12.839473684210525
0.27925531914893575
5.710526315789473
-3.425531914893617
11.91842105263158
-2.4388297872340425
5.784210526315789
3.4813829787234045
7.055263157894736
-2.3085106382978724
13.263157894736842
6.795212765957446
12.839473684210525
0.27925531914893575
5.710526315789473
-3.425531914893617
11.91842105263158
-2.4388297872340425
5.784210526315789
3.4813829787234045
7.055263157894736
-2.6063829787234045
13.281578947368423
6.795212765957446
12.839473684210525
0.27925531914893575
5.710526315789473
-3.425531914893617
11.91842105263158
-2.4388297872340425
5.784210526315789
3.4813829787234045
7.055263157894736
-2.7367021276595747
13.318421052631578
6.795212765957446
12.839473684210525
0.27925531914893575
5.710526315789473
-3.425531914893617
11.91842105263158
-2.4388297872340425
5.784210526315789
3.4813829787234045
7.055263157894736
-2.997340425531915
13.336842105263159
6.795212765957446
12.839473684210525
0.27925531914893575
5.710526315789473
-3.425531914893617
11.91842105263158
-2.4388297872340425
5.784210526315789
3.4813829787234045
7.055263157894736
-3.127659574468085
13.336842105263159
6.795212765957446
12.839473684210525
0.27925531914893575
5.710526315789473
-3.425531914893617
11.91842105263158
-2.4388297872340425
5.784210526315789
3.4813829787234045
7.055263157894736
-3.444148936170213
13.318421052631578
6.795212765957446
12.839473684210525
0.27925531914893575
5.710526315789473
-3.425531914893617
11.91842105263158
-2.4388297872340425
5.784210526315789
3.4813829787234045
7.055263157894736
-3.5744680851063833
13.281578947368423
6.795212765957446
12.839473684210525
0.27925531914893575
5.710526315789473
-3.425531914893617
11.91842105263158
-2.4388297872340425
5.784210526315789
3.4813829787234045
7.055263157894736
-3.8164893617021276
13.189473684210526
6.795212765957446
12.839473684210525
0.27925531914893575
5.710526315789473
-3.425531914893617
11.91842105263158
-2.4388297872340425
5.784210526315789
3.4813829787234045
7.055263157894736
-3.946808510638298
13.11578947368421
6.795212765957446
12.839473684210525
0.27925531914893575
5.710526315789473
-3.425531914893617
11.91842105263158
-2.4388297872340425
5.784210526315789
3.4813829787234045
7.055263157894736
-4.24468085106383
12.89473684210526
6.795212765957446
12.839473684210525
0.27925531914893575
5.710526315789473
-3.425531914893617
11.91842105263158
-2.4388297872340425
5.784210526315789
3.4813829787234045
7.055263157894736
-4.3936170212765955
12.765789473684208
6.795212765957446
12.839473684210525
0.27925531914893575
5.710526315789473
-3.425531914893617
11.91842105263158
-2.4388297872340425
5.784210526315789
3.4813829787234045
7.055263157894736
-4.654255319148936
12.489473684210523
6.795212765957446
12.839473684210525
0.27925531914893575
5.710526315789473
-3.425531914893617
11.91842105263158
-2.4388297872340425
5.784210526315789
3.4813829787234045
7.055263157894736
-4.76595744680851
12.323684210526316
6.795212765957446
12.839473684210525
0.27925531914893575
5.710526315789473
-3.425531914893617
11.91842105263158
-2.4388297872340425
5.784210526315789
3.4813829787234045
7.055263157894736
-4.85904255319149
12.15789473684211
6.795212765957446
12.839473684210525
0.27925531914893575
5.710526315789473
-3.425531914893617
11.91842105263158
-2.4388297872340425
5.784210526315789
3.4813829787234045
7.055263157894736
-4.98936170212766
11.789473684210527
6.795212765957446
12.839473684210525
0.27925531914893575
5.710526315789473
-3.425531914893617
11.91842105263158
-2.4388297872340425
5.784210526315789
3.4813829787234045
7.055263157894736
-5.026595744680851
11.568421052631578
6.795212765957446
12.839473684210525
0.27925531914893575
5.710526315789473
-3.425531914893617
11.91842105263158
-2.4388297872340425
5.784210526315789
3.4813829787234045
7.055263157894736
-5.0638297872340425
11.328947368421055
6.795212765957446
12.839473684210525
0.27925531914893575
5.710526315789473
-3.425531914893617
11.91842105263158
-2.4388297872340425
5.784210526315789
3.4813829787234045
7.055263157894736
-5.0638297872340425
10.83157894736842
6.795212765957446
12.839473684210525
0.27925531914893575
5.710526315789473
-3.425531914893617
11.91842105263158
