48
12
2.327127659574467
4.292105263157893
0.9867021276595738
4.531578947368416
-2.4015957446808516
13.152631578947371
4.3936170212765955
12.710526315789473
-3.6303191489361706
10.62894736842106
3.332446808510637
10.5
2.327127659574467
4.292105263157893
0.9867021276595738
4.531578947368416
-2.5319148936170217
13.060526315789474
4.3936170212765955
12.710526315789473
-3.425531914893617
10.40789473684211
3.332446808510637
10.5
2.327127659574467
4.292105263157893
0.9867021276595738
4.531578947368416
-2.625
13.005263157894738
4.3936170212765955
12.710526315789473
-3.2579787234042556
10.297368421052632
3.332446808510637
10.5
2.327127659574467
4.292105263157893
0.9867021276595738
4.531578947368416
-2.699468085106383
12.968421052631584
4.468085106382977
12.56315789473684
-3.034574468085107
10.260526315789477
3.332446808510637
10.5
2.327127659574467
4.292105263157893
0.9867021276595738
4.531578947368416
-2.8484042553191493
12.913157894736841
4.523936170212766
12.47105263157895
-2.49468085106383
10.113157894736844
3.332446808510637
10.5
2.327127659574467
4.292105263157893
0.9867021276595738
4.531578947368416
-2.9414893617021276
12.857894736842105
4.561170212765957
12.37894736842106
-2.1409574468085113
10.002631578947366
3.332446808510637
10.5
2.327127659574467
4.292105263157893
0.9867021276595738
4.531578947368416
-3.164893617021277
12.692105263157899
4.76595744680851
12.084210526315786
-1.4335106382978724
9.781578947368416
3.332446808510637
10.5
2.327127659574467
4.292105263157893
0.9867021276595738
4.531578947368416
-3.36968085106383
12.544736842105266
4.840425531914892
11.93684210526316
-1.1170212765957448
9.689473684210526
3.332446808510637
10.5
2.327127659574467
4.292105263157893
0.9867021276595738
4.531578947368416
-3.5558510638297873
12.323684210526316
4.914893617021276
11.82631578947369
-0.4095744680851068
9.542105263157893
3.332446808510637
10.5
2.327127659574467
4.292105263157893
0.9867021276595738
4.531578947368416
-3.6117021276595747
12.213157894736845
5.063829787234042
11.513157894736842
0.20478723404255295
9.376315789473686
3.332446808510637
10.5
2.327127659574467
4.292105263157893
0.9867021276595738
4.531578947368416
-3.7234042553191493
11.992105263157896
5.063829787234042
11.310526315789474
0.7446808510638299
9.30263157894737
3.332446808510637
10.5
2.327127659574467
4.292105263157893
0.9867021276595738
4.531578947368416
-3.797872340425532
11.752631578947366
5.045212765957446
11.126315789473686
0.9680851063829783
9.265789473684208
3.332446808510637
10.5
2.327127659574467
4.292105263157893
0.9867021276595738
4.531578947368416
-3.8537234042553195
11.439473684210526
5.007978723404255
10.776315789473685
1.3962765957446805
9.228947368421053
3.332446808510637
10.5
2.327127659574467
4.292105263157893
0.9867021276595738
4.531578947368416
-3.872340425531915
11.255263157894738
4.9707446808510625
10.62894736842106
1.6010638297872344
9.210526315789473
3.332446808510637
10.5
2.327127659574467
4.292105263157893
0.9867021276595738
4.531578947368416
-3.9095744680851063
10.942105263157899
4.821808510638297
10.297368421052632
1.917553191489361
9.192105263157899
3.332446808510637
10.5
2.327127659574467
4.292105263157893
0.9867021276595738
4.531578947368416
-3.9095744680851063
10.81315789473684
4.7287234042553195
10.18684210526316
2.0664893617021267
9.192105263157899
3.332446808510637
10.5
2.327127659574467
4.292105263157893
0.9867021276595738
4.531578947368416
-3.872340425531915
10.665789473684214
4.63563829787234
10.094736842105263
2.3643617021276597
9.192105263157899
3.332446808510637
10.5
2.327127659574467
4.292105263157893
0.9867021276595738
4.531578947368416
-3.8164893617021276
10.352631578947374
4.468085106382977
9.928947368421056
2.457446808510637
9.192105263157899
3.332446808510637
10.5
2.327127659574467
4.292105263157893
0.9867021276595738
4.531578947368416
-3.779255319148936
10.205263157894741
4.375
9.836842105263159
2.662234042553191
9.228947368421053
3.332446808510637
10.5
2.327127659574467
4.292105263157893
0.9867021276595738
4.531578947368416
-3.742021276595745
10.057894736842101
4.188829787234042
9.652631578947371
2.829787234042552
9.247368421052634
3.332446808510637
10.5
2.327127659574467
4.292105263157893
0.9867021276595738
4.531578947368416
-3.6117021276595747
9.818421052631578
4.0212765957446805
9.542105263157893
2.997340425531915
9.247368421052634
3.332446808510637
10.5
2.327127659574467
4.292105263157893
0.9867021276595738
4.531578947368416
-3.518617021276596
9.689473684210526
3.872340425531915
9.468421052631584
2.997340425531915
9.247368421052634
3.332446808510637
10.5
2.327127659574467
4.292105263157893
0.9867021276595738
4.531578947368416
-2.9414893617021276
9.30263157894737
3.5930851063829774
9.39473684210526
2.997340425531915
9.247368421052634
3.332446808510637
10.5
2.327127659574467
4.292105263157893
0.9867021276595738
4.531578947368416
-2.8484042553191493
9.284210526315789
3.4627659574468073
9.339473684210525
2.997340425531915
9.247368421052634
3.332446808510637
10.5
2.327127659574467
4.292105263157893
0.9867021276595738
4.531578947368416
-2.662234042553192
9.228947368421053
3.0904255319148923
9.228947368421053
2.997340425531915
9.247368421052634
3.332446808510637
10.5
2.327127659574467
4.292105263157893
0.9867021276595738
4.531578947368416
-2.550531914893617
9.192105263157899
2.8856382978723403
9.228947368421053
2.997340425531915
9.247368421052634
3.332446808510637
10.5
2.327127659574467
4.292105263157893
0.9867021276595738
4.531578947368416
-2.327127659574468
9.118421052631575
2.457446808510637
9.210526315789473
2.997340425531915
9.247368421052634
3.332446808510637
10.5
2.327127659574467
4.292105263157893
0.9867021276595738
4.531578947368416
-2.2340425531914896
9.118421052631575
2.2340425531914896
9.210526315789473
2.997340425531915
9.247368421052634
3.332446808510637
10.5
2.327127659574467
4.292105263157893
0.9867021276595738
4.531578947368416
-2.085106382978724
9.100000000000001
1.75
9.228947368421053
2.997340425531915
9.247368421052634
3.332446808510637
10.5
2.327127659574467
4.292105263157893
0.9867021276595738
4.531578947368416
-2.0106382978723403
9.100000000000001
1.4893617021276597
9.228947368421053
2.997340425531915
9.247368421052634
3.332446808510637
10.5
2.327127659574467
4.292105263157893
0.9867021276595738
4.531578947368416
-1.7313829787234045
9.08157894736842
1.2101063829787222
9.247368421052634
2.997340425531915
9.247368421052634
3.332446808510637
10.5
2.327127659574467
4.292105263157893
0.9867021276595738
4.531578947368416
-1.6010638297872344
9.118421052631575
0.6515957446808507
9.30263157894737
2.997340425531915
9.247368421052634
3.332446808510637
10.5
2.327127659574467
4.292105263157893
0.9867021276595738
4.531578947368416
-1.3962765957446814
9.118421052631575
0.09308510638297829
9.431578947368422
2.997340425531915
9.247368421052634
3.332446808510637
10.5
2.327127659574467
4.292105263157893
0.9867021276595738
4.531578947368416
-1.210106382978724
9.136842105263156
-0.1489361702127665
9.468421052631584
2.997340425531915
9.247368421052634
3.332446808510637
10.5
2.327127659574467
4.292105263157893
0.9867021276595738
4.531578947368416
-1.1356382978723403
9.136842105263156
-0.7074468085106389
9.63421052631579
2.997340425531915
9.247368421052634
3.332446808510637
10.5
2.327127659574467
4.292105263157893
0.9867021276595738
4.531578947368416
-1.042553191489362
9.136842105263156
-0.9494680851063837
9.744736842105269
2.997340425531915
9.247368421052634
3.332446808510637
10.5
2.327127659574467
4.292105263157893
0.9867021276595738
4.531578947368416
-0.7632978723404262
9.136842105263156
-1.4893617021276597
9.965789473684211
2.997340425531915
9.247368421052634
3.332446808510637
10.5
2.327127659574467
4.292105263157893
0.9867021276595738
4.531578947368416
-0.6329787234042552
9.136842105263156
-1.712765957446809
10.07631578947369
2.997340425531915
9.247368421052634
3.332446808510637
10.5
2.327127659574467
4.292105263157893
0.9867021276595738
4.531578947368416
-0.3909574468085113
9.155263157894737
-2.1409574468085113
10.297368421052632
2.997340425531915
9.247368421052634
3.332446808510637
10.5
2.327127659574467
4.292105263157893
0.9867021276595738
4.531578947368416
-0.27925531914893664
9.17368421052631
-2.3457446808510642
10.426315789473684
2.997340425531915
9.247368421052634
3.332446808510637
10.5
2.327127659574467
4.292105263157893
0.9867021276595738
4.531578947368416
0.0
9.228947368421053
-2.5691489361702127
10.702631578947368
2.997340425531915
9.247368421052634
3.332446808510637
10.5
2.327127659574467
4.292105263157893
0.9867021276595738
4.531578947368416
0.1675531914893611
9.228947368421053
-2.625
10.794736842105266
2.997340425531915
9.247368421052634
3.332446808510637
10.5
2.327127659574467
4.292105263157893
0.9867021276595738
4.531578947368416
0.44680851063829774
9.265789473684208
-2.6436170212765964
10.850000000000001
2.997340425531915
9.247368421052634
3.332446808510637
10.5
2.327127659574467
4.292105263157893
0.9867021276595738
4.531578947368416
0.6888297872340425
9.284210526315789
-2.6436170212765964
10.850000000000001
2.997340425531915
9.247368421052634
3.332446808510637
10.5
2.327127659574467
4.292105263157893
0.9867021276595738
4.531578947368416
0.9680851063829783
9.30263157894737
-2.6436170212765964
10.850000000000001
2.997340425531915
9.247368421052634
3.332446808510637
10.5
2.327127659574467
4.292105263157893
0.9867021276595738
4.531578947368416
1.0984042553191493
9.30263157894737
-2.6436170212765964
10.850000000000001
2.997340425531915
9.247368421052634
3.332446808510637
10.5
2.327127659574467
4.292105263157893
0.9867021276595738
4.531578947368416
1.3218085106382969
9.339473684210525
-2.6436170212765964
10.850000000000001
2.997340425531915
9.247368421052634
3.332446808510637
10.5
2.327127659574467
4.292105263157893
0.9867021276595738
4.531578947368416
1.414893617021276
9.376315789473686
-2.6436170212765964
10.850000000000001
2.997340425531915
9.247368421052634
3.332446808510637
10.5
