45
12
-0.5585106382978724
5.028947368421051
-1.8989361702127665
5.56315789473684
3.034574468085106
6.226315789473681
-5.585106382978724
8.657894736842103
4.542553191489361
12.323684210526316
-2.792553191489362
11.992105263157896
-0.5585106382978724
5.028947368421051
-1.9547872340425538
5.213157894736838
2.625
5.710526315789473
-5.585106382978724
8.657894736842103
4.542553191489361
12.323684210526316
-2.792553191489362
11.992105263157896
-0.5585106382978724
5.028947368421051
-1.8244680851063828
5.1763157894736835
2.6436170212765955
5.747368421052634
-5.585106382978724
8.657894736842103
4.542553191489361
12.323684210526316
-2.792553191489362
11.992105263157896
-0.5585106382978724
5.028947368421051
-1.6382978723404253
5.102631578947367
2.6436170212765955
5.80263157894737
-5.585106382978724
8.657894736842103
4.542553191489361
12.323684210526316
-2.792553191489362
11.992105263157896
-0.5585106382978724
5.028947368421051
-1.0797872340425538
4.992105263157896
2.662234042553191
5.876315789473686
-5.585106382978724
8.657894736842103
4.542553191489361
12.323684210526316
-2.792553191489362
11.992105263157896
-0.5585106382978724
5.028947368421051
-0.7446808510638299
4.9184210526315795
2.7367021276595747
6.060526315789474
-5.585106382978724
8.657894736842103
4.542553191489361
12.323684210526316
-2.792553191489362
11.992105263157896
-0.5585106382978724
5.028947368421051
-0.03723404255319185
4.844736842105263
2.8111702127659566
6.226315789473681
-5.585106382978724
8.657894736842103
4.542553191489361
12.323684210526316
-2.792553191489362
11.992105263157896
-0.5585106382978724
5.028947368421051
0.3164893617021276
4.844736842105263
2.9228723404255312
6.723684210526315
-5.585106382978724
8.657894736842103
4.542553191489361
12.323684210526316
-2.792553191489362
11.992105263157896
-0.5585106382978724
5.028947368421051
0.6329787234042552
4.881578947368425
2.960106382978722
7.036842105263162
-5.585106382978724
8.657894736842103
4.542553191489361
12.323684210526316
-2.792553191489362
11.992105263157896
-0.5585106382978724
5.028947368421051
0.8936170212765955
4.9184210526315795
2.9787234042553195
7.442105263157899
-5.585106382978724
8.657894736842103
4.542553191489361
12.323684210526316
-2.792553191489362
11.992105263157896
-0.5585106382978724
5.028947368421051
1.284574468085106
5.028947368421051
2.9414893617021267
8.32631578947369
-5.585106382978724
8.657894736842103
4.542553191489361
12.323684210526316
-2.792553191489362
11.992105263157896
-0.5585106382978724
5.028947368421051
1.4335106382978715
5.065789473684212
2.8856382978723403
8.878947368421052
-5.585106382978724
8.657894736842103
4.542553191489361
12.323684210526316
-2.792553191489362
11.992105263157896
-0.5585106382978724
5.028947368421051
1.5638297872340416
5.102631578947367
2.792553191489361
9.39473684210526
-5.585106382978724
8.657894736842103
4.542553191489361
12.323684210526316
-2.792553191489362
11.992105263157896
-0.5585106382978724
5.028947368421051
1.6941489361702118
5.102631578947367
2.6808510638297864
9.836842105263159
-5.585106382978724
8.657894736842103
4.542553191489361
12.323684210526316
-2.792553191489362
11.992105263157896
-0.5585106382978724
5.028947368421051
1.6941489361702118
5.102631578947367
2.4015957446808507
10.573684210526316
-5.585106382978724
8.657894736842103
4.542553191489361
12.323684210526316
-2.792553191489362
11.992105263157896
-0.5585106382978724
5.028947368421051
1.6941489361702118
5.102631578947367
2.2340425531914896
10.905263157894737
-5.585106382978724
8.657894736842103
4.542553191489361
12.323684210526316
-2.792553191489362
11.992105263157896
-0.5585106382978724
5.028947368421051
1.6941489361702118
5.102631578947367
1.8617021276595747
11.457894736842107
-5.585106382978724
8.657894736842103
4.542553191489361
12.323684210526316
-2.792553191489362
11.992105263157896
-0.5585106382978724
5.028947368421051
1.6941489361702118
5.102631578947367
1.6755319148936163
11.660526315789475
-5.585106382978724
8.657894736842103
4.542553191489361
12.323684210526316
-2.792553191489362
11.992105263157896
-0.5585106382978724
5.028947368421051
1.6941489361702118
5.102631578947367
1.2659574468085104
11.992105263157896
-5.585106382978724
8.657894736842103
4.542553191489361
12.323684210526316
-2.792553191489362
11.992105263157896
-0.5585106382978724
5.028947368421051
1.6941489361702118
5.102631578947367
1.079787234042552
12.121052631578948
-5.585106382978724
8.657894736842103
4.542553191489361
12.323684210526316
-2.792553191489362
11.992105263157896
-0.5585106382978724
5.028947368421051
1.6941489361702118
5.102631578947367
0.912234042553191
12.213157894736845
-5.585106382978724
8.657894736842103
4.542553191489361
12.323684210526316
-2.792553191489362
11.992105263157896
-0.5585106382978724
5.028947368421051
1.6941489361702118
5.102631578947367
0.7446808510638299
12.323684210526316
-5.585106382978724
8.657894736842103
4.542553191489361
12.323684210526316
-2.792553191489362
11.992105263157896
-0.5585106382978724
5.028947368421051
1.6941489361702118
5.102631578947367
0.707446808510638
12.323684210526316
-5.585106382978724
8.657894736842103
4.542553191489361
12.323684210526316
-2.792553191489362
11.992105263157896
-0.5585106382978724
5.028947368421051
1.6941489361702118
5.102631578947367
0.707446808510638
12.323684210526316
-5.585106382978724
8.657894736842103
5.101063829787233
12.305263157894736
-2.792553191489362
11.992105263157896
-0.5585106382978724
5.028947368421051
1.6941489361702118
5.102631578947367
0.7632978723404253
12.489473684210523
-5.585106382978724
8.657894736842103
5.045212765957446
12.305263157894736
-2.792553191489362
11.992105263157896
-0.5585106382978724
5.028947368421051
1.6941489361702118
5.102631578947367
0.8005319148936163
12.526315789473685
-5.585106382978724
8.657894736842103
4.98936170212766
12.286842105263155
-2.792553191489362
11.992105263157896
-0.5585106382978724
5.028947368421051
1.6941489361702118
5.102631578947367
0.875
12.544736842105266
-5.585106382978724
8.657894736842103
4.8962765957446805
12.268421052631581
-2.792553191489362
11.992105263157896
-0.5585106382978724
5.028947368421051
1.6941489361702118
5.102631578947367
1.0984042553191493
12.600000000000001
-5.585106382978724
8.657894736842103
4.654255319148936
12.231578947368419
-2.792553191489362
11.992105263157896
-0.5585106382978724
5.028947368421051
1.6941489361702118
5.102631578947367
1.2659574468085104
12.636842105263156
-5.585106382978724
8.657894736842103
4.50531914893617
12.231578947368419
-2.792553191489362
11.992105263157896
-0.5585106382978724
5.028947368421051
1.6941489361702118
5.102631578947367
1.4707446808510642
12.710526315789473
-5.585106382978724
8.657894736842103
4.132978723404255
12.231578947368419
-2.792553191489362
11.992105263157896
-0.5585106382978724
5.028947368421051
1.6941489361702118
5.102631578947367
2.0106382978723403
12.857894736842105
-5.585106382978724
8.657894736842103
3.9654255319148923
12.231578947368419
-2.792553191489362
11.992105263157896
-0.5585106382978724
5.028947368421051
1.6941489361702118
5.102631578947367
2.289893617021276
12.949999999999996
-5.585106382978724
8.657894736842103
3.6489361702127656
12.231578947368419
-2.792553191489362
11.992105263157896
-0.5585106382978724
5.028947368421051
1.6941489361702118
5.102631578947367
2.8856382978723403
13.11578947368421
-5.585106382978724
8.657894736842103
3.5
12.231578947368419
-2.792553191489362
11.992105263157896
-0.5585106382978724
5.028947368421051
1.6941489361702118
5.102631578947367
3.164893617021276
13.152631578947371
-5.585106382978724
8.657894736842103
3.36968085106383
12.231578947368419
-2.792553191489362
11.992105263157896
-0.5585106382978724
5.028947368421051
1.6941489361702118
5.102631578947367
3.742021276595745
13.13421052631579
-5.585106382978724
8.657894736842103
3.1462765957446805
12.231578947368419
-2.792553191489362
11.992105263157896
-0.5585106382978724
5.028947368421051
1.6941489361702118
5.102631578947367
4.263297872340425
12.968421052631584
-5.585106382978724
8.657894736842103
3.071808510638297
12.231578947368419
-2.792553191489362
11.992105263157896
-0.5585106382978724
5.028947368421051
1.6941489361702118
5.102631578947367
4.7287234042553195
12.747368421052634
-5.585106382978724
8.657894736842103
3.0159574468085104
12.213157894736845
-2.792553191489362
11.992105263157896
-0.5585106382978724
5.028947368421051
1.6941489361702118
5.102631578947367
4.952127659574467
12.618421052631575
-5.585106382978724
8.657894736842103
3.0159574468085104
12.213157894736845
-2.792553191489362
11.992105263157896
-0.5585106382978724
5.028947368421051
1.6941489361702118
5.102631578947367
5.305851063829786
12.305263157894736
-5.585106382978724
8.657894736842103
3.0159574468085104
12.213157894736845
-2.792553191489362
11.992105263157896
-0.5585106382978724
5.028947368421051
1.6941489361702118
5.102631578947367
5.4734042553191475
12.139473684210529
-5.585106382978724
8.657894736842103
3.0159574468085104
12.213157894736845
-2.792553191489362
11.992105263157896
-0.5585106382978724
5.028947368421051
1.6941489361702118
5.102631578947367
5.752659574468085
11.82631578947369
-5.585106382978724
8.657894736842103
3.0159574468085104
12.213157894736845
-2.792553191489362
11.992105263157896
-0.5585106382978724
5.028947368421051
1.6941489361702118
5.102631578947367
5.86436170212766
11.642105263157895
-5.585106382978724
8.657894736842103
3.0159574468085104
12.213157894736845
-2.792553191489362
11.992105263157896
-0.5585106382978724
5.028947368421051
1.6941489361702118
5.102631578947367
6.069148936170212
11.255263157894738
-5.585106382978724
8.657894736842103
3.0159574468085104
12.213157894736845
-2.792553191489362
11.992105263157896
-0.5585106382978724
5.028947368421051
1.6941489361702118
5.102631578947367
6.162234042553191
11.071052631578944
-5.585106382978724
8.657894736842103
3.0159574468085104
12.213157894736845
-2.792553191489362
11.992105263157896
-0.5585106382978724
5.028947368421051
1.6941489361702118
5.102631578947367
6.25531914893617
10.850000000000001
-5.585106382978724
8.657894736842103
3.0159574468085104
12.213157894736845
-2.792553191489362
11.992105263157896
